﻿// 171
//== Comparing Reality To Its Alternatives
== Розділ 3. Порівнюючи реальність із її альтернативами

// 172
//If J. K. Rowling asks you about this story, you know nothing.
[disclaimer]#Якщо Дж. К. Ролінґ спитає вас про цю історію, ви нічого не знаєте.#

// 173
//__“But then the question is - who?”__
-- __Тоді постає питання -- хто?__

***

// 174
//“Good Lord,” said the barman, peering at Harry, “is this - can this be -?”
//!Канон
-- О Господи, -- вигукнув шинкар, придивившись до Гаррі. -- Чи це... Невже це?!

// 175
//Harry leaned towards the bar of the Leaky Cauldron as best he could, though it
//came up to somewhere around the tips of his eyebrows. A question like
//__that__ deserved his very best.
Гаррі як міг обперся об шинквас "`Дірявого казана`", хоч і сягав його краю хіба десь на
рівні брів. __Таке__ питання вимагало від нього докласти якнайбільше зусиль.

// 176
//“Am I - could I be - maybe - you never know - if I’m__ not __- but then
//the question is - __who?__”
-- Чи я... Невже це я... Можливо -- ніколи не знаєш напевне, але якщо __ні__, тоді
постає питання -- __хто__?

// 177
//“Bless my soul,” whispered the old barman. “Harry Potter… what an honour.”
//!Канон
-- Боже мій милий -- прошепотів старий шинкар. -- Гаррі Поттер... Яка честь.

// 178
//Harry blinked, then rallied. “Well, yes, you’re quite perceptive; most people
//don’t realise that so quickly -”
Гаррі кліпнув, а тоді зосередився:

-- Ну, так, ви доволі проникливі. Більшість людей не усвідомлює цього так
швидко...

// 179
//“That’s enough,” Professor McGonagall said. Her hand tightened on Harry’s
//shoulder. “Don’t pester the boy, Tom, he’s new to all this.”
-- Годі, -- обірвала професорка Макґонеґел, стиснувши Гарріне плече. --
Не докучай хлопцеві, Томе, для нього все це нове.

// 180
//“But it is him?” quavered an old woman. “It’s Harry Potter?” With a scraping
//sound, she got up from her chair.
-- Але це він? -- тремким голосом допитувалася якась стара жінка. -- Це Гаррі Поттер? --
вона підвелася, рипнувши стільцем.

// 181
//“Doris -” McGonagall said warningly. The glare she shot around the room should
//have been enough to intimidate anyone.

-- Доріс, -- застережливо сказала Макґонеґел. Пильного погляду, яким вона окинула
кімнату, вистачило б, щоб залякати будь-кого.

// 182
//“I only want to shake his hand,” the woman whispered. She bent low and stuck
//out a wrinkled hand, which Harry, feeling confused and more uncomfortable than
//he ever had in his life, carefully shook. Tears fell from the woman’s eyes onto
//their clasped hands. “My granson was an Auror,” she whispered to him. “Died in
//seventy-nine. Thank you, Harry Potter. Thank heavens for you.”
-- Я лише хочу потиснути йому руку, -- прошепотіла жінка. Вона низько схилилася й
виставила зморщену долоню, що її Гаррі, збентежений і зніяковілий, як ніколи в житті,
обережно стиснув. Сльози крапотіли з очей жінки на їхні зімкнені руки. --
Мій онук був аврором, -- тихо мовила вона, -- помер у сімдесят девʼятому.
Дякую тобі, Гаррі Поттере. Хвала небесам, що ти є.

// 183
//“You’re welcome,” Harry said automatically, and then he turned his head and
//shot Professor McGonagall a frightened, pleading look.
-- Нема за що, -- мимоволі відповів Гаррі й повернув голову до професорки
Макґонеґел, злякано й благально на неї глянувши.

// 184
//Professor McGonagall slammed her foot down just as the general rush was about
//to start. It made a noise that gave Harry a new referent for the phrase “Crack
//of Doom”, and everyone froze in place.
У кімнаті саме здіймалася загальна метушня, коли професорка Макґонеґел гупнула
ногою по підлозі. Цей звук став для Гаррі новим еталоном фрази
"`Єрихонська труба`", і всі заклякли.

// 185
//“We’re in a hurry,” Professor McGonagall said in a voice that sounded
//perfectly, utterly normal.
-- Ми поспішаємо, -- оголосила професорка Макґонеґел надзвичайно, бездоганно
нормальним тоном.

// 186
//They left the bar without any trouble.
Шинок вони покинули без жодної проблеми.

// 187
//“Professor?” Harry said, once they were in the courtyard. He had meant to ask
//what was going on, but oddly found himself asking an entirely different
//question instead. “Who was that pale man, by the corner? The man with the
//twitching eye?”
-- Професорко? -- звернувся Гаррі, коли вони вийшли до внутрішнього двору. Він збирався
був запитатися, що все те значило, але на свій подив поставив геть інше питання:
-- А що то за блідий чоловік сидів у кутку? У котрого сіпалося око?

// 188
//“Hm?” said Professor McGonagall, sounding a bit surprised; perhaps she hadn’t
//expected that question either. “That was Professor Quirinus Quirrell. He’ll be
//teaching Defence Against the Dark Arts this year at Hogwarts.”
-- Гм? -- дещо здивовано озвалася професорка Макґонеґел; здавалося, вона теж не
очікувала цього питання. -- Це професор Квірін Квірел. Цього року він викладатиме
захист від темних мистецтв у Гоґвортсі.

// 189
//“I had the strangest feeling that I knew him…” Harry rubbed his forehead. “And
//that I shouldn’t ought to shake his hand.” Like meeting someone who had been a
//friend, once, before something went drastically wrong… that wasn’t really it at
//all, but Harry couldn’t find words. “And what __was…__ all of that?”
-- Мене охопило вкрай дивне відчуття, ніби я його знаю... -- Гаррі потер лоба.
-- І що мені не варто тиснути йому руку...

Ніби зустрів когось, хто колись був другом -- до того, як усе пішло
шкереберть. Це було не зовсім те, проте інших слів Гаррі дібрати не зміг.

-- А що це взагалі було... усе те? -- поцікавився він.

// 190
//Professor McGonagall was giving him an odd glance. “Mr. Potter… do you know…
//how __much__ have you been told… about how your parents died?”
Професорка Макґонеґел обдарувала його дивним поглядом:

-- Містере Поттер... чи знаєте ви... __як багато__ вам розповідали... про те, як
загинули ваші батьки?

// 191
//Harry returned a steady look. “My parents are alive and well, and they always
//refused to talk about how my __genetic__ parents died. From which I infer
//that it wasn’t good.”
Гаррі непорушно глянув на неї у відповідь:

-- Мої батьки живі-здорові й завжди відмовлялися говорити про смерть моїх
__генетичних__ батьків. З чого я роблю висновок, що вона не була легкою.

// 192
//“An admirable loyalty,” said Professor McGonagall. Her voice went low. “Though
//it hurts a little to hear you say it like that. Lily and James were friends of
//mine.”
-- Відданість, гідна захоплення, -- голос професорки Макґонеґел
стишився. -- І все ж дещо боляче чути від вас ці слова. Лілі й Джеймс були моїми
друзями.

// 193
//Harry looked away, suddenly ashamed. “I’m sorry,” he said in a small voice.
//“But I __have__ a Mum and Dad. And I know that I’d just make myself
//unhappy by comparing that reality to… something perfect that I built up in my
//imagination.”
Гаррі, раптово засоромившись, відвернувся.

-- Вибачте, -- зніяковіло промовив він. -- Проте в мене __є__ мама й тато. І я
знаю, що лише засмутився б, якби порівнював реальність із... чимось
досконалим, що спорудив би у своїй уяві.

// 194
//“That is amazingly wise of you,” Professor McGonagall said quietly. “But your
//__genetic__ parents died very well indeed, protecting you.”
-- Це дивовижно мудро з вашого боку, -- тихо зауважила професорка Макґонеґел. --
Проте ваші __генетичні__ батьки насправді померли дуже гідно, захищаючи вас.

// 195
//__Protecting me?__
"`Захищаючи мене?`".

// 196
//Something strange clutched at Harry’s heart. “What… __did__ happen?”
Щось дивне стиснуло серце Гаррі:

-- Що... саме трапилося?

// 197
//Professor McGonagall sighed. Her wand tapped Harry’s forehead, and his vision
//blurred for a moment. “Something of a disguise,” she said, “so that this
//doesn’t happen again, not until you’re ready.” Then her wand licked out again,
//and tapped three times on a brick wall…
Професорка Макґонеґел зітхнула. Її паличка торкнулася чола Гаррі, і на мить йому
перед очима все розпливлося.

-- Хоч якесь маскування, -- пояснила вона, -- щоб це не повторилося, доки ви не будете готові.

А тоді її паличка знову ковзнула, тричі постукавши по цегляному мурі...

// 198
//…which hollowed into a hole, and dilated and expanded and shivered into a huge
//archway, revealing a long row of shops with signs advertising cauldrons and
//dragon livers.
...у якому одразу ж зʼявився отвір, що розсовувався в різні боки, збільшувався й
здригався, аж доки перед ними не постав величезний склепінчастий прохід.
За ним маячів довгий ряд крамниць із вивісками, що рекламували казани й
драконячу печінку.

// 199
//Harry didn’t blink. It wasn’t like anyone was turning into a cat.
Гаррі й бровою не повів. Ніхто ж не перетворювався на кицьку.

// 200
//And they walked forwards, together, into the wizarding world.
І вони ступили вперед, разом, до чаклунського світу.

// 201
//There were merchants hawking Bounce Boots (“Made with real Flubber!”) and
//“Knives +3! Forks +2! Spoons with a +4 bonus!” There were goggles that would
//turn anything you looked at green, and a lineup of comfy armchairs with
//ejection seats for emergencies.
// hedrok: Flubber = flying rubber => летюча ґуми => Летума
// @langtool MORFOLOGIK_RULE_UK_UA-летуми
Там були крамарі, що навперейми закликали купити стрибучі чоботи
("`Зроблені зі справжньої летуми!`") і "`Ножі +3! Виделки +2! Ложки з бонусом +4!`".
Там продавались окуляри, що забарвлювали все в зелений колір, а ще низка
зручних крісел із сидіннями-катапультами на випадок небезпеки.

// 202
//Harry’s head kept rotating, rotating like it was trying to wind itself off his
//neck. It was like walking through the magical items section of an
//__Advanced Dungeons and Dragons__ rulebook (he didn’t play the game, but
//he did enjoy reading the rulebooks). Harry desperately didn’t want to miss a
//single item for sale, in case it was one of the three you needed to complete
//the cycle of infinite __wish__ spells.
Голова Гаррі все оберталася й оберталася навсібіч, наче намагалася відкрутитися
із шиї. Він ніби потрапив у розділ з описом магічних предметів "`Просунутих
підземель і драконів`" (він не грав у цю гру, проте книги правил читав залюбки).
Гаррі відчайдушно намагався не пропустити жодного товару -- раптом він виявиться одним
із трьох необхідних складників для створення нескінченного циклу заклять бажання.

// 203
//Then Harry spotted something that made him, entirely without thinking, veer off
//from the Deputy Headmistress and start heading straight into the shop, a front
//of blue bricks with bronze-metal trim. He was brought back to reality only when
//Professor McGonagall stepped right in front of him.
Потім Гаррі помітив дещо, що змусило його цілковито бездумно облишити заступницю
директора й рушити навпростець до крамниці із синьої цегли та з бронзовим оздобленням.
Отямився він, лише коли професорка Макґонеґел заступила йому шлях.

// 204
//“Mr. Potter?” she said.
-- Містере Поттер? -- запитала вона.

// 205
//Harry blinked, then realised what he’d just done. “I’m sorry! I forgot for a
//moment that I was with you instead of my family.” Harry gestured at the shop
//window, which displayed fiery letters that shone piercingly bright and yet
//remote, spelling out __Bigbam’s Brilliant Books__. “When you walk past a
//bookshop you haven’t visited before, you have to go in and look around. That’s
//the family rule.”
Гаррі кліпнув, усвідомивши, що він щойно зробив.

// @langtool MORFOLOGIK_RULE_UK_UA-Біґбема
-- Вибачте! Я на якусь мить забув, що йду з вами, а не зі своєю родиною, -- він
вказав на вікно крамниці, де вогняні літери сяяли навіть здалеку сліпуче яскраво,
складаючись у фразу "`Видатні книжки Біґбема`".
-- Коли проходиш повз книгарню, що в ній ще не був, то маєш зайти й роздивитися.
Це родинне правило.

// 206
//“That is the most Ravenclaw thing I have ever heard.”
-- Це найбільш рейвенкловська річ, що я коли-небудь чула.

// 207
//“What?”
-- Що?

// 208
//“Nothing. Mr. Potter, our first step is to visit Gringotts, the bank of the
//wizarding world. Your __genetic__ family vault is there, with the
//inheritance your __genetic__ parents left you, and you’ll need money for
//school supplies.” She sighed. “And, I suppose, a certain amount of spending
//money for books could be excused as well. Though you might want to hold off for
//a time. Hogwarts has quite a large library on magical subjects. And the tower
//in which, I strongly suspect, you will be living, has a more broad-ranging
//library of its own. Any book you bought now would probably be a duplicate.”
// hedrok: vault -> сховище У перекладі оригінальної серії використовується "сейф",
// проте мені здається він зовсім не пасує...
-- Пусте, містере Поттер. Спершу нам треба відвідати "`Ґрінґотс`" -- банк
чаклунського світу. Там розміщується сховище вашої __генетичної__ родини зі спадком,
що його залишили вам __генетичні__ батьки, а
вам знадобляться гроші для навчальних матеріалів, -- вона зітхнула.
-- Гадаю, витратити певну суму на книжки буде цілком виправдано. Однак не варто,
мабуть, із цим поспішати. У Гоґвортсі накопичилася чимала бібліотека з магічною
літературою. Окрім того, вежа, що ви в ній, я твердо переконана, житимете, має
власну, навіть більш різноманітну бібліотеку.
Будь-яка куплена зараз книжка, найімовірніше, матиме там примірник.

// 209
//Harry nodded, and they walked on.
Гаррі кивнув, і вони пішли далі.

// 210
//“Don’t get me wrong, it’s a __great__ distraction,” Harry said as his head
//kept swivelling, “probably the best distraction anyone has ever tried on me,
//but don’t think I’ve forgotten about our pending discussion.”
-- Не зрозумійте мене неправильно, це __чудовий__ спосіб відвертати увагу, --
сказав Гаррі, доки його голова знову почала вертітися, -- мабуть, найкращий з усіх,
випробуваних на мені. Проте не думайте, що я забув про нашу незавершену розмову.

// 211
//Professor McGonagall sighed. “Your parents - or your mother at any rate - may
//have been very wise not to tell you.”
Професорка Макґонеґел зітхнула:

-- Ваші батьки -- чи принаймні ваша мати -- вчинили дуже мудро, не розкривши вам
правди.

// 212
//“So you wish that I could continue in blissful ignorance? There is a certain
//flaw in that plan, Professor McGonagall.”
-- Тож ви бажаєте, щоб я й надалі залишався в блаженному невіданні? Цей план має
певні прогалини, професорко Макґонеґел.

// 213
//“I suppose it would be rather pointless,” the witch said tightly, “when anyone
//on the street could tell you the story. Very well.”
-- Гадаю, це було б доволі безґлуздо, -- напружено визнала відьма, -- якщо зважити,
що кожен перехожий може розповісти вам, що трапилося. Ну добре.

// 214
//And she told him of He-Who-Must-Not-Be-Named, the Dark Lord, Voldemort.
І вона повідала йому про Того-Кого-Не-Можна-Називати, Темного Лорда, Волдеморта.

// 215
//“Voldemort?” Harry whispered. It should have been funny, but it wasn’t. The
//name burned with a cold feeling, ruthlessness, diamond clarity, a hammer of
//pure titanium descending upon an anvil of yielding flesh. A chill swept over
//Harry even as he pronounced the word, and he resolved then and there to use
//safer terms like You-Know-Who.
-- Волдеморт? -- прошепотів Гаррі.

// @langtool BY_B[3] prio=-50-би
Це мало би бути кумедним, проте не було. Імʼя
обпікало холодом, жорстокістю, кришталевою ясністю, ударом молота зі щирого титану
по ковадлу піддатливої плоті. Гаррі овіяло холодом від самого тільки звуку цього слова,
тож він вирішив вдаватися до більш безпечних термінів на кшталт Відомо-Хто.

// 216
//The Dark Lord had raged upon wizarding Britain like a wilding wolf, tearing and
//rending at the fabric of their everyday lives. Other countries had wrung their
//hands but hesitated to intervene, whether out of apathetic selfishness or
//simple fear, for whichever was first among them to oppose the Dark Lord, their
//peace would be the next target of his terror.
Темний Лорд лютував у чаклунській Британії, диким вовком він роздирав і шматував
звичну матерію щоденного життя її мешканців. Решта країн висловлювала занепокоєння,
але втручатися не наважувалася: чи то через байдужий егоїзм, чи то просто через страх,
адже перший, хто виступив би проти Темного Лорда, міг стати наступною мішенню
його терору.

// 217
//(__The bystander effect,__ thought Harry, thinking of Latane and Darley’s
//experiment which had shown that you were more likely to get help if you had an
//epileptic fit in front of one person than in front of three. __Diffusion
//of responsibility, everyone hoping that someone else would go first.__)
// @ diffusion of responsibility -> дифузія відповідальності.
// Ельвіра: переклад bystander effect і прізвищ дослідників засновано на перекладі
// "Психології впливу" Чалдині від КСД
// @langtool MORFOLOGIK_RULE_UK_UA-Дарлея
"`Ефект спостерігача, -- подумав Гаррі, згадавши експеримент Латане й Дарлея:
у разі епілептичного нападу вам із більшою імовірністю допоможуть,
якщо поблизу опиниться одна людина, аніж троє. -- Дифузія
відповідальности: кожен сподівається, що хтось інший підійде першим`".

// 218
//The Death Eaters had followed in the Dark Lord’s wake and in his vanguard,
//carrion vultures to pick at wounds, or snakes to bite and weaken. The Death
//Eaters were not as terrible as the Dark Lord, but they were terrible, and they
//were many. And the Death Eaters wielded more than wands; there was wealth
//within those masked ranks, and political power, and secrets held in blackmail,
//to paralyse a society trying to protect itself.
Смертежери відгукнулися були на заклик Темного Лорда й стали до його лав:
стервʼятники, що копирсалися в ранах, змії, що знесилювали своїми укусами.
Смертежери були не такими жорстокими, як Темний Лорд, та все ж наганяли жаху, і
їх було багато. До того ж орудували вони не лише паличками: за масками в їхнім
строю ховалося багатство, політичний вплив, шантаж таємницями -- усе, щоб
паралізувати суспільство, яке намагалося захищатися.

// 219
//An old and respected journalist, Yermy Wibble, called for increased taxes and
//conscription. He shouted that it was absurd for the many to cower in fear of
//the few. His skin, only his skin, had been found nailed to the newsroom wall
//that next morning, next to the skins of his wife and two daughters. Everyone
//wished for something more to be done, and no one dared take the lead to propose
//it. Whoever stood out the most became the next example.
Єрмі Вібл, старий шановний журналіст, заклика{stress}в був підвищити податки й запровадити
військову повинність. Він кричав, що абсурдно багатьом щулитися від страху
перед кількома. Шкіра, від нього залишилася сама тільки шкіра -- прибита до
стіни редакції поруч зі шкірами його дружини й двох доньок. Кожен хотів, щоб було
вжито рішучіших заходів, але заявляти про це відкрито більше ніхто не насмілювався.
Хто здіймав найбільше галасу, ставав наступним прикладом.

// 220
//Until the names of James and Lily Potter rose to the top of that list.
Доки імена Джеймса й Лілі Поттерів не очолили цей список.

// 221
//And those two might have died with their wands in their hands and not regretted
//their choices, for they __were__ heroes; but for that they had an infant
//child, their son, Harry Potter.
Ці двоє теж могли б померти з паличками в руках і не жалкувати про свій вибір, адже
вони __були__ героями. Проте вони мали немовля, свого сина -- Гаррі Поттера.

// 222
//Tears were coming into Harry’s eyes. He wiped them away in anger or maybe
//desperation, __I didn’t know those people, not really, they aren’t my
//parents __now,__ it would be pointless to feel so sad for them -__
Сльози підступили до очей Гаррі. Він витер їх зі злістю чи, може, розпачем. "`Я не
знав цих людей по-справжньому, вони не мої батьки __тепер__, безґлуздо
шкодувати за ними...`".

// 223
//When Harry was done sobbing into the witch’s robes, he looked up, and felt a
//little bit better to see tears in Professor McGonagall’s eyes as well.
Припинивши ридати в мантію відьми, Гаррі поглянув угору й відчув деяке
полегшення -- в очах професорки Макґонеґел теж стояли сльози. З тремтінням у голосі він запитав:

// 224
//“So what happened?” Harry said, his voice trembling.
-- То що трапилося?

// 225
//“The Dark Lord came to Godric’s Hollow,” Professor McGonagall said in a
//whisper. “You should have been hidden, but you were betrayed. The Dark Lord
//killed James, and he killed Lily, and he came in the end to you, to your cot.
//He cast the Killing Curse at you, and that was where it ended. The Killing
//Curse is formed of pure hate, and strikes directly at the soul, severing it
//from the body. It cannot be blocked, and whomever it strikes, they die. But you
//survived. You are the only person ever to survive. The Killing Curse rebounded
//and struck the Dark Lord, leaving only the burnt hulk of his body and a scar
//upon your forehead. That was the end of the terror, and we were free. That,
//Harry Potter, is why people want to see the scar on your forehead, and why they
//want to shake your hand.”
-- Темний Лорд прийшов у Ґодрикову Долину, -- прошепотіла професорка Макґонеґел.
-- Це мав бути ваш сховок, але вас зрадили. Темний Лорд убив Джеймса, убив Лілі
й зрештою наблизився до вас, до колиски. Він кинув у вас смертельним прокляттям,
і на цьому все скінчилося. Воно утворюється з чистої ненависти й бʼє в самісіньку
душу, відриваючи її від тіла. Його не можна заблокувати, і хай у кого воно
поцілить, той помирає. Проте ви вижили. Ви єдина людина, що вижила. Смертельне
прокляття відскочило й влучило в Темного Лорда, лишивши від нього тільки
обгорілий кістяк і нагородивши вас шрамом на лобі. Так настав кінець терору, і ми
зробилися вільними. Ось чому, Гаррі Поттере, люди хочуть побачити шрам на вашому
лобі, чому вони хочуть потиснути вашу руку.

// 226
//The storm of weeping that had washed through Harry had used up all his tears;
//he could not cry again, he was done.
Буря емоцій, що охопила Гаррі раніше, вимила з нього всі сльози, він був
спустошеним і не міг більше плакати.

// 227
//(And somewhere in the back of his mind was a small, small note of confusion, a
//sense of something wrong about that story; and it should have been a part of
//Harry’s art to notice that tiny note, but he was distracted. For it is a sad
//rule that whenever you are most in need of your art as a rationalist, that is
//when you are most likely to forget it.)
(Лиш десь у закапелках його свідомости ледь-ледь забриніла бентежна нотка,
відчуття чогось неправильного в цій історії. Зважати на такі невиразні сигнали
мало б бути одним із Гарріних умінь, та його увагу відвернули. Недарма існує сумне правило:
найімовірніше, ви забудете про мистецтво раціональности саме тоді, коли
найбільше його потребуватимете.)

// 228
//Harry detached himself from Professor McGonagall’s side. “I’ll - have to think
//about this,” he said, trying to keep his voice under control. He stared at his
//shoes. “Um. You can go ahead and call them my parents, if you want, you don’t
//have to say ‘genetic parents’ or anything. I guess there’s no reason I can’t
//have two mothers and two fathers.”
Гаррі відсторонився від професорки Макґонеґел.

-- Мені... потрібно це обміркувати, -- сказав він якомога спокійнішим голосом,
втупившись у свої черевики. -- Ем. Якщо хочете, надалі можете називати їх моїми
батьками, не обовʼязково говорити "`генетичні батьки`" чи щось таке.
Гадаю, немає причини, чому я не можу мати дві мами й два тати.

// 229
//There was no sound from Professor McGonagall.
Професорка Макґонеґел не видала ані звуку.

// 230
//And they walked together in silence, until they came before a great white
//building with vast bronze doors, and carven words above saying
//__Gringotts Bank.__
І вони йшли разом далі мовчки, аж доки перед ними не постала велика біла будівля
з широченними бронзовими дверима, над якими було висічено слова: "`Банк
Ґрінґотс`".

// @langtool-global ALT_SPELLING[1]-безґлуздо
// @langtool-global ALT_SPELLING[1]-найбезґлуздіші
// @langtool-global MORFOLOGIK_RULE_UK_UA-Веррес-Еванс
// @langtool-global MORFOLOGIK_RULE_UK_UA-гоґвортського
// @langtool-global MORFOLOGIK_RULE_UK_UA-Гоґвортської
// @langtool-global MORFOLOGIK_RULE_UK_UA-Дурслі
// @langtool-global MORFOLOGIK_RULE_UK_UA-Еванс-Веррес
// @langtool-global MORFOLOGIK_RULE_UK_UA-Поттер-Еванс-Веррес
// @langtool-global MORFOLOGIK_RULE_UK_UA-Ролінґ
// @langtool-global MORFOLOGIK_RULE_UK_UA-Левіоза
// @langtool-global MORFOLOGIK_RULE_UK_UA-Вінґардіум
// @langtool-global MORFOLOGIK_RULE_UK_UA-анімага
// @langtool-global MORFOLOGIK_RULE_UK_UA-Гарріних
// @langtool-global MORFOLOGIK_RULE_UK_UA-Гаррін
// @langtool-global MORFOLOGIK_RULE_UK_UA-Помфрі
// @langtool-global MORFOLOGIK_RULE_UK_UA-Відомо-Хто
// @langtool-global MORFOLOGIK_RULE_UK_UA-Ґодрикову
// @langtool-global MORFOLOGIK_RULE_UK_UA-Єрмі
// @langtool-global MORFOLOGIK_RULE_UK_UA-Вібл
// @langtool-global MORFOLOGIK_RULE_UK_UA-рейвенкловська
// @langtool-global MORFOLOGIK_RULE_UK_UA-Гарріне
// @langtool-global MORFOLOGIK_RULE_UK_UA-Квірін
// @langtool-global MORFOLOGIK_RULE_UK_UA-Того-Кого-Не-Можна-Називати
// @langtool-global MORFOLOGIK_RULE_UK_UA-Ґрінґотс
// @langtool-global MORFOLOGIK_RULE_UK_UA-Смертежери
// @langtool-global MORFOLOGIK_RULE_UK_UA-аврором
// @langtool-global MORFOLOGIK_RULE_UK_UA-Квірел
