// 4622
//== Machiavellian Intelligence Hypothesis
== Розділ 24. Макʼявельська гіпотеза інтелекту

// 4623
//J. K. Rowling coils and strikes, unseen; Orca circles, hard and lean.
// @ https://en.wikipedia.org/wiki/Dragaera
[disclaimer]#Дж. К. Ролінґ скручується й атакує, непомічена; Орка кружляє, важко зігнувшись.#

// 4624
//__Act 3:__
__Дія 3__

// 4625
//Draco waited in a small windowed alcove he’d found near the Great Hall, stomach
//churning.
Драко чекав у невеличкій ніші з вікнами, що він знайшов був поруч із Великою залою.
Його нудило.

// 4626
//There would be a price, and it would not be small. Draco had known that as soon
//as he’d woken up and realized that he didn’t dare enter the Great Hall for
//breakfast because he might see Harry Potter there and Draco didn’t know what
//would happen after that.
Розплата буде, ще й чимала. Щойно Драко прокинувся, він зрозумів,
що не наважиться зайти до Великої зали на сніданок, бо може побачити там Гаррі Поттера,
а що{stress} трапиться далі -- він і гадки не мав.

// 4627
//Footsteps approached.
Почулися кроки.

// 4628
//“Here ya go,” said Vincent’s voice. “Now da boss ain’t in a good mood today, so
//ya’d better watch your step.”
-- Ось тута, -- пролунав голос Вінсента. -- Слухай, бос
сьогодні не в настрої, тож краще дивися за собою.

// 4629
//Draco was going to skin that idiot alive and send back the flayed body with a
//request for a more intelligent servant, like a dead gerbil.
Драко живцем здере з цього недоумка шкуру й відішле його облуплену тушу назад,
затребувавши натомість якогось розумнішого слугу, наприклад, дохлого щура.

// 4630
//One set of footsteps went off, and the other set of footsteps came closer.
Кроки однієї людини віддалилися, а іншої наблизилися.

// 4631
//The churning in Draco’s stomach got worse.
Дракова нудота посилилася.

// 4632
//Harry Potter came into sight. His face was carefully neutral, but his
//blue-trimmed robes looked oddly askew, as if they hadn’t been put on quite
//right -
У полі зору зʼявився Гаррі Поттер. Його обличчя не виражало нічого, проте
мантія із синьою облямівкою сиділа на ньому якось криво, ніби він надягнув її неправильно...

// 4633
//“__Your hand,__” Draco said without thinking about it at all.
-- __Твоя рука,__ -- бездумно бовкнув Драко.

// 4634
//Harry raised his left arm, as though to look at it himself.
Гаррі підняв лівицю, щоб і собі подивитися.

// 4635
//The hand dangled limply from it, like something dead.
Кисть безвільно теліпалася, немов щось мертве.

// 4636
//“Madam Pomfrey said it’s not permanent,” Harry said quietly. “She said it
//should mostly recover by the time classes start tomorrow.”
-- Мадам Помфрі пообіцяла, що це не назавжди, -- тихо мовив Гаррі, -- і
рука майже повністю відновиться до початку завтрашніх занять.

// 4637
//For a single instant the news came as a relief.
На мить від таких новин йому полегшало.
// 4638
//And then Draco realized.
А потім...

// 4639
//“You went to Madam Pomfrey,” whispered Draco.
-- Ти пішов до мадам Помфрі, -- прошепотів Драко, збагнувши.

// 4640
//“Of course I did,” said Harry Potter, as though stating the obvious. “My hand
//wasn’t working.”
-- Звісно, -- відповів Гаррі Поттер, ніби стверджуючи щось очевидне. -- У мене ж
рука не працювала.

// 4641
//It was slowly dawning on Draco what an __absolute__ fool he’d been, far
//worse than the older Slytherins he’d chewed out.
Повільно наростало усвідомлення, яким повним дурнем він був -- набагато
гіршим за тих старших слизеринців, що з них він кепкував.
// 4642
//He’d just taken for granted that no one would go to the authorities when a
//Malfoy did something to them. That no one would want Lucius Malfoy’s eye on
//them, ever.
Драко просто сприймав був за належне, що ніхто не побіжить скаржитися старшим,
якщо постраждає від Мелфоєвих рук. Що ніхто не захоче привертати до себе пильну увагу
Луціуса Мелфоя, ніколи.

// 4643
//But Harry Potter wasn’t a frightened little Hufflepuff trying to stay out of
//the game. He was already playing it, and Father’s eye was already on him.
Проте Гаррі Поттер -- це вам не маленький заляканий гафелпафець, що старався
триматися подалі від гри. Він уже грав у неї, уже привернув батькову увагу.

// 4644
//“What else did Madam Pomfrey say?” said Draco, his heart in his throat.
-- Що{stress} ще сказала мадам Помфрі? -- запитав Драко, поки його душа шугонула десь у пʼяти.

// 4645
//“Professor Flitwick said that the spell cast on my hand had been a Dark torture
//hex and extremely serious business, and that refusing to say who did it was
//absolutely unacceptable.”
-- Професор Флитвік сказав, що в мою руку поцілили темним
катувальним прокльоном, що це вкрай серйозна справа, а моя відмова назвати
винного цілковито неприйнятна.

// 4646
//There was a long pause.
Запала довга тиша.

// 4647
//“And then?” Draco said in a shaking voice.
-- А потім? -- Драковий голос тремтів.

// 4648
//Harry Potter smiled slightly. “I apologized deeply, which made Professor
//Flitwick look __very__ stern, and then I told Professor Flitwick that the
//whole thing was, indeed, extremely serious, secret, __delicate __business,
//and that I’d already informed the Headmaster about the project.”
-- Я щиро вибачився, -- ледь усміхнувся Гаррі Поттер, -- через що професор Флитвік __вкрай__ спохмурнів. Тоді я
пояснив, що все це й справді дуже серйозна,
таємна, __делікатна__ справа і я вже проінформував директора про цей проєкт.

// 4649
//Draco gasped. “No! Flitwick isn’t going to just accept that! He’ll check with
//Dumbledore!”
-- Ні! -- скрикнув Драко. -- Флитвік не проковтне цього просто так! Він запитає Дамблдора!

// 4650
//“Indeed,” said Harry Potter. “I was promptly hauled off to the Headmaster’s
//office.”
-- Саме так, -- відповів Гаррі Поттер. -- Мене негайно привели до кабінету
директора.

// 4651
//Draco was trembling now. If Dumbledore brought Harry Potter before the
//Wizengamot, willingly or otherwise, and had the Boy-Who-Lived testify under
//Veritaserum that Draco had tortured him… too many people loved Harry Potter,
//Father could __lose__ that vote…
Драко весь тремтів. Якщо Дамблдор поставить Гаррі Поттера перед Чарверсудом --
добровільно чи ні -- і змусить Хлопчика-Що-Вижив свідчити під сироваткою
правди, що Драко катував був його... Надто багато людей любить Гаррі Поттера,
батько може програти це голосування...

// 4652
//Father might be able to convince Dumbledore not to do that, but it would
//__cost.__ Cost terribly. The game had rules now, you couldn’t just
//threaten someone at random any more. But Draco had walked into Dumbledore’s
//hands of his own free will. And Draco was a very valuable hostage.
Батько міг би переконати Дамблдора не робити цього, проте не __задарма__. Зовсім
не задарма. Тепер гра має правила, більше не можна погрожувати кому завгодно.
Але Драко потрапив до Дамблдорових рук із власної волі. І Драко дуже цінний заручник.

// 4653
//Though since Draco couldn’t be a Death Eater now, he wasn’t as valuable as
//Father thought.
Хоча тепер смертежера з нього не буде, тож не такий він уже й цінний, як гадає
батько.
// 4654
//The thought tore at his heart like a Cutting Charm.
Ця думка різала його серце не згірш від різальних чарів.

// 4655
//“Then what?” whispered Draco.
-- І що{stress} далі? -- прошепотів Драко.

// 4656
//“Dumbledore deduced immediately that it was you. He knew we’d been
//associating.”
-- Дамблдор миттю визначив, що це ти. Він знав, що ми товаришуємо.

// 4657
//The worst possible scenario. If Dumbledore hadn’t guessed who did it, he might
//not have risked using Legilimency just to find out… but if Dumbledore
//__knew…__
Гірше й не придумаєш. Якби Дамблдор не здогадався був, то,
можливо, не ризикнув би вдатися до виманології, аби зʼясувати... Але якщо
Дамблдор __знав__, хто це зробив...

// 4658
//“And?” Draco forced out the word.
-- І? -- вичавив із себе Драко.

// 4659
//“We had a little chat.”
-- Ми трохи побалакали.

// 4660
//“And?”
-- І?

// 4661
//Harry Potter grinned. “And I explained that it would be in his best interest
//not to do anything.”
-- І я пояснив йому, -- вишкірився Гаррі Поттер, -- що йому ж краще нічого не робити.

// 4662
//Draco’s mind ran into a brick wall and splattered. He just stared at Harry
//Potter with his mouth hanging slack like a fool.
Дракові мізки врізались у цегляну стіну й розлетілися дрібними шматочками. Він просто
витріщався на Гаррі Поттера, дурнувато роззявивши рота.

// 4663
//It took that long for Draco to remember.
Аж так довго довелося згадувати.

// 4664
//Harry knew Dumbledore’s mysterious secret, the one Snape used as his hold.
Гаррі знав загадковий секрет Дамблдора -- Снейпів важіль впливу.

// 4665
//Draco could just see it now. Dumbledore looking all stern, concealing his
//eagerness as he explained to Harry what a terribly serious matter this was.
Тепер Драко ясно собі це уявляв. Суворий Дамблдор, приховуючи жагу,
пояснює, яке це страшенно серйозне питання.
// 4666
//And Harry politely telling Dumbledore to keep his mouth shut if he knew what
//was good for him.
І Гаррі, що ввічливо наказує йому тримати язика за зубами заради його ж
блага.

// 4667
//Father had warned Draco against people like this, people who could ruin you and
//still be so likable that it was hard to hate them properly.
Батько попереджав був про таких людей -- здатних зруйнувати твоє життя
й однаково виклика{stress}ти симпатію, що не давала як слід їх ненавидіти.

// 4668
//“After which,” Harry said, “the Headmaster told Professor Flitwick that this
//was, indeed, a secret and delicate matter of which he had already been
//informed, and that he did not think pressing it at this time would help me or
//anyone. Professor Flitwick started to say something about the Headmaster’s
//usual plotting going much too far, and I had to interrupt at that point and
//explain that it had been my __own__ idea and not anything the Headmaster
//forced me into, so Professor Flitwick spun around and started lecturing
//__me__, and the Headmaster interrupted __him__ and said that as the
//Boy-Who-Lived I was doomed to have weird and dangerous adventures so I was
//safer if I got into them on purpose instead of waiting for them to happen by
//accident, and that was when Professor Flitwick threw up his little hands and
//started shrieking in a high-pitched voice at __both__ of us about how he
//didn’t care what we were cooking up together, but this wasn’t ever to happen
//again for as long as I was in Ravenclaw House or he would have me thrown out
//and I could go to Gryffindor which was where all this __Dumbledoring__
//belonged -”
-- А тоді, -- промовив Гаррі, -- директор запевнив професора Флитвіка, що
це й справді таємна й делікатна справа, про яку його заздалегідь проінформували,
і, на його думку, її негайне розвʼязання не допомогло б ані мені,
ані будь-кому іншому. Професор Флитвік почав говорити щось про те, що хитрі директорові плани
вже перетнули всякі межі, тоді я перебив його й пояснив, що це була моя
__власна__ ідея, а не щось, до чого мене примусив директор, тоді професор Флитвік
крутнувся на місці й взявся відчитувати __мене__, тоді директор перервав __його__
й заявив, що Хлопчик-Що-Вижив приречений втрапляти в дивні й небезпечні пригоди, тож
буде безпечніше, якщо я робитиму це навмисно, а не чекатиму, доки вони
стануться випадково, тоді професор Флитвік звів свої малесенькі ручки догори й тонесенько заверещав
на нас __обох__, що йому начхати, яку кашу ми тут заварили,
але доки я в Рейвенклові, такого більше не повториться, інакше він мене звідти викине
до Ґрифіндору, де всій цій __дамблдорщині__ й місце...

// 4669
//Harry was making it __very__ hard for Draco to hate him.
Гаррі __дуже__ заважав Драко ненавидіти його.

// 4670
//“Anyway,” Harry said, “I didn’t want to be thrown out of Ravenclaw, so I
//promised Professor Flitwick that nothing like this would happen again, and if
//it did, I would just tell him who did it.”
-- Хай там як, я б хотів залишитися в
Рейвенклові, тож пообіцяв професорові Флитвіку, що нічого подібного більше
не трапиться, а як трапиться, то я просто назву йому винного.

// 4671
//Harry’s eyes should have been cold. They weren’t. The voice should have made it
//a deadly threat. It wasn’t.
Гаррін погляд мав би бути холодним. Але не був. У його голосі мала б лунати
смертельна погроза. Але не лунала.

// 4672
//And Draco saw the question that should have been obvious, and it killed the
//mood in an instant.
І Драко спало на думку начебто очевидне питання, що відразу звело
нанівець його настрій.

// 4673
//“Why… didn’t you?”
-- Чому... ти не видав мене?

// 4674
//Harry walked over to the window, into the small beam of sunlight shining into
//the alcove, and turned his head outward, toward the green grounds of Hogwarts.
//The brightness shone on him, on his robes, on his face.
Гаррі підійшов до вікна, де крізь нішу проникало сонячне проміння, і поглянув
назовні, на зелені землі Гоґвортсу. Світло осяювало його, його мантію, його
обличчя.

// 4675
//“Why didn’t I?” Harry said. His voice caught. “I guess because I just couldn’t
//get angry at you. I knew I’d hurt you first. I won’t even call it fair, because
//what I did to you was worse than what you did to me.”
-- Чому не видав? -- повторив Гаррі й затнувся. -- Напевно, просто не міг
злитися на тебе. Я знав, що завдав тобі болю першим. Навіть не можу стверджувати,
що ми квити, адже те, як я вчинив із тобою, набагато гірше за те, як ти --
зі мною.

// 4676
//It was like running into another brick wall. Harry could have been speaking
//archaic Greek for all Draco understood him then.
Драко ніби налетів на ще одну цегляну стіну. Гаррі цілком міг би вимовити
все це давньогрецькою, зрозуміліше б не стало.

// 4677
//Draco’s mind scrabbled for patterns and came up flat blank. The statement was a
//concession that hadn’t been in Harry’s best interests. It wasn’t even what
//Harry should say to make Draco a more loyal servant, now that Harry held power
//over him. For that Harry should be emphasizing how kindly he’d been, not how
//much he’d hurt Draco.
Його розум понишпорив у пошуках відповідних моделей поведінки й повернувся ні з чим.
Це твердження було зізнанням, що не узгоджувалося з Гарріними інтересами. Навіть якщо він намагався
зробити Драко своїм відданим слугою, то не мав би казати таке тепер, коли здобув
над ним владу. Для цього йому слід було б наголошувати на своїй доброті, а
не на тому, якої шкоди він завдав був Драко.

// 4678
//“Even so,” Harry said, and now his voice was lower, almost a whisper, “please
//don’t do that again, Draco. It hurt, and I’m not sure I could forgive you a
//second time. I’m not sure I’d be able to want to.”
-- А втім, -- Гаррі майже зашепотів, -- будь ласка,
не роби такого більше. Це було боляче, і я не впевнений, що зможу
пробачити таке вдруге. Навіть не впевнений, що зможу захотіти пробачити.

// 4679
//Draco just didn’t get it.
Драко просто не міг второпати.
// 4680
//Was Harry trying to be __friends__ with him?
Гаррі що, намагався з ним __дружити__?
// 4681
//There was no way Harry Potter could be dumb enough to believe that was still
//possible after what he’d done.
Він ж не настільки тупий, щоб вірити, ніби це досі можливо
після Дракового вчинку.

// 4682
//You could be someone’s friend and ally, like Draco had tried to do with Harry,
//or you could destroy their life and leave them no other options. Not both.
Можна бути комусь другом і союзником, чого Драко й намагався був досягти з
Гаррі, або знищити комусь життя й не залишити жодного вибору.
Але і те, і те водночас -- неможливо.
// 4683
//But then Draco didn’t understand what else Harry __could__ be trying.
Проте збагнути, що{stress} ще Гаррі міг мати на меті, ніяк не вдавалося.

// 4684
//And a strange thought came to Draco then, something Harry had kept talking
//about yesterday.
Тоді йому сяйнула дивна думка -- дещо, про що Гаррі торочив був учора без
упину:
// 4685
//And the thought was: __Test it.__
"`Перевір це`".

// 4686
//__You’re awakened as a scientist now,__ Harry had said, __and even
//if you never learn to use your power, you’ll always, be looking, for ways, to
//test, your beliefs…__ Those ominous words, spoken in gasps of agony, had kept
//running through Draco’s mind.
// копія з 4531
"`Науковець у тобі вже прокинувся, і навіть якщо ти ніколи
не навчишся використовувати свою силу, ти завжди... шукатимеш... як...
перевірити... свої... погляди...`". Ці зловісні Гарріні слова, що переривалися
судомними ковтками повітря, все лунали в Драковій голові.

// 4687
//If Harry __was__ pretending to be the repentant friend who had
//accidentally hurt someone…
Якщо Гаррі __прикидався__ другом, який каявся через те, що випадково завдав комусь болю...

// 4688
//“You __planned__ what you did to me!” Draco said, managing to put a note
//of accusation in his voice. “You didn’t do it because you got angry, you did it
//because you __wanted__ to!”
-- Ти все це __спланував__! -- Драко навіть спромігся на
звинувачувальний тон. -- Ти вчинив так не через злість, ти
__хотів__ цього!

// 4689
//__Fool,__ Harry Potter would say, __of course I planned it, and now
//you’re mine -__
"`Дурень, -- скаже Гаррі Поттер, -- звісно, я це спланував, і тепер ти мій`".

// 4690
//Harry turned back toward Draco. “What happened yesterday __wasn’t__ the
//plan,” Harry said, his voice seeming stuck in his throat. “The __plan__
//was that I would teach you why you were always better off knowing the truth,
//and then we would try together to discover the truth about blood, and whatever
//the answer was we would accept it. Yesterday I… rushed things.”
Гаррі звернув обличчя до Драко й насилу вичавив із себе:

-- Вчора все відхилилося від плану.
Я __планував__ навчити тебе, чому завжди краще знати правду, а вже
потім ми мали спробувати разом відкрити правду про кров і прийняти її, хай якою б
вона виявилася. Вчора я... поквапився.

// 4691
//“Always better off knowing the truth,” Draco said coldly. “Like you did me a
//__favor.__”
-- Завжди краще знати правду, -- холодно повторив за ним Драко. -- Наче ти зробив мені
__послугу__.

// 4692
//Harry nodded, blowing Draco’s mind completely, and said, “What if Lucius comes
//up with the same idea I did, that the problem is stronger wizards having fewer
//children? He might start a program to pay the strongest purebloods to have more
//children. In fact, if blood purism __were__ right, that’s just what Lucius
//__should__ be doing - addressing the problem on __his__ side, where
//he can make things happen right away. Right now, Draco, you’re the only friend
//Lucius has who would try to stop him from wasting the effort, because you’re
//the only one who knows the __real__ truth and can predict the real
//results.”
Гаррі кивнув, чим зовсім зірвав йому дах:

-- А якщо Луціусові, як і мені вчора, спаде на думку, що проблема криється в малій кількості дітей у
сильніших чарівників? Він може почати платити найсильнішим із них,
щоб ті заводили більше дітей. Власне, якби теорія
чистоти крови __була__ істинною, то саме це Луціус і __мав би__ робити:
розвʼязувати проблему зі свого боку, де він у змозі негайно щось змінити.
Драко, зараз ти єдиний Луціусовий друг, здатний втримати його від
марнотратства, адже ти єдиний, хто знає __справжню__ причину й може
передбачити справжні наслідки.

// 4693
//The thought came to Draco that Harry Potter had been raised in a place so
//strange that he was now effectively a magical creature rather than a wizard.
//Draco simply couldn’t guess what Harry would say or do next.
Йому подумалося, що Гаррі Поттер зростав у настільки химерному місці,
що тепер нагадував радше якесь магічне створіння, а не чарівника. Драко просто
не міг вгадати, що{stress} Гаррі скаже чи втне далі.

// 4694
//“__Why?__” Draco said. Putting pain and betrayal into his voice wasn’t
//hard at all. “Why did you __do__ this to me? What __was__ your plan?”
-- __Чому?__ -- запитав Драко. Додати болю від зради до свого голосу було
зовсім нескладно. -- Чому ти вчинив так зі мною? Яким __був__ твій план?

// 4695
//“Well,” Harry said, “you’re Lucius’s heir, and believe it or not, Dumbledore
//thinks I belong to him. So we could grow up and fight their battles with each
//other. Or we could do something else.”
-- Ну, ти Луціусовий спадкоємець, а Дамблдор гадає -- вір чи ні, -- що я належу
йому. Ми можемо вирости й продовжити їхню битву. А можемо діяти
інакше.

// 4696
//Slowly, Draco’s mind wrapped around this. “You want to provoke a fight to the
//finish between them, then seize power after they’re both exhausted.” Draco felt
//cold dread in his chest. He would __have__ to try and stop that no matter
//the cost to himself -
-- Ти хочеш, -- повільно перетравлював це Драко, -- зіштовхнути їх у смертельній битві, відтак захопити владу, коли вони
обидва виснажаться.

Невимовний страх стиснув йому груди. Він __мусить__ спробувати зупинити це, за
будь-яку ціну...

// 4697
//But Harry shook his head. “Stars above, __no!__”
Але Гаррі захитав головою:

-- О небо, __ні__!

// 4698
//“No…?”
-- Ні?..

// 4699
//“You wouldn’t go along with that and neither would I,” said Harry. “This is
//__our__ world, we don’t want to break it. But imagine, say, Lucius thought
//the Conspiracy was your tool and you were on his side, Dumbledore thought the
//Conspiracy was my tool and I was on his side, Lucius thought that you’d turned
//me and Dumbledore believed the Conspiracy was mine, Dumbledore thought that I’d
//turned you and Lucius believed the Conspiracy was yours, and so they both
//helped us out but only in ways that the other one wouldn’t notice.”
-- Ти б на таке не погодився, і я теж. Це __наш__ світ, ми не хочемо його
нищити. Але уяви, скажімо, що Луціус вважатиме, ніби таємна спілка -- це твій
інструмент і ти на його боці, а Дамблдор вважатиме, що таємна спілка -- це
мій інструмент і я на його боці. На думку Луціуса, ти перетягнув мене й
Дамблдор вірить, ніби таємна спілка моя, а на думку Дамблдора, я
перетягнув тебе й Луціус вірить, ніби таємна спілка твоя. Відповідно, вони
обидва допомагатимуть нам, але лише так, щоб інший не помітив.

// 4700
//Draco did not have to fake being speechless.
Драко не мусив прикидатися, що йому відняло мову.

// 4701
//Father had once taken him to see a play called __The Tragedy of Light__,
//about this __incredibly__ clever Slytherin named Light who’d set out to
//purify the world of evil using an ancient ring that could kill anyone whose
//name and face he knew, and who’d been opposed by another incredibly clever
//Slytherin, a villain named Lawliet, who’d worn a disguise to conceal his true
//face; and Draco had shouted and cheered at all the right parts, especially in
//the middle; and then the play had ended sadly and Draco had been hugely
//disappointed and Father had gently pointed out that the word ‘Tragedy’ was
//right there in the title.
Якось тато взяв його на пʼєсу "`Трагедія Лайта`" -- про надзвичайно
розумного слизеринця Лайта, що вирішив очистити світ від зла за
допомогою древнього персня, здатного вбити будь-кого, чиє обличчя й імʼя
знав його власник. Йому протистояв інший надзвичайно розумний слизеринець -- злодій
Лолайт, що завжди носив маскування, приховуючи своє справжнє обличчя.
Драко захоплено скрикував і плескав у всіх правильних місцях. Пʼєса
завершилася сумно, що страшенно його розчарувало; батько лагідно на це зазначив,
що слово "`трагедія`" в назві недарма.

// 4702
//Afterward, Father had asked Draco if he understood why they had gone to see
//this play.
Потім він запитав, чи зрозумів Драко, чому вони пішли були на цю пʼєсу.

// 4703
//Draco had said it was to teach him to be as cunning as Light and Lawliet when
//he grew up.
Щоб навчити його бути хитрим, як Лайт і Лолайт,
коли він виросте. Так припустив був Драко.

// 4704
//Father had said that Draco couldn’t possibly be more wrong, and pointed out
//that while Lawliet had cleverly concealed his face there had been no good
//reason for him to tell Light his __name__. Father had then gone on to
//demolish almost every part of the play, while Draco listened with his eyes
//growing wider and wider. And Father had finished by saying that plays like this
//were __always__ unrealistic, because if the playwright had known what
//someone __actually__ as smart as Light would __actually__ do, the
//playwright would have tried to take over the world himself instead of just
//writing plays about it.
Батько заявив, що Драко не міг помилятися сильніше, і звернув його увагу: хоча Лолайт
дуже хитро приховував обличчя, не існувало жодної причини відкривати Лайтові своє
імʼя. Відтак взявся розносити майже кожну частину пʼєси, а Дракові очі
все ширшали й ширшали. Насамкінець батько сказав, що такі сюжети завжди
нереалістичні, адже якби письменник знав, що насправді робитиме хтось настільки
розумний, як Лайт, то сам би спробував захопити світ замість писати
про це пʼєси.

// 4705
//That was when Father had told Draco about the Rule of Three, which was that any
//plot which required more than three different things to happen would never work
//in real life.
Тоді батько розповів йому про правило трійки: жоден план, що потребує
дотримання більш як трьох різних умов, ніколи не спрацює в реальному житті.
// 4706
//Father had __further__ explained that since only a fool would attempt a
//plot that was __as complicated as possible__, the real limit was two.
І пояснив, що оскільки лише дурень вдасться до
найскладнішого можливого плану, то справжньою межею є дві
умови.

// 4707
//Draco couldn’t even find words to describe the sheer gargantuan unworkability
//of Harry’s master plan.
Зараз Драко просто не міг дібрати слів, щоб описати невимовно колосальну
непридатність цього грандіозного задуму.
// 4708
//But it was __just__ the sort of mistake you would make if you didn’t have
//any mentors and thought you were clever and had learned about plotting by
//watching plays.
Втім, саме такої помилки можна припуститися, якщо не мати
наставників, вважати себе дуже розумним і навчатися плетіння інтриг із пʼєс.

// 4709
//“So,” said Harry, “what do you think of the plan?”
-- Отже, -- озвався Гаррі, -- як тобі мій план?

// 4710
//“It’s clever…” Draco said slowly. Shouting __brilliant!__ and gasping in
//awe would have looked too suspicious. “Harry, can I ask a question?”
-- Винахідливий... -- протягнув Драко. Запевняння в геніальності й
захопливі охання зумовили б підозри. -- Гаррі, можна
питання?

// 4711
//“Sure,” said Harry.
-- Звісно.

// 4712
//“Why did you buy Granger an expensive pouch?”
-- Чому ти купив Ґрейнджер дорогий капшучок?

// 4713
//“To show no hard feelings,” said Harry at once. “Though I expect she’ll also
//feel awkward if she refuses any small requests I make over the next couple of
//months.”
-- Щоб показати, що не тримаю зла, -- миттєво відповів Гаррі. -- Хоча я також
очікую, що протягом наступних кількох місяців їй буде незручно відмовляти, коли
я звертатимуся до неї з невеличкими проханнями.

// 4714
//And that was when Draco realized that Harry actually __was__ trying to be
//his friend.
Саме тоді Драко зрозумів, що Гаррі справді намагався бути його другом.

// 4715
//Harry’s move against Granger __had__ been smart, maybe even brilliant.
//Make your enemy not suspect you, __and__ put them into your debt in a
//friendly way so that you could maneuver them into position __just by
//asking them__. Draco couldn’t have gotten away with that, his target would have
//been too suspicious, but the Boy-Who-Lived __could.__ So the first step of
//Harry’s plot was to give his enemy an expensive present, Draco wouldn’t have
//thought of that, but it could __work…______
// часткова копія 029:6081: move
Він зробив проти Ґрейнджер хитрий хід, навіть, можливо, геніальний. Влаштуй усе так,
щоб ворог тебе не підозрював і почувався по-дружньому тобі зобовʼязаним,
і зможеш добитися від нього потрібних дій,
__просто попросивши__. Для Драко цей шлях був закритий -- його опонент ставився б до нього
надто недовірливо. Але не для Хлопчика-Що-Вижив. Тому першим кроком
його плану було подарувати ворогові щось дороге. Драко й не подумав би про таке,
проте це могло спрацювати...

// 4716
//____

// 4717
//If you were Harry’s enemy, his plots might be hard to see through at first,
//they might even be stupid, but his reasoning would make __sense__ once you
//understood it, you would comprehend that he was trying to hurt you.
Для Гарріних ворогів його плани спершу могли здаватися туманними,
навіть дурними. Однак варто було збагнути плин його думок, як у них зʼявлявся сенс. І
ставало зрозуміло, що він намагається завдати тобі шкоди.

// 4718
//The way Harry was acting toward Draco right now did __not__ make sense.
А те, як Гаррі поводився з Драко зараз, сенсу не мало.

// 4719
//Because if you were Harry’s __friend,__ then he tried to be friends with
//you in the alien, incomprehensible way he’d been raised by Muggles to do, even
//if it meant destroying your entire life.
Адже бути Гарріним __другом__ означало, що той намагатиметься дружити в чужий,
незбагненний маґлівський спосіб, навіть якщо це могло
знищити все твоє життя.

// 4720
//The silence stretched.
Тиша затягнулася.

// 4721
//“I know that I’ve abused our friendship terribly,” Harry said finally. “But
//please realize, Draco, that in the end, I just wanted the two of us to find the
//truth together. Is that something you can forgive?”
-- Я знаю, що страшенно знехтував нашою дружбою, -- нарешті порушив мовчанку
Гаррі. -- Але зрозумій мене, будь ласка: я просто хотів, щоб ми
знайшли правду разом. Чи зможеш ти таке пробачити?

// 4722
//A fork with two paths, but with only one path easy to go back on later if Draco
//changed his mind…
Роздоріжжя, на якому перетнулися два шляхи. Тільки з одного з них він зможе звернути пізніше,
якщо передумає...

// 4723
//“I guess I understand what you were trying to do,” Draco lied, “so yes.”
-- Гадаю, я розумію, що{stress} ти намагався зробити, -- збрехав Драко. -- Тож так.

// 4724
//Harry’s eyes lit up. “I’m glad to hear that, Draco,” he said softly.
Гарріні очі засяяли, голос помʼякшав:

-- Я дуже радий чути це, Драко.

// 4725
//The two students stood in that alcove, Harry still dipped in the lone sunbeam,
//Draco in shadow.
Двоє учнів стояли в ніші: Гаррі досі під самотнім сонячним променем, а Драко -- в
тіні.

// 4726
//And Draco realized with a note of horror and despair, that although it was a
//terrifying fate indeed to be Harry’s friend, Harry now had so many different
//avenues for threatening Draco that being his enemy would be even
//__worse__.
Драко з жахом і відчаєм усвідомив: хай яка страшна доля чигала на
Гарріних друзів, той мав тепер стільки можливостей йому погрожувати, що
ворогувати з ним було навіть __гірше__.

// 4727
//Probably.
Напевно.

// 4728
//Maybe.
Мабуть.

// 4729
//Well, he could always switch to being enemies later…
Ну, його ворогом він завжди встигне стати...

// 4730
//He was doomed.
Він приречений.

// 4731
//“So,” Draco said. “Now what?”
-- Отже, -- сказав Драко. -- Що{stress} далі?

// 4732
//“We study again next Saturday?”
-- Навчаємося знову наступної суботи?

// 4733
//“It better not go like the last one -”
-- Сподіваюся, наступне заняття не буде схожим на попереднє...

// 4734
//“Don’t worry, it won’t,” said Harry. “A few more Saturdays like __that
//__and you’d be ahead of __me.__”
-- Не хвилюйся, не буде. Ще декілька таких субот, і ти станеш кращим
за мене, --
// 4735
//Harry laughed. Draco didn’t.
засміявся Гаррі.

Драко не поділяв його веселощів.

// 4736
//“Oh, and before you go,” Harry said, and grinned sheepishly. “I know this is a
//bad time, but I wanted to ask you for advice about something, actually.”
-- О, і доки ми тут, -- Гаррі соромʼязливо всміхнувся. -- Знаю, що
зараз невдалий час, та, власне, я хотів порадитися стосовно дечого.

// 4737
//“Okay,” Draco said, still a bit distracted by that last statement.
-- Давай, -- відповів Драко, досі роздумуючи над попередньою фразою.

// 4738
//Harry’s eyes grew intent. “Buying that pouch for Granger used up most of the
//gold I managed to steal from my Gringotts vault -”
Гаррін погляд напружився:

-- Я витратив на цей капшучок майже все золото, що зумів поцупити зі
свого сховища в "`Ґрінґотсі`"...

// 4739
//What.
Що.

// 4740
//“- and McGonagall has the vault key, or Dumbledore does now, maybe. And I was
//just about to launch a plot that might take some money, so I was wondering if
//you know how I can get access -”
-- ...і ключ у Макґонеґел чи, можливо, вже в Дамблдора, а я саме зібрався
запустити план, що потребуватиме деяких коштів. Хотів запитати, чи знаєш
ти якийсь метод дістатися свого...

// 4741
//“I’ll loan you the money,” said Draco’s mouth in sheer existential reflex.
-- Я позичу тобі гроші, -- цілковито рефлекторно злетіло з Дракових губ.

// 4742
//Harry looked taken aback, but in a pleased way. “Draco, you don’t have to -”
Гаррі здавався здивованим, проте приємно здивованим:

-- Драко, ти не мусиш...

// 4743
//“How much?”
-- Скільки?

// 4744
//Harry named the amount and Draco couldn’t quite keep the shock from showing on
//his face. That was almost all the spending money Father had given Draco to last
//out the whole year, Draco would be left with just a few Galleons -
Гаррі назвав суму, і Драко не зовсім вдалося приховати свій шок. Це
були майже всі кишенькові гроші, виділені йому батьком на рік. У
нього залишиться лише кілька ґалеонів...

// 4745
//Then Draco mentally kicked himself. All he had to do was write Father and
//explain that the money was gone because he had managed to __loan it to
//Harry Potter,__ and Father would send him a special congratulatory note written
//in golden ink, a giant Chocolate Frog that would take two weeks to eat, and ten
//times as many Galleons just in case Harry Potter needed another loan.
Драко подумки дав собі копняка. Варто лиш написати батькові,
пояснивши, що грошей немає, бо йому вдалося __позичити їх Гаррі
Поттерові__, і той надішле особливу записку з привітанням золотими
чорнилами, гігантською шоколадною жабою, якої вистачить на два тижні, і
вдесятеро більше ґалеонів на випадок, якщо Гаррі Поттерові знадобиться ще.

// 4746
//“It’s way too much, isn’t it,” said Harry. “I’m sorry, I shouldn’t have asked
//-”
-- Це забагато, чи не так, -- промовив Гаррі. -- Вибач, я дарма попросив...

// 4747
//“Excuse me, I __am__ a Malfoy, you know,” said Draco. “I was just
//surprised you __wanted__ that much.”
-- Перепрошую. Я -- __Мелфой__, знаєш. Просто здивувався, що ти захотів так
багато.

// 4748
//“Don’t worry,” Harry Potter said cheerfully. “It’s nothing that threatens your
//family’s interests, just me being evil.”
-- Не хвилюйся, -- весело відказав Гаррі Поттер. -- Це ніяк не загрожує інтересам
твоєї родини, просто один мій злий задум.

// 4749
//Draco nodded. “No problem, then. You want to go get it right now?”
-- Тоді без проблем, -- кивнув Драко. -- Хочеш забрати гроші прямо зараз?

// 4750
//“Sure,” said Harry.
-- Звісно.

// 4751
//As they left the alcove and started heading toward the dungeons, Draco couldn’t
//help but ask, “So __can__ you tell me which plot this is for?”
Коли вони покинули нішу й вирушили в напрямку підземель, Драко не стримав цікавости:

-- Якщо не секрет, для якого плану це потрібно?

// 4752
//“Rita Skeeter.”
-- Ріта Скітер.

// 4753
//Draco thought some very bad words to himself, but it was far too late to say
//no.
Драко подумав на себе дуже погані слова, проте
відмовлятися було запізно.

***

// 4754
//By the time they’d reached the dungeons, Draco had started pulling together his
//thoughts again.
Дорогою до підземель Драко почав збирати думки докупи.

// 4755
//He __was__ having trouble hating Harry Potter. Harry __had__ been
//trying to be friendly, he was just insane.
Ненавидіти Гаррі Поттера не вдавалося. Той справді
намагався дружити -- просто він божевільний.

// 4756
//And that wasn’t going to stop Draco’s revenge or even slow it down.
Однак це не причина відмовитися від помсти чи бодай відкласти її.

// 4757
//“So,” Draco said, after looking around to make certain no one was nearby. Their
//voices would both be Blurred, of course, but it never hurt to be extra sure.
//“I’ve been thinking. When we bring new recruits into the Conspiracy, they’re
//going to have to __think__ we’re equals. Otherwise it would only take
//__one__ of them to blow the plot to Father. You already worked that out,
//right?”
Драко роздивився навколо, перевіривши, чи є хтось поблизу. Їхні голоси, звісно,
лунатимуть розмито, проте додаткова обережність ніколи не завадить.

-- Отже, -- почав він.
-- Я тут подумав. Коли ми приведемо новаків до таємної спілки,
вони мають вважати нас рівними. Інакше вистачить лише одного з них, щоб
вибовкати план батькові. Ти вже це продумав, так?

// 4758
//“Naturally,” said Harry.
-- Звісно.

// 4759
//“__Will__ we be equals?” said Draco.
-- Чи __будемо__ ми рівними?

// 4760
//“I’m afraid not,” Harry said. It was clear that he was trying to sound gentle,
//and also clear that he was trying to suppress a good deal of condescension and
//not quite succeeding. “I’m sorry, Draco, but you don’t even know what the word
//__Bayesian__ in __Bayesian Conspiracy__ means right now. You’re going
//to have to study for months before we take anyone else in, just so you can put
//up a __good front__.”
-- Боюся, що ні, -- відчувалося, що Гаррі намагався помʼякшити
відповідь і звучати не так зверхньо, однак не дуже
успішно. -- Вибач, Драко, проте ти ще навіть не знаєш, що{stress} означає слово
"`Баєсівська`" у Баєсівській таємній спілці. Ти муситимеш навчатися місяцями,
перш ніж ми зможемо прийняти когось іще, і це лише для того, щоб тобі вдалося __гідно зробити
вигляд__, начебто ми рівні.

// 4761
//“Because I don’t know enough science,” Draco said, carefully keeping his voice
//neutral.
-- Бо я знаю замало науки, -- Драко старанно втримував свій голос безвиразним.

// 4762
//Harry shook his head at that. “The problem isn’t that you’re ignorant of
//specific science things like deoxyribonucleic acid. __That __wouldn’t stop
//you from being my equal. The problem is that you aren’t trained in the methods
//of rationality, the __deeper__ secret knowledge behind how all those
//discoveries got made in the first place. I’ll __try__ to teach you those,
//but they’re a lot harder to learn. Think of what we did yesterday, Draco. Yes,
//you did some of the work. But I was the only one in control. You answered some
//of the questions. I asked all of them. You helped push. I did the steering by
//myself. And without the methods of rationality, Draco, you can’t possibly steer
//the Conspiracy where it needs to go.”
Гаррі похитав головою:

-- Проблема не в твоєму незнанні окремих наукових фактів на кшталт
дезоксирибонуклеїнової кислоти. __Це__ не стало б на заваді нашій рівності.
Проблема в тому, що ти не опанував методів раціональности --
глибших таємних знань про те, як усі ці відкриття було здійснено. Я
__спробую__ навчити тебе, але освоїти їх значно складніше. Подумай, чого
ми досягнули вчора. Так, ти зробив свій внесок. Проте керував процесом тільки я.
Ти відповів на деякі питання. Я ставив їх усі. Ти допомагав
штовхати. Напрямок тримав лише я. А без методів раціональности, Драко,
неможливо скерувати таємну спілку в потрібному напрямі.

// 4763
//“I see,” said Draco, his voice sounding disappointed.
-- Ясно, -- дещо розчаровано протягнув Драко.

// 4764
//Harry’s voice tried to gentle itself even more. “I’ll try to respect your
//expertise, Draco, about things like people stuff. But you need to respect my
//expertise too, and there’s just no __way__ you could be my equal when it
//comes to steering the Conspiracy. You’ve only been a scientist for __one
//day__, you know __one__ secret about deoxyribonucleic acid, and you aren’t
//trained in __any__ of the methods of rationality.”
// копія: "people stuff" у 029:6124
Гаррін голос ще більше помʼякшав:

-- Я старатимуся поважати твою обізнаність у людській всячині, Драко. Проте
й ти маєш поважати мою обізнаність, і немає просто жодного шансу, що тобі
вдасться дорівнятися до мене в питаннях керування таємною спілкою. Минув лише
__один день__, відколи ти став науковцем, ти знаєш __один__ секрет про дезоксирибонуклеїнову кислоту й не
опанував __жодного__ методу раціональности.

// 4765
//“I understand,” said Draco.
-- Розумію.

// 4766
//And he did.
І Драко не збрехав.

// 4767
//__People stuff,__ Harry had said. Seizing control of the Conspiracy
//probably wouldn’t even be difficult. And afterward, he would kill Harry Potter
//just to be sure -
"`Людська всячина`". Захопити владу в таємній спілці,
напевно, не буде навіть складно. А потім він убʼє Гаррі Поттера про всяк
випадок...

// 4768
//The memory rose up in Draco of how sick inside it had felt last night, knowing
//Harry was screaming.
Зринули спогади: як жахливо він почувався вчора,
знаючи, що Гаррі десь кричить.

// 4769
//Draco thought some more bad words.
Драко подумав ще декілька поганих слів.

// 4770
//Fine. He __wouldn’t__ kill Harry. Harry had been raised by Muggles, it
//wasn’t his fault he was insane.
Гаразд. Він не вбиватиме Гаррі. Його виховали маґли, він же не винен, що
здурів.
// 4771
//Instead, Harry would live on, just so that Draco could tell him that it had all
//been for Harry’s own good, really, he ought to be grateful -
Натомість Гаррі житиме далі, просто щоб Драко міг заявити йому, що це все для
його ж власного блага, що насправді він має бути вдячним...

// 4772
//And with a sudden twitch of surprised pleasure, Draco realized that it actually
//__was__ for Harry’s own good. If Harry tried to carry out his plan of
//playing Dumbledore and Father for fools, he would __die.__
Із раптовою насолодою Драко усвідомив: це й справді було для його блага.
Гаррі помре, якщо спробує здійснити свій план -- водити Дамблдора й батька як кота
за ниткою.

// 4773
//That made it __perfect.__
Так навіть краще.

// 4774
//Draco would take all of Harry’s dreams away from him, just as Harry had done to
//him.
Драко зруйнує всі його мрії -- так само, як із ним вчинив був Гаррі.

// 4775
//Draco would tell Harry that it had been for his own good, and it would be
//absolutely true.
Драко скаже йому, що це заради його ж блага, і це буде цілковитою правдою.

// 4776
//Draco would wield the Conspiracy and the power of science to purify the
//wizarding world, and Father would be as proud of him as if he’d been a Death
//Eater.
Драко здобуде владу над таємною спілкою й силами науки, щоб очистити
чаклунський світ, і тоді батько пишатиметься ним не менше, ніж якби він став
смертежером.

// 4777
//Harry Potter’s evil plots would be foiled, and the forces of right would
//prevail.
Злі плани Гаррі Поттера буде зруйновано, а сили добра візьмуть гору.

// 4778
//The perfect revenge.
Бездоганна помста.

// 4779
//Unless…
Хіба що...

// 4780
//__Just pretend to be pretending to be a scientist,__ Harry had told him.
// копія 22:4289
"`Просто вдай, що вдаєш із себе науковця`", -- порадив був йому Гаррі.

// 4781
//Draco didn’t have words to describe exactly what was wrong with Harry’s mind -
Драко не вистачало слів, щоб описати, що саме не так із Гарріною головою
// 4782
//(since Draco had never heard the term __depth of recursion__)
(адже він ніколи не чув про такий термін, як глибина рекурсії),
// 4783
//- but he could guess what sort of plots it implied.
однак міг здогадатися, які схеми з цього випливали.

// 4784
//…unless all that was exactly what Harry __wanted__ Draco to do as part of
//some even __larger__ plot which Draco would play __right into__ by
//trying to foil this one, Harry might even __know__ that his plan was
//unworkable, it might have no purpose __except__ luring Draco to thwart it
//-
Хіба що саме цього Гаррі й добивається: виклика{stress}є в нього такі думки як частину якогось
навіть __грандіознішого__ задуму, у якому Драко втрапить __прямо в пастку__, якщо спробує
зруйнувати поточний план. Гаррі може навіть __знати__, що цей план нездійсненний, і покладати
на нього __єдину__ мету -- спонукати Драко зірвати
його...

// 4785
//No. That way lay __madness.__ There __had __to be a limit. The Dark
//Lord himself hadn’t been __that__ twisty. That sort of thing didn’t happen
//in real life, only in Father’s silly bedtime stories about foolish gargoyles
//who always ended up furthering the hero’s plans every time they tried to stop
//him.
// hedrok: that way lay madness Король Лір, дія 3, сцена 4, переклад Максима
//         Рильського.
Ні. Як близько до безумства. Мусить існувати межа. Навіть сам Темний
Лорд не будував __настільки__ хитромудрих замислів. Це неможливо в справжньому житті --
лише в батькових казочках на ніч, у яких дурні{stress} гаргуйлі своїми діями завжди сприяли
героєві замість перешкоджати йому.

***

// 4786
//And beside Draco, Harry walked along with a smile on his face, thinking about
//the evolutionary origins of human intelligence.
А поруч із Драко йшов Гаррі -- з усмішкою на обличчі й думками про еволюційне
походження людського розуму.

// 4787
//In the beginning, before people had quite understood how evolution worked,
//they’d gone around thinking crazy ideas like __human intelligence evolved
//so that we could invent better tools.__
Колись, перш ніж люди більш-менш зрозуміли, як працює еволюція, вони
висловлювали всілякі дикі припущення на кшталт "`людський розум еволюціонував,
щоб ми могли винаходити кращі знаряддя праці`".

// 4788
//The reason why this was crazy was that only one person in the tribe had to
//invent a tool, and then everyone else would use it, and it would spread to
//other tribes, and still be used by their descendants a hundred years later.
//That was great from the perspective of scientific progress, but in evolutionary
//terms, it meant that the person who invented something didn’t have much of a
//fitness __advantage__, didn’t have all that many __more__ children
//than everyone else. Only __relative__ fitness advantages could increase
//the relative frequency of a gene in the population, and drive some lonely
//mutation to the point where it was universal and everyone had it. And brilliant
//inventions just weren’t common enough to provide the sort of consistent
//selection pressure it took to promote a mutation. It was a natural guess, if
//you looked at humans with their guns and tanks and nuclear weapons and compared
//them to chimpanzees, that the intelligence was there to make the technology. A
//natural guess, but wrong.
Нісенітниця, адже варто було лише комусь одному з племені винайти знаряддя, як
воно ставало доступним решті; знання переходило б до інших племен і
слугувало їхнім нащадкам ще сотні років. Чудово з погляду наукового
прогресу, проте не еволюції: винахідник не
здобував серйозної переваги пристосованости -- не лишав після себе набагато більше
дітей, ніж усі інші. Лише переваги у відносній пристосованості могли
збільшити відносну поширеність гена в популяції й вивести якусь рідкісну
мутацію до тієї межі, за якою вона ставала універсальною і зʼявлялася в усіх. А геніальні
винаходи не були поширеними настільки, щоб забезпечити постійний тиск добору,
необхідний для просування мутації. Якщо людей з їхніми
пістолетами, танками та ядерною зброєю порівняти з шимпанзе, то це наштовхувало на очевидний
здогад: інтелект виник для створення технологій. Очевидний,
проте неправильний.

// 4789
//Before people had quite understood how evolution worked, they’d gone around
//thinking crazy ideas like __the climate changed, and tribes had to
//migrate, and people had to become smarter in order to solve all the novel
//problems.__
Перш ніж люди більш-менш зрозуміли, як працює еволюція, вони висловлювали всілякі
дикі припущення на кшталт "`клімат змінився, племена мусили мігрувати, тож
люди розумнішали, щоб розвʼязувати нові проблеми, які поставали перед ними`".

// 4790
//But human beings had four times the brain size of a chimpanzee. 20// of a
//human’s metabolic energy went into feeding the brain. Humans were
//__ridiculously__ smarter than any other species. That sort of thing didn’t
//happen because the environment stepped up the difficulty of its problems a
//little. Then the organisms would just get a little smarter to solve them.
//Ending up with that gigantic outsized brain must have taken some sort of
//__runaway__ evolutionary process, something that would push and push
//without limits.
Але ж мозок людських істот учетверо перевищував за розмірами мозок шимпанзе. Люди
витрачали на його живлення двадцяту частину всього свого метаболізму й були сміховинно
розумнішими за всі інші види. Таке не траплялося через те, що довкілля трохи
підвищувало складність своїх проблем; у такому разі організми трохи розумнішали б,
щоб розвʼязувати їх. А мозок гігантського невідповідного розміру свідчив про
якийсь __безконтрольний__ еволюційний процес, щось, що вимагало більшого й
більшого тиску, без упину.

// 4791
//And today’s scientists had a pretty good guess at what that runaway
//evolutionary process had been.
І вчені сьогодення мали доволі гарний здогад, що це був за безконтрольний
еволюційний процес.

// 4792
//Harry had once read a famous book called __Chimpanzee Politics.__ The book
//had described how an adult chimpanzee named Luit had confronted the aging
//alpha, Yeroen, with the help of a young, recently matured chimpanzee named
//Nikkie. Nikkie had not intervened directly in the fights between Luit and
//Yeroen, but had prevented Yeroen’s other supporters in the tribe from coming to
//his aid, distracting them whenever a confrontation developed between Luit and
//Yeroen. And in time Luit had won, and become the new alpha, with Nikkie as the
//second most powerful…
// Ніккі - самець https://chimpansee.homestead.com/separating.html
Гаррі якось прочитав був відому книжку "`Політика шимпанзе`". Вона описувала,
як дорослий шимпанзе Люїт протистояв старому альфі Єроєнові, заручившись підтримкою
молодого шимпанзе Ніккі. Той не втручався напряму в бої між Люїтом і Єроєном,
але заважав прибічникам останнього приходити йому на допомогу: відвертав їхню увагу
щоразу, як відбувалися сутички між Люїтом і Єроєном. З часом Люїт переміг і
став новим альфою, а Ніккі -- другим за впливом.

// 4793
//…though it hadn’t taken very long after that for Nikkie to form an alliance
//with the defeated Yeroen, overthrow Luit, and become the __new__ new
//alpha.
Втім, зовсім скоро Ніккі утворив союз із переможеним Єроєном, скинув
Люїта й став __новим__ новим альфою.

// 4794
//It really made you appreciate what millions of years of hominids trying to
//outwit __each other__ - an evolutionary arms race without limit - had led
//to in the way of increased mental capacity.
Це вражало: як мільйони років гуманоїди намагалися перехитрити __одне одного__
-- невпинні еволюційні перегони озброєнь, що стимулювали нарощування
ментальних можливостей.

// 4795
//‘Cause, y’know, a human would have totally seen that one coming.
Бо, ну знаєте, людина б точно передбачила, що так і станеться.

***

// 4796
//And beside Harry, Draco walked along, suppressing his smile as he thought about
//his revenge.
А поруч із Гаррі йшов Драко, приховуючи усмішку й обмірковуючи свою помсту.

// 4797
//Someday, maybe in years but someday, Harry Potter would learn just what it
//meant to underestimate a Malfoy.
Колись, нехай і минуть роки, проте колись Гаррі Поттер дізнається, що означає
недооцінювати Мелфоїв.

// 4798
//Draco had awakened as a scientist in a single day. Harry had said that wasn’t
//supposed to happen for months.
Науковець у ньому прокинувся за один день. Гаррі стверджував був, що цього не
мало трапитися протягом місяців.

// 4799
//But of course if you were a Malfoy, you would be a more powerful scientist than
//anyone who wasn’t.
Але, звісно ж, Мелфой стане могутнішим науковцем, ніж
будь-хто інший.

// 4800
//So Draco would learn all of Harry Potter’s methods of rationality, and then
//when the time was ripe -
Отже, Драко опанує всі методи раціональности Гаррі Поттера, а коли настане
слушна мить...
