// 7648
//== Pretending to be Wise, Pt 2
== Розділ 40. Вдавання мудрості, ч.2

// 7649
//Harry, holding the tea cup in the exactly correct way that Professor Quirrell
//had needed to demonstrate three times, took a small, careful sip. All the way
//across the long, wide table that was the centerpiece of Mary’s Room, Professor
//Quirrell took a sip from his own cup, making it look far more natural and
//elegant. The tea itself was something whose name Harry couldn’t even pronounce,
//or at least, every time Harry had tried to repeat the Chinese words, Professor
//Quirrell had corrected him, until finally Harry had given up.
Гаррі, що тримав чашку чаю правильно -- саме так, як професорові Квірелу
довелося продемонструвати тричі, зробив невеличкий, обережний ковток. Аж з
протилежного кінця довгого, широкого стола, що був розташований в центрі
кімнати Мері, професор Квірел зробив ковток зі своєї чашки. У нього це вийшло
значно природніше й елегантніше. Сам чай мав якусь назву, що її Гаррі не міг
навіть вимовити, чи принаймні щоразу, як Гаррі намагався був повторити
китайські слова, професор Квірел виправляв його, доки Гаррі не здався.

// 7650
//Harry had maneuvered himself into getting a glimpse at the bill last time, and
//Professor Quirrell had let him get away with it.
У Гаррі вийшло минулого разу так розташуватися, щоб кинути оком на чек, і
професор Квірел дозволив йому це.

// 7651
//He’d felt an impulse to drink a Comed-Tea first.
Перед тим йому захотілося випити пирсконаду.

// 7652
//__Even taking that into account__, Harry had still been shocked out of his
//skin.
__І навіть після цього попередження__ Гаррі все одно був шокований до глибини душі.

// 7653
//And it still tasted to him like, well, tea.
А смакував цей напій усе одно як, ну, чай.

// 7654
//There was a quiet, nagging suspicion in Harry’s mind that Professor Quirrell
//__knew__ this, and was deliberately buying ridiculously expensive tea that
//Harry couldn’t appreciate __just to mess with him.__ Professor Quirrell
//__himself__ might not like it all that much. Maybe __nobody__
//actually liked this tea, and the only point of it was to be ridiculously
//expensive and make the victim feel unappreciative. In fact, maybe it was really
//just ordinary tea, only you asked for it in a certain code, and they put a fake
//gigantic price on the bill…
Гаррі тихо муляла підозра, що професор Квірел __знав__ про це й навмисно
купував сміховинно дорогий чай, що його Гаррі не цінував, __просто щоб
подражнити його__. Мабуть, професор Квірел __сам__ не дуже полюбляв цей чай.
Можливо, __нікому__ насправді не подобався цей чай, його єдиною властивістю
була сміховинно висока ціна, що змушувала жертву почуватися невдячною.
Насправді, цілком можливо, що це був просто звичайний чай, тільки його
замовляли особливим кодом, і тоді в чек записували липову гігантську ціну...

// 7655
//Professor Quirrell’s expression was drawn and thoughtful. “No,” Professor
//Quirrell said, “you should __not__ have told the Headmaster about your
//conversation with Lord Malfoy. Please try to think faster next time, Mr.
//Potter.”
Обличчя професора Квірела було перекошеним та задумливим.

-- Ні, -- сказав він, -- вам __не варто__ було розповідати директорові про вашу
бесіду з лордом Мелфоєм. Будь ласка, спробуйте думати швидше наступного разу,
містере Поттер.

// 7656
//“I’m sorry, Professor Quirrell,” Harry said meekly. “I still don’t see it.”
//There were times when Harry felt very much like an impostor, pretending to be
//cunning in Professor Quirrell’s presence.
-- Вибачте, професоре Квірел, -- присоромлено сказав Гаррі. -- Але я все одно
не розумію.

Подеколи в присутності професора Квірела Гаррі відчував себе самозванцем, що
лише вдавав, ніби він хитрий.

// 7657
//“Lord Malfoy is Albus Dumbledore’s opponent,” said Professor Quirrell. “At
//least for this present time. All Britain is their chessboard, all wizards their
//pieces. Consider: Lord Malfoy threatened to throw away everything, abandon his
//game, to take vengeance on you if Mr. Malfoy was hurt. In which case, Mr.
//Potter…?”
-- Лорд Мелфой -- опонент Албуса Дамблдора. Принаймні зараз. Уся Британія --
їхня шахівниця, усі чарівники -- їхні фігури. Дивіться: лорд Мелфой погрожує
відкинути усе, забути про свою гру, щоб помститися вам, якщо з містером Мелфоєм
щось станеться. Відповідно, містере Поттер?..

// 7658
//It took more long seconds for Harry to get it, but it was clear that Professor
//Quirrell wasn’t going to give any more hints, not that Harry wanted them.
Минуло чимало довгих секунд, доки Гаррі не збагнув, проте було ясно, що
професор Квірел не збирався більше давати підказок, та Гаррі цього й не хотів.

// 7659
//Then Harry’s mind finally made the connection, and he frowned. “Dumbledore
//kills Draco, makes it look like __I__ did it, and Lucius sacrifices his
//game against Dumbledore to get at me? That… doesn’t seem like the Headmaster’s
//__style,__ Professor Quirrell…” Harry’s mind flashed back to a similar
//warning from Draco, which had made Harry say the same thing.
Тоді розум Гаррі нарешті побачив звʼязок, і він насупився.

-- Дамблдор вбиває Драко, робить усе так, щоб видавалося, ніби це зробив я, і
Луціус жертвує своєю грою проти Дамблдора, щоб помститися мені? Це... не схоже
на __стиль__ директора, професоре Квірел...

Гаррі згадав схоже попередження від Драко, що змусило було Гаррі сказати те ж саме.

// 7660
//Professor Quirrell shrugged, and sipped his tea.
Професор Квірел знизав плечима й ковтнув чаю.

// 7661
//Harry sipped his own tea, and sat in silence. The tablecloth spread over the
//table was in a very peaceful pattern, seeming at first like plain cloth, but if
//you stared at it long enough, or kept silent long enough, you started to see a
//faint tracery of flowers glimmering on it; the curtains of the room had changed
//their pattern to match, and seemed to shimmer as though in a silent breeze.
//Professor Quirrell was in a contemplative mood that Saturday, and so was Harry,
//and Mary’s Room, it seemed, had not neglected to notice this.
Гаррі теж ковтнув чаю, вони посиділи в тиші. Скатертина на столі мала дуже
спокійний візерунок: спочатку здавалася простою тканиною, проте якщо дивитися
достатньо довго, чи довго сидіти тихо, то можна було побачити відблиски неясних
сплетінь квітів; штори в кімнаті теж змінили візерунок в тон, і мерехтіли,
ніби колихалися від слабкого вітерцю. Цієї суботи професор Квірел мав настрій
поміркувати, як і Гаррі, а кімната Мері, здавалося, не оминула увагою цей факт.

// 7662
//“Professor Quirrell,” Harry said suddenly, “is there an afterlife?”
-- Професоре Квірел, -- раптом запитав Гаррі, -- чи існує загробне життя?

// 7663
//Harry had chosen the question carefully. Not, __do you believe in an
//afterlife?__ but simply __Is there an afterlife?__ What people
//__really__ believed didn’t seem to them like __beliefs__ at all.
//People didn’t say, ‘I strongly believe in the sky being blue!’ They just said,
//‘the sky is blue’. Your true inner map of the world just felt to you like the
//way the world __was…__
Гаррі старанно добирав був слова цього питання. Не __чи вірите ви в загробне
життя?__, а просто __чи існує загробне життя?__ Те, у що люди __справді__
вірять зовсім не видається їм поглядами. Люди не кажуть "`я дуже вірю, що небо
блакитне!`", вони кажуть просто "`небо блакитне`". Ви сприймаєте свою внутрішню
мапу світу, ніби світ __такий і є__...

// 7664
//The Defense Professor raised his cup to his lips again before answering. His
//face was thoughtful. “If there is, Mr. Potter,” said Professor Quirrell, “then
//quite a few wizards have wasted a great deal of effort in their searches for
//immortality.”
Професор із захисту знову підніс чашку до губ перед тим, як відповісти. Його
лице було задумливим.

-- Якщо існує, містере Поттер, то чимало чарівників змарнували купу зусиль на
пошуки безсмертя.

// 7665
//“That’s not actually an answer,” Harry observed. He’d learned by now to notice
//that sort of thing when talking to Professor Quirrell.
-- Це не є відповіддю, -- зазначив Гаррі. Він уже навчився помічати такі речі
під час розмов з професором Квірелом.

// 7666
//Professor Quirrell set down his teacup with a small, high-pitched tacking sound
//on his saucer. “Some of those wizards were reasonably intelligent, Mr. Potter,
//so you may take it that the existence of an afterlife is not obvious. I have
//looked into the matter myself. There have been many claims of the sort which
//hope and fear would be expected to produce. Among those reports whose veracity
//is not in doubt, there is nothing which could not be the result of mere
//wizardry. There are certain devices said to communicate with the dead, but
//these, I suspect, only project an image from the mind; the result seems
//indistinguishable from memory because it __is__ memory. The alleged
//spirits tell no secrets they knew in life, nor could have learned after death,
//which are not known to the wielder -”
Професор Квірел поставив чашку на блюдце з різким тоненьким брязком.

-- Деякі з цих чарівників були в міру розумні, містере Поттер, отже ви можете
зробити висновок, що існування загробного життя не очевидне. Я й сам досліджував
це питання. Існує багато історій такого плану, що їх природно могли породити страх
та надія. Серед звітів, що їхня правдивість не підлягає сумнівам, ідеться
лише про те, що може створити просте чаклунство. Існують деякі пристрої, що
нібито дозволяють спілкування з мертвими, проте вони, гадаю, лише демонструють
зображення з розуму: результат неможливо відрізнити від памʼяті, бо це __і є__
памʼять. Уявні духи не розповідають жодних таємниць, що вони знали за життя, і не
кажуть нічого, про що вони могли б дізнатися після смерті такого, що не було б уже
відомо тому, хто поставив питання...

// 7667
//“Which is why the Resurrection Stone is not the most valuable magical artifact
//in the world,” said Harry.
-- І саме тому воскресальний камінь не є найціннішим магічним артефактом у
світі, -- сказав Гаррі.

// 7668
//“Precisely,” said Professor Quirrell, “though I wouldn’t say no to a chance to
//try it.” There was a dry, thin smile on his lips; and something colder, more
//distant, in his eyes. “You spoke to Dumbledore of that as well, I take it.”
-- Саме так, -- сказав професор Квірел, -- хоча я б не відмовився від
можливості випробувати його, -- на його обличчі була суха, тонка усмішка, а в
очах щось холодне й далеке. -- Ви розмовляли про це й з Дамблдором, як я
розумію.

// 7669
//Harry nodded.
Гаррі кивнув.

// 7670
//The curtains were taking on a faintly blue pattern, and a dim tracery of
//elaborate snowflakes now seemed to be becoming visible on the tablecloth.
//Professor Quirrell’s voice sounded very calm. “The Headmaster can be very
//persuasive, Mr. Potter. I hope he has not persuaded you.”
Штори тепер набули дещо блакитного забарвлення, а на скатертині ледь виднівся
новий візерунок: сплетіння витончених сніжинок.

-- Директор може бути дуже переконливим, містере Поттер, -- спокійно сказав
професор Квірел. -- Сподіваюся, він не переконав вас.

// 7671
//“__Heck__ no,” said Harry. “Didn’t fool me for a second.”
-- __Господи__, ні, -- сказав Гаррі. -- Не обдурив мене навіть на секунду.

// 7672
//“I should hope not,” said Professor Quirrell, still in that very calm tone. “I
//would be extremely put out to discover that the Headmaster had convinced you to
//throw away your life on some fool plot by telling you that death is the next
//great adventure.”
-- Сподіватимуся, що ні, -- досі вкрай спокійним тоном сказав професор Квірел. --
Я б і справді засмутився, якби зʼясував, що директор переконав вас знехтувати
своїм життям заради якогось дурного плану, сказавши, ніби смерть -- це ще одна
цікава пригода.

// 7673
//“I don’t think the Headmaster believed it himself, actually,” Harry said. He
//sipped his own tea again. “He asked me what I could possibly do with eternity,
//gave me the usual line about it being boring, and he didn’t seem to see any
//conflict between that and his own claim to have an immortal soul. In fact, he
//gave me a whole long lecture about how awful it was to want immortality before
//he claimed to have an immortal soul. I can’t quite visualize what must have
//been going on inside his head, but I don’t think he __actually__ had a
//mental model of himself continuing forever in the afterlife…”
-- Мені здається, що насправді директор і сам у це не вірить, -- сказав Гаррі
та знову ковтнув чаю. -- Він запитав мене, що ж я можу робити з вічністю, видав
звичайний аргумент, ніби це нудно, і не бачив у цьому жодного протиріччя з
твердженням про безсмертну душу. Насправді, він прочитав мені довгу лекцію про
те, як погано жадати безсмертя, перед тим, як заявити, що в нього безсмертна
душа. Мені не вдається уявити, що коїться в його голові, але навряд чи в нього
__справді__ є модель себе, що продовжує нескінченно існувати в загробному житті...

// 7674
//The temperature of the room seemed to be dropping.
Видавалося, в кімнаті запанував холод.

// 7675
//“You perceive,” said a voice like ice from the other end of the table, “that
//Dumbledore does not truly believe as he speaks. It is not that he has
//compromised his principles. It is that he never had them from the beginning.
//Are you becoming cynical yet, Mr. Potter?”
-- Ви вважаєте, -- пролунав голос, що скидався на лід, з іншого боку стола, --
що Дамблдор насправді не вірить у те, у що стверджує. Що він не вдавався до
компромісів зі своїми принципами, а ніколи їх і не мав. Чи не стали ви вже
циніком, містере Поттер?

// 7676
//Harry had dropped his eyes to his teacup. “A little,” Harry said to his
//possibly-ultra-high-quality, perhaps-ridiculously-expensive Chinese tea. “I’m
//certainly becoming a bit __frustrated__ with… whatever’s going wrong in
//people’s heads.”
Гаррі опустив очі й поглянув на чашку.

-- Трохи, -- сказав Гаррі своєму можливо-неймовірно-високої-якості
напевно-сміховинно-дорогому китайському чаю. -- Безперечно мене починає трохи
__дратувати__... хай там що коїться в головах у людей.

// 7677
//“Yes,” said that icy voice. “I find it frustrating as well.”
-- Так, -- відповів крижаний голос. -- Мене теж це дратує.

// 7678
//“Is there any way to get people __not__ to do that?” said Harry to his
//teacup.
-- Чи існує якийсь спосіб змусити людей __припинити__ це робити? -- запитав
Гаррі свою чашку.

// 7679
//“There is indeed a certain useful spell which solves the problem.”
-- І справді, існує певне корисне закляття, що розвʼязує цю задачу.

// 7680
//Harry looked up hopefully at that, and saw a cold, cold smile on the Defense
//Professor’s face.
Гаррі з надією підвів погляд та побачив холодну-холодну посмішку на лиці
професора із захисту.

// 7681
//Then Harry got it. “I mean, __besides__ Avada Kedavra.”
Тоді Гаррі збагнув.

-- Я маю на увазі __крім__ "`Авада Кедавра`".

// 7682
//The Defense Professor laughed. Harry didn’t.
Професор із захисту розсміявся. Гаррі -- ні.

// 7683
//“Anyway,” Harry said hastily, “I __did__ think fast enough not to suggest
//the obvious idea about the Resurrection Stone in front of Dumbledore. Have you
//ever seen a stone with a line, inside a circle, inside a triangle?”
-- Хай там як, -- квапливо сказав Гаррі, -- я __достатньо__ швидко зметикував,
що не варто пропонувати найочевиднішу ідею про воскресальний камінь
Дамблдорові. Чи бачили ви колись камінь з лінією всередині кола всередині
трикутника?

// 7684
//The deathly chill seemed to draw back, fold into itself, as the ordinary
//Professor Quirrell returned. “Not that I can recall,” Professor Quirrell said
//after a while, a thoughtful frown on his face. “That is the Resurrection
//Stone?”
Смертельна холоднеча ніби відступила, згорнулася в себе, і повернувся звичайний
професор Квірел.

-- Не пригадую, -- сказав він за деякий час, задумливо нахмурившись. -- Це і є
воскресальний камінь?

// 7685
//Harry set aside his teacup, then drew on his saucer the symbol he had seen on
//the inside of his cloak. And before Harry could take out his own wand to cast
//the Hover Charm, the saucer went floating obligingly across the table toward
//Professor Quirrell. Harry really wanted to learn that wandless stuff, but that,
//apparently, was far above his current curriculum.
// hedrok: копія в 108:18383
Гаррі відсунув чашку та намалював на блюдці символ, що він його бачив був
всередині свого плаща. Гаррі не встигнув навіть дістати свою паличку, щоб
застосувати чари польоту, а блюдце вже покірно полетіло над столом до професора
Квірела. Гаррі справді хотів вивчити ці безпаличкові фокуси, проте це, як
виявилося, було далеко за межами його навчальної програми.

// 7686
//Professor Quirrell studied Harry’s tea-saucer for a moment, then shook his
//head; and a moment later, the saucer went floating back to Harry.
Професор Квірел деякий час вивчав чайне блюдце Гаррі, потім похитав головою. За
мить блюдце попливло назад до Гаррі.

// 7687
//Harry put his teacup back on the saucer, noting absently as he did so that the
//symbol he’d drawn had vanished. “If you happen to see a stone with that
//symbol,” said Harry, “and it __does__ talk to the afterlife, do let me
//know. I have a few questions for Merlin or anyone who was around in Atlantis.”
Гаррі поставив чашку назад на блюдце, мимохідь помітивши, що намальований ним
символ зникнув.

-- Якщо вам трапиться камінь з таким символом, -- сказав Гаррі, -- і він
__дозволяє__ спілкуватися із загробним життям, дайте знати. У мене є декілька
питань до Мерліна чи будь-кого, хто був у Атлантиді.

// 7688
//“Quite,” said Professor Quirrell. Then the Defense Professor lifted up his
//teacup again, and tipped it back as though to finish the last of what was
//there. “By the way, Mr. Potter, I fear we shall have to cut short today’s visit
//to Diagon Alley. I was hoping it would - but never mind. Let it stand that
//there is something else I must do this afternoon.”
-- Не сумніваюся, -- сказав професор Квірел.

Тоді професор із захисту підняв свою чашку знову та відхилив її так, ніби хотів
допити все до останньої краплі.

-- До речі, містере Поттер, боюся, мені доведеться перервати сьогоднішнє
відвідування алеї Діаґон. Я сподівався що... але неважливо. Обмежмося цим:
дещо інше потребує моєї уваги по обіді.

// 7689
//Harry nodded, and finished his own tea, then rose from his seat at the same
//time as Professor Quirrell.
Гаррі кивнув, допив власний чай, а потім підвівся одночасно з професором
Квірелом.

// 7690
//“One last question,” Harry said, as Professor Quirrell’s coat lifted itself off
//the coatrack and went floating toward the Defense Professor. “Magic is loose in
//the world, and I no longer trust my guesses so much as I once did. So in your
//own best guess and without any wishful thinking, do __you__ believe
//there’s an afterlife?”
-- Останнє питання, -- сказав Гаррі, коли плащ професора Квірела піднявся з
гачка та полетів до професора із захисту. -- Магія панує у всесвіті, і я більше
не довіряю своїм здогадам, як колись. Отже, ваш власний найкращий здогад, без зайвого
оптимізму, чи __ви__ вірите в загробне життя?

// 7691
//“If I did, Mr. Potter,” said Professor Quirrell as he shrugged on his coat,
//“would I still be __here?__”
-- Якби вірив, містере Поттер, -- сказав професор Квірел, одягнувши свій плащ,
-- чи був би я досі __тут__?
