// 9359
//== The Stanford Prison Experiment, Pt 3
== Розділ 53. Стенфордський Тюремний Експеримент, ч.3

// 9360
//The corpse of a woman opened her eyes, and the dull sunken orbs gazed out at
//nothing.
Жінка-труп розплющила очі, мляві запалі кулі вдивлялися в ніщо.

// 9361
//“Mad,” Bellatrix muttered in a cracked voice, “It seems that little Bella is
//going mad…”
-- Збожеволіла, -- пробурмотіла Белатриса різким голосом, -- видається, маленька
Бела збожеволіла...

// 9362
//Professor Quirrell had instructed Harry, calmly and precisely, how he was to
//act in Bellatrix’s presence; how to form the pretense he would maintain in his
//mind.
Професор Квірел спокійно та точно проінструктував був Гаррі, як він має поводитися
в присутності Белатриси. Що саме треба вдавати, про що треба не забувати.

// 9363
//__You found it expedient, or perhaps just amusing, to make Bellatrix fall
//in love with you, to bind her to your service.__
__Тобі здалося доцільним, а може просто веселим, зробити так, щоб Белатриса
закохалася в тебе, змусити її служити тобі.__

// 9364
//That love would have persisted through Azkaban, Professor Quirrell had said,
//because to Bellatrix it would not be a happy thought.
Це кохання не зникне в Азкабані, як стверджував професор Квірел, бо для
Белатриси воно не було щасливою думкою.

// 9365
//__She loves you utterly, completely, with her whole being. You do not
//return her love, but consider her useful. She knows this.__
__Вона кохає тебе цілковито й повністю, усією душею. Ти не відповідаєш
взаємністю, проте вважаєш її корисною. Вона про це знає.__

// 9366
//__She was the deadliest weapon you possessed, and you called her your
//dear Bella.__
__Вона була найсмертоноснішою твоєю зброєю, ти називав її своєю любою Белою.__

// 9367
//Harry remembered it from the night the Dark Lord killed his parents: the cold
//amusement, the contemptuous laughter, that high-pitched voice of deathly hate.
//It didn’t seem at all difficult to guess what the Dark Lord would say.
Гаррі пригадав ніч, коли Темний Лорд вбив його батьків: холодну втіху,
презирливий сміх, цей високий голос смертельної ненависті. Було зовсім нескладно
здогадатися, що сказав би Темний Лорд.

// 9368
//“I hope you are __not__ mad, Bella dear,” said the chill whisper. “Mad is
//not useful.”
-- Сподіваюся, ти __не__ збожеволіла, люба Бело, -- сказав крижаний шепіт.
-- Божевільні не корисні.

// 9369
//Bellatrix’s eyes flickered, tried to focus on empty air.
Очі Белатриси зблиснули, спробували сфокусуватися на порожньому повітрі.

// 9370
//“My… Lord… I waited for you but you did not come… I looked for you but I could
//not find you… you are alive…” All her words came out in a low mutter, if there
//was emotion in it, Harry could not tell.
-- Володарю... Я чекала на вас, але ви не прийшли... Я шукала вас, проте не
знайшла... Ви живі... -- вона тихо бурмотіла ці слова, якщо там і були емоції,
Гаррі їх не розчув.

// 9371
//“__Sshow her your face,__” hissed the snake at Harry’s feet.
-- __Покажи їй ссвоє обличчя,__ -- прошипів змій у ногах Гаррі.

// 9372
//Harry cast back the hood of the Cloak of Invisibility.
Гаррі відкинув каптур Плаща невидимості.

// 9373
//The part of him that Harry had placed in control of his facial expressions
//looked at Bella without the slightest trace of pity, only cool, calm interest.
//(While in his core, Harry thought, __I will save you, I will save you no
//matter what…__)
Відповідальна за керування обличчям частина Гаррі дивилася на Белу без жодних
ознак жалю, лише з холодною, спокійною зацікавленістю. (Доки серцевина Гаррі
думала __Я врятую тебе, я врятую тебе, хай що буде...__)

// 9374
//“The scar…” muttered Bellatrix. “That child…”
-- Шрам... -- пробурмотіла Белатриса. -- Ця дитина...

// 9375
//“So they all still think,” said Harry’s voice, and gave a thin little chuckle.
//“You looked for me in the wrong place, Bella dear.”
-- Так вони всі вважають, -- вимовив голос Гаррі, і трохи хихикнув. -- Ти шукала
не там, люба Бело.

// 9376
//(Harry had asked why Professor Quirrell couldn’t be the one to play the part of
//the Dark Lord, and Professor Quirrell had pointed out that there was no
//plausible reason for __him__ to be possessed by the shade of
//He-Who-Must-Not-Be-Named.)
(Гаррі спитав був, чому професор Квірел не міг зіграти роль Темного Лорда, а
професор Квірел зазначив, що не було жодного розумного пояснення, чому б __ним__
оволоділа тінь Того-Кого-Не-Можна-Називати.)

// 9377
//Bellatrix’s eyes remained fixed on Harry, she said no word.
Очі Белатриси втупилися в Гаррі, вона мовчала.

// 9378
//__“Ssay ssomething in Parsseltongue,” __hissed the snake.
-- __Сскажи шщось парсселмовою,__ -- прошипів змій.

// 9379
//Harry’s face turned to the snake, to make it clear that he was addressing it,
//and hissed, “__One two three four five ssix sseven eight nine ten.__”
Гаррі обернувся до змія, щоб було зрозуміло, що він розмовляє з ним, і
прошипів:

-- __Разз два три чотири п'ять шшіссть ссім віссім дев'ять дессять.__

// 9380
//There was a pause.
Запала мовчанка.

// 9381
//“Those who do not fear the darkness…” murmured Bellatrix.
// hedrok: змінене у 081:14602
-- Тих, хто не боїться пітьми... -- пробурмотіла Белатриса.

// 9382
//The snake hissed, “__Will be conssumed by it.__”
// hedrok: змінене у 081:14602
-- __Вона й ззжере,__ -- прошипів змій.

// 9383
//“Will be consumed by it,” whispered the chill voice. Harry didn’t particularly
//want to think about how Professor Quirrell had gotten that password. His brain,
//which thought about it anyway, suggested that it had probably involved a Death
//Eater, a quiet isolated place, and some lead-pipe Legilimency.
-- Вона й зжере, -- прошепотів крижаний голос.

// hedrok @ lead-pipe я так розумію, мається на увазі побиття трубами як метод
// катування... Вигадав лише "паяльникова". Якщо є кращі пропозиції чи пояснення
// - прошу
Гаррі не хотів думати про те, як професор Квірел отримав цей пароль. Його розум,
що все одно про це розмірковував, припустив, що напевно був задіяний смертежер,
тихе звукоізольоване місце, та якась паяльникова виманологія.

// 9384
//“Your wand,” murmured Bellatrix, “I took it from the Potters’ house and hid it,
//my lord… under the tombstone to the right of your father’s grave… will you kill
//me, now, if that was all you wished of me… I think I must have always wanted
//you to be the one to kill me… but I can’t remember now, it must have been a
//happy thought…”
-- Ваша паличка, -- пробурмотіла Белатриса, -- я забрала її з будинку Поттерів
та сховала, володарю... під надгробною плитою праворуч від могили вашого
батька... ви тепер вб'єте мене, якщо це все, що вам було потрібно... гадаю, я
завжди хотіла, щоб ви мене вбили... але я тепер не пам'ятаю цього, це напевно
була приємна думка...

// 9385
//Harry’s heart wrenched inside him, it was unbearable, and - and he couldn’t
//cry, couldn’t let his Patronus fade -
Серце Гаррі стислося, це було нестерпно, та... та він не міг розплакатися, не
міг дозволити патронусу зникнути...

// 9386
//Harry’s face showed a flicker of annoyance, and his voice was sharp as it said,
//“Enough foolishness. You’re to come with me, Bella dear, unless you prefer the
//company of the Dementors.”
На обличчі Гаррі промайнуло роздратування, його голос був різким:

-- Годі маячні. Ти йдеш зі мною, люба Бело, хіба що тобі більш до вподоби
товариство дементорів.

// 9387
//Bellatrix’s face twitched in brief puzzlement, the shrunken limbs did not stir.
Лице Белатриси смикнулося від недовгого здивування, проте кінцівки й не
поворухнулися.


// 9388
//“__You’ll need to float her out,__” Harry hissed to the snake.
//”__Sshe can no longer think of esscaping.__”____
-- __Тобі доведеться її винессти,__ -- прошипів Гаррі до змія. -- __У неї не
лишилося волі на втечу__.

// 9389
//____

// 9390
//“__Yess,__” hissed the snake, ”__but do not underesstimate her, sshe
//wass the deadliesst of warriorss.__” The green head dipped in warning.
//”__One would be wisse to fear me, boy, even were I sstarved and
//nine-tenthss dead; be wary of her, allow no ssingle flaw in your pretensse.__”
// hedrok: "starved and nine-tenth dead" - копія в 0559670
-- __Так,__ -- прошипів змій, -- __але не недооцінюй її, вона була
найссмертоносснішою з воїнів,__ -- зелена голова попереджально опустилася. --
__Мене варто було б боятисся, хлопче, навіть якби я був ззморений голодом та на
дев'ять дессятих мертвий. Сстережися її, не припусскайсся жодної помилки у
ссвоїй грі.__

// 9391
//The green snake smoothly glided out of the door.
Зелений змій плавно виповз за двері.

// 9392
//And shortly after, a man with sallow skin and a fearful expression on his
//bearded face cringed into the room with his wand in hand.
Невдовзі зіщулений чоловік з жовтою шкірою та з переляканим обличчям під
бородою зайшов у кімнату з паличкою в руці.

// 9393
//“My Lord?” the servant said falteringly.
-- Володарю? -- тремтячим голосом сказав слуга.

// 9394
//“Do as you were instructed,” the Dark Lord whispered in that chill voice,
//sounding even more terrible coming from a child’s body. “And do not let your
//Patronus falter. Remember, if I do not return there will be no reward for you,
//and it will be long before your family is allowed to die.”
-- Роби як було сказано, -- прошепотів Темний Лорд крижаним голосом, що був ще
жахливішим через те, що надходив з тіла дитини. -- І не дозволяй своєму
патронусу колихатися. Пам'ятай, якщо я не повернуся, то не буде тобі
винагороди, і мине чимало часу, перш ніж твоїй родині дозволять померти.

// 9395
//Having spoken those dreadful words, the Dark Lord pulled his invisibility cloak
//over his head, and disappeared.
Вимовивши ці страхітливі слова, Темний Лорд натягнув плащ-невидимку на голову
та зникнув.

// 9396
//The cringing servant opened the door to Bellatrix’s cage, and pulled a tiny
//needle from his robes with which he poked the human skeleton. The single drop
//of red blood produced was soon absorbed into a small doll, which was laid upon
//the floor, and the servant began to chant in a whisper.
Зіщулений слуга відчинив двері камери Белатриси, дістав з мантії крихітну голку
та штрикнув нею людинку-скелет. Виступила єдина крапля крові, що невдовзі всоталася
в невеличку ляльку, що її слуга поклав поряд на підлозі. Тоді він почав читати
чари пошепки.

// 9397
//Soon another living skeleton lay upon the floor, motionless. Afterward the
//servant seemed to hesitate for a moment, until from the empty air hissed an
//impatient command. Then the servant pointed his wand at Bellatrix and spoke a
//word, and the living skeleton lying on the bed was naked, and the skeleton
//lying on the floor was clothed in her faded dress.
Невдовзі поряд на підлозі виникнув другий живий скелет, що нерухомо лежав.
Потім слуга ніби завагався, доки з порожнього повітря не пролунав парселмовою
нетерплячий наказ. Тоді слуга вказав паличкою на Белатрису та вимовив слово, і
живий скелет, що лежав у ліжку, став голим, а скелет на підлозі одягненим у її
вицвілий одяг.

// 9398
//The servant tore a small strip of cloth from the dress, as it lay upon the
//seeming corpse; and from his own robes, the fearful man then produced an empty
//glass flask with small traces of golden fluid clinging to its inside. This
//flask was concealed in a corner, the strip of skirt laid over it, the leached
//cloth nearly blending with the gray metal wall.
Слуга відірвав невеличку смужку тканини з сукні, що лежала на нібито трупі. А з
власної мантії цей переляканий чоловік дістав скляну пляшку з рештками золотої
рідини на дні. Цю пляшку він приховав у куті, поклавши зверху вицвілу тканину,
що майже зливалася з сірою металевою стіною.

// 9399
//Another wave of the servant’s wand floated the human skeleton lying on the bed
//into the air, and in almost the same motion clothed her in new black robes. An
//ordinary-looking bottle of chocolate milk was put into her hand, and a chill
//whisper ordered Bellatrix to grasp the bottle and begin drinking it, which she
//did, her face still looking only puzzled.
Наступний помах палички підняв людину-скелет з ліжка у повітря, і майже таким
саме рухом одягнув її у чорну мантію. Він поклав звичайну на вигляд пляшку
шоколадного молока їй у руку, а крижаний шепіт наказав Белатрисі схопити пляшку
й почати з неї пити, що та й зробила, на її обличчі досі був лише подив.

// 9400
//Then the servant turned Bellatrix invisible, and turned himself invisible, and
//they left. The door closed behind them all and clicked as it locked, plunging
//the corridor into darkness once more, unchanged but for a small flask concealed
//in the corner of one cell, and a fresh corpse lying upon its floor.
Тоді слуга зробив Белатрису невидимою, зробив себе невидимим, і вони пішли.
Двері за їхніми спинами зачинилися з клацанням, бо спрацював замо{stress}к, і
коридор за дверима знову занурився в темряву. Ніщо не змінилося, крім
невеличкої прихованої пляшки в кутку однієї з камер і свіжого трупа, що лежав
на підлозі.

***

// 9401
//Earlier, in the deserted shop, Professor Quirrell had told Harry that they were
//going to commit the perfect crime.
Раніше, у закинутій крамниці, професор Квірел сказав був Гаррі, що вони скоять
бездоганний злочин.

// 9402
//Harry had unthinkingly started to repeat back the standard proverb that there
//was no such thing as a perfect crime, before he actually thought about it for
//two-thirds of a second, remembered a wiser proverb, and shut his mouth in
//midsentence.
Гаррі вже збирався процитувати розповсюджене прислів'я, що бездоганних злочинів
не існує, але подумав про це дві третини секунди, згадав мудріше
прислів'я та стулив пельку посеред речення.

// 9403
//__What do you think you know, and how do you think you know it?__
// hedrok: копія з 007:866
__Що, ти гадаєш, ти знаєш і звідки, ти гадаєш, ти це знаєш?__

// 9404
//If you __did__ commit the perfect crime, nobody would ever find out - so
//how could anyone possibly __know__ that there weren’t perfect crimes?
Якщо ти __скоїв__ бездоганний злочин, про який ніхто ніколи не дізнається, то яким
чином хтось може __знати__, що бездоганних злочинів не існує?

// 9405
//And as soon as you looked at it that way, you realized that perfect crimes
//probably got committed __all the time__, and the coroner marked it down as
//death by natural causes, or the newspaper reported that the shop had never been
//very profitable and had finally gone out of business…
І якщо подумати про це таким чином, ставало очевидним, що, напевно, бездоганні
злочини скоювали __повсякчасно__, і судовий слідчий записував це як смерть від
природних причин, чи в газеті повідомлялося, що крамниця ніколи не була
прибутковою і тому нарешті пішла з бізнесу...

// 9406
//When Bellatrix Black’s corpse was found dead in her cell the next morning,
//there within the prison of Azkaban from which (everyone knew) no one had ever
//escaped, nobody bothered doing an autopsy. Nobody thought twice about it. They
//just locked up the corridor and left, and the __Daily Prophet__ reported
//it in the obituary column the next day…
Коли наступного ранку Белатрису Блек знайдуть мертвою у камері в Азкабані, з
якого (як усі знали) ніхто ніколи не тікав, не буде розтину. Ніхто не здивується.
Вони просто зачинять за собою коридор, а "`Щоденний віщун`" надрукує про це
некролог наступного дня...

// 9407
//…that was the perfect crime which Professor Quirrell had planned.
...такий бездоганний злочин спланував професор Квірел.

// 9408
//And it wasn’t Professor Quirrell who screwed it up.
І не професор Квірел усе зіпсував.
