// 12488
//== SA, Plausible Deniability, Pt 7
// hedrok: також зустрічається в 020:3857 049:8952 063:10987
== Розділ 72. ПС, Спроможність на правдоподібне заперечення, ч.7

// 12489
//The winter Sun had well set by the time dinner ended, and so it was amid the
//peaceful light of stars twinkling down from the enchanted ceiling of the Great
//Hall that Hermione left for the Ravenclaw Tower alongside her study partner
//Harry Potter, who lately seemed to have a __ridiculous__ amount of time
//for studying. She hadn’t the faintest idea of when Harry was doing his actual
//homework, except that it was getting done, maybe by house elves while he slept.
Зимове сонце вже давно зайшло, коли прийшов час вечері, тож зачарована стеля
Великої Зали була сповнена мирного мерехтіння зірок, коли Герміона попрямувала
до башти Рейвенклову разом зі своїм товаришем по навчанню Гаррі Поттером, в
якого нещодавно зʼявилася __неймовірна__ кількість часу для навчання. Вона
гадки не мала, коли Гаррі робив власне домашнє завдання, тільки от воно було
зроблене, можливо, ельфами-домовиками, доки Гаррі спав.

// 12490
//Nearly every single pair of eyes in the whole Hall lay on them as they passed
//through the mighty doors of the dining-room, which were more like siege gates
//of a castle than anything students ought to go through on the way back from
//supper.
Майже всі очі в Залі спостерігали за ними, коли вони перетинали отвір величезних
дверей до їдальні, що більш скидалися на готову до облоги браму замку, ніж на
щось доречне для шляху учнів на вечерю.

// 12491
//They went out without speaking, and walked until the distant babble of student
//conversation had faded into silence; and then the two of them went on a little
//further through the stone corridors before Hermione finally spoke.
Вони йшли мовчки, аж доки базікання учнів не стихло. Тоді вони вдвох пройшли ще
трохи камʼяними коридорами, і лише тоді Герміона нарешті заговорила:

// 12492
//“Why’d you do that, Harry?”
-- Чому ти так вчинив, Гаррі?

// 12493
//“Do what?” said the Boy-Who-Lived in an abstracted tone, as if his mind were
//quite elsewhere, thinking about vastly more important things.
-- Як вчинив? -- неуважно запитав Хлопчик-Що-Вижив, ніби він розмірковував про
щось інше й значно важливіше.

// 12494
//“I mean, why didn’t you just __tell __them no?”
-- Тобто чому ти просто не __сказав__ їм "`ні`"?

// 12495
//“Well,” Harry said, as their shoes pattered across the tiles, “I can’t just go
//around saying ‘no’ every time someone asks me about something I haven’t done. I
//mean, suppose someone asks me, ‘Harry, did you pull the prank with the
//invisible paint?’ and I say ‘No’ and then they say ‘Harry, do you know who
//messed with the Gryffindor Seeker’s broomstick?’ and I say ‘I refuse to answer
//that question.’ It’s sort of a giveaway.”
-- Ну, -- вимовив Гаррі, а їхнє взуття стукотіло плитами, -- не можу ж я просто
казати "`ні`" щоразу, як хтось питатиме мене, чи не зробив я чогось. Тобто,
припустимо, хтось спитає мене "`Гаррі, це ти утнув той розіграш з невидимою
фарбою?`", і я відповім "`ні`", а потім хтось спитає "`Гаррі, ти не знаєш, хто
зіпсував мітлу ґрифіндорського ловця?`", і я відповім "`я відмовляюся відповідати
на це питання.`" Все буде якось очевидно.

// 12496
//“And __that’s __why,” Hermione said carefully, “you told everyone…” She
//concentrated, rembering the exact words. “That if hypothetically there
//__was __a conspiracy, you could not confirm or deny that the true master
//of the conspiracy was Salazar Slytherin’s ghost, and in fact you wouldn’t even
//be able to admit the conspiracy existed so people ought to stop asking you
//questions about it.”
-- І __через це__, -- повільно сказала Герміона, -- ти всім сказав... -- вона
зосередилася, пригадуючи точні слова. -- Що якщо гіпотетично змова __існує__,
ти не можеш ані підтвердити, ані заперечити, що справжнім керівником змови є
привид Салазара Слизерина, і насправді ти не міг би навіть визнати, що змова
існує, тож людям варто припинити тебе про це питати.

// 12497
//“Yep,” said Harry Potter, smiling slightly. “That’ll teach them to take
//hypothetical scenarios too seriously.”
-- Ага, -- з легкою усмішкою відповів Гаррі Поттер. -- Знатимуть, як сприймати
гіпотетичні версії надто серйозно.

// 12498
//“And you told __me __not to answer anything -”
-- А __мені__ ти сказав не відповідати на жодні...

// 12499
//“They might not __believe __you, if you deny it,” said Harry. “So it’s
//better to say nothing, unless you want them to think you’re a liar.”
-- Вони можуть __не повірити__ тобі, якщо ти заперечуватимеш. Тож краще
нічого не казати, хіба що ти хочеш, щоб тебе вважали брехункою.

// 12500
//“But -” Hermione said helplessly. “But - but now people think I’m __doing
//__things for __Salazar Slytherin!__” The way the Gryffindors had been
//looking at her - the way the __Slytherins __had been looking at her -
-- Але... -- безпорадно сказала Герміона. -- Але... але тепер люди вважають,
що я __виконую доручення Салазара Слизерина__!

Як на неї дивилися були ґрифіндорці... а як __слизеринці__ на неї дивилися
були...

// 12501
//“It goes along with being a hero,” Harry said. “Have you seen what the
//__Quibbler __says about __me?__”
-- Героям цього не уникнути, -- сказав Гаррі. -- Ти бачила, що __про мене__
пишуть у "`Базікалі`"?

// 12502
//For a brief second Hermione imagined her parents reading a newspaper article
//about her, and instead of the story being about her winning a nationwide
//spelling bee or any of the other ways she’d imagined getting into the papers,
//the headline said “HERMIONE GRANGER GETS DRACO MALFOY PREGNANT”.
На мить Герміона уявила, як її батьки читають у газеті про неї статтю, і
замість історії про те, як вона виграла національне змагання з правопису, чи
якоїсь іншої історії, яка, як вона уявляла, дозволить їй опинитися в газетах, у
заголовку буде "`ГЕРМІОНА ҐРЕЙНДЖЕР ЗАПЛІДНИЛА ДРАКО МЕЛФОЯ`".

// 12503
//It was enough to make you think twice about the whole heroine business.
Лише цього було достатньо, щоб серйозно обміркувати, чи варте воно того -- бути
героїнею.

// 12504
//Harry’s voice turned a bit more formal. “Speaking of which, Miss Granger, how
//goes your latest quest?”
Голос Гаррі набув офіційних ноток:

-- До речі, міс Ґрейнджер, як просувається ваш поточний похід?

// 12505
//“Well,” said Hermione, “unless the ghost of Salazar Slytherin really
//__does __show up and tell us where to find bullies, I don’t think we’re
//going to have much luck.” Not that she was sorry about that.
-- Ну, хіба що привид Салазара Слизерина __справді__ зʼявиться й скаже нам,
де можна знайти цькувальників, гадаю, у нас мало шансів, -- не те, щоб вона
через це надто журилася.

// 12506
//She glanced over at Harry, and saw the boy giving her a peculiarly intense
//look.
Вона поглянула на Гаррі й побачила, що хлопець вкрай незвично на неї
дивиться.

// 12507
//“You know, Hermione,” the boy said quietly, as though to make sure that nobody
//else in the world heard, “I think you’re right. I think some people get a lot
//more help than others in becoming heroes. And __I __don’t think that’s
//fair, either.”
-- А знаєш, Герміоно, -- тихо сказав хлопець, ніби хотів не залишити жодних
шансів, щоб хтось інший міг їх почути, -- гадаю, ти маєш рацію. Гадаю, дехто
отримує значно більше допомоги за інших у тому, щоб стати героєм. І __я__ теж
не вважаю це чесним.

// 12508
//And Harry grabbed at her witch’s robes where they lay over her arm, and hustled
//her into a side-hall of the corridor they were walking through, her mouth
//gaping open in surprise even as Harry’s wand came into his hand, they rounded a
//curve of the side-hall and it was so narrow that it was almost pushing her and
//Harry into each other, even as Harry pointed to the way they’d come and softly
//said “__Quietus__”, then a moment later, in the other direction,
//”__Quietus__” again.
Тоді Гаррі схопив її відьомську мантію за рукав і заштовхав Герміону у
відгалуження коридору, яким вони йшли. Вона не встигла закрити розкритого від
здивування рота, а в руці Гаррі зʼявилася паличка, і вони заглибилися у звивистий
коридорчик -- настільки вузький, що вони ледь не обіймалися. Гаррі направив паличку
туди, звідки вони прийшли та вимовив "`__Квієтус__`". За мить змінив напрямок і знову
вимовив "`__Квієтус__`".

// 12509
//The boy looked searchingly around them, not just to every side, but even upward
//toward the ceiling and down toward the floor.
Тоді хлопець уважно подивився навколо -- не лише навсібіч, а й вгору на стелю і
вниз на підлогу.

// 12510
//And then Harry stuck a hand in his pouch and said, “Invisibility cloak.”
Тоді Гаррі занурив руку у свій капшучок та сказав:

-- Плащ-невидимка.

// 12511
//“__Gleep?__” said Hermione.
-- __Га?__ -- вимовила Герміона.

// 12512
//Harry was already drawing out folds of shimmering black fabric from the
//mokeskin device. “Don’t worry,” the boy said with a small grin, “they’re so
//rare that nobody bothered to make a school rule against them…”
Гаррі вже витягав складки примарної чорної тканини з мокового пристрою.

// hedrok: про шкільні правила казав Дамблдор у 017:2780
-- Не хвилюйся, -- з легкою хитрою усмішкою сказав хлопець, -- вони такі
рідкісні, що ніхто не завдав собі клопоту заборонити їх у шкільних правилах...

// 12513
//And then Harry held out the dark velvet mesh to her, and said, his voice
//strangely formal, “I do not give you, but loan you, my cloak, unto Hermione
//Jean Granger. Protect her well.”
А тоді Гаррі простягнув їй темну оксамитову матерію і на диво урочистим
голосом сказав:

-- Я не віддаю тебе, мій плащу, а позичаю Герміоні Джін Ґрейнджер. Захищай її
добре.

// 12514
//She stared at the shimmering velvet of the cloak, cloth that swallowed all the
//light that fell on it except what glinted from small strange reflections,
//fabric so perfectly black it should’ve shown dust or lint or __something
//__but it didn’t, the longer you looked the more you felt like what you were
//seeing wasn’t really there at all, but then you blinked again and it was just a
//black cloak.
Вона втупилася в примарний оксамит плаща: тканина поглинала все світло, що падало
на неї, тільки де-не-де відблискували дрібні дивні віддзеркалення. Матерія була
бездоганно чорною -- на ній мав би бути порох, плями, ну __хоч щось__, проте нічого
не було -- що довше ти дивишся, то сильнішим стає відчуття, ніби те, що ти бачив,
узагалі не існувало. Та варто кліпнути -- і перед тобою знову був просто чорний
плащ.

// 12515
//“Take it, Hermione.”
-- Бери, Герміоно.

// 12516
//Hardly even thinking, Hermione stretched out her hand to grasp the fabric; and
//then just as her brain woke up and she started to pull her hand back, Harry let
//go of the cloak and it started to fall and she grabbed at it without thinking.
//And the instant her fingers touched and held the cloak she felt an intangible
//jolt run through her like picking up her wand for the first time; and it was
//like she heard a song being sung, ever so faintly, in the back of her mind.
Майже бездумно Герміона простягнула руку, щоб взяти тканину. А коли вона отямилася
й почала відтягати руку назад, Гаррі відпустив плащ, і той почав падати, Герміона
схопила його рефлекторно. І щойно її пальці торкнулися плаща, вона відчула, як нею
пробігло якесь незбагненне тремтіння, чимось схоже на відчуття від першого доторку
до палички. І їй здалося, що вона чує тиху пісню здалеку.

// 12517
//“That’s one of my quest items, Hermione,” Harry said softly. “It belonged to my
//father, and it’s not something I can replace, if it’s lost. Don’t loan it to
//anyone else, don’t show it to anyone, don’t tell anyone it exists… but if you
//want to borrow it for a while, just come to me and ask.”
-- Це один з моїх артефактів, Герміоно, -- тихо сказав Гаррі. -- Він належав моєму
батькові, і я не зможу його замінити, якщо він загубиться. Не позичай його нікому,
не показуй його нікому, не кажи нікому, що він існує... та якщо хочеш позичити його
в мене на якийсь час, просто підійди й попроси.

// 12518
//Hermione finally tore her eyes loose from the depthless black folds and stared
//back up at Harry.
Герміона нарешті відірвала очі від бездонних чорних складок і перевела погляд на
Гаррі.

// 12519
//“I can’t -”
-- Я не можу...

// 12520
//“You certainly can,” Harry said. “Because there’s nothing even the tiniest bit
//fair about my finding this gift-wrapped in a box next to my bed one morning,
//and you… not.” Harry paused thoughtfully. “Unless you __did __get your own
//invisibility cloak, in which case never mind.”
-- Звісно можеш. Бо нема ані краплі справедливості в тому, що я одного ранку
знайшов це в подарунковій обгортці поряд з ліжком, а ти... ні, -- Гаррі
ненадовго замислився. -- Хіба що ти __теж__ отримала власний плащ-невидимку,
тоді не зважай на все, що я сказав.

// 12521
//Then the implications of __invisibility cloak __finally dawned on her, and
//she pointed a shocked finger at Harry, though they were close enough together
//that she couldn’t quite straighten her arm properly, and her voice rose with
//considerable indignation as she said, “So __that’s __how you disappeared
//from the Potions closet! And the time when -” and then she trailed off, because
//even __with __an invisibility cloak she still couldn’t see how Harry had…
Вона нарешті збагнула, що випливало з __плаща-невидимки__. Вона шоковано
вказала на Гаррі пальцем, хоча вони були настільки близько одне до одного, що
вона не могла належним чином випрямити руку, її голос був сповнений обурення,
коли вона сказала:

-- То __он як__ ти зникнув з шафи на зіллях! А коли ти... -- її голос затихнув,
бо __навіть за допомогою__ плаща-невидимки, вона все одно не могла уявити, як
Гаррі...

// 12522
//Harry buffed his fingernails on his robes with artful nonchalance, and said,
//“Well, you knew there had to be __some __trick to it, right? And now the
//heroine will mysteriously know where and when to find bullies - just like she
//listened to the bullies planning it, even though nobody her age could
//__possibly __have turned herself invisible to spy on them.”
Гаррі з нарочитою байдужістю почав полірувати нігті об мантію і сказав:

-- Ну, ти ж знала, що це мав бути __якийсь__ трюк, так? А тепер героїня
таємничим чином знатиме, де й коли знайти цькувальників, -- ніби вона
підслуховувала їхні плани, хоча __ніхто__ в її віці не здатен стати
невидимим та шпигувати за ними.

// 12523
//There was a pause and a silence.
Запала мовчанка.

// 12524
//“Harry -” she said. “I’m - I’m not sure anymore that fighting bullies is such a
//good idea.”
-- Гаррі... Я... Я вже не впевнена, що боротьба з цькувальниками -- така вже
гарна ідея.

// 12525
//Harry’s eyes stayed steady on hers. “Because the other girls might get hurt?”
Гаррі незмигно дивився їй в очі.

-- Бо інші дівчата можуть постраждати?

// 12526
//She nodded, just nodded.
Вона кивнула -- лише кивнула.

// 12527
//“That’s __their __choice, Hermione, just like it’s yours. __I
//__decided not to do the obvious stupid thing that everyone does in books, try to
//keep you safe and protected and helpless, and have you get really angry at me,
//and push me away while you go off on your own and get into even more trouble,
//and then heroically pull through it successfully, after which I’d finally have
//my epiphany and realize that blah blah blah etcetera. I know how that part of
//my life story goes, so I’m just skipping over it. If I can predict what I’m
//going to think later, I might as well go ahead and think it now. Anyway, my
//point is, you shouldn’t smother __your __friends to keep them safe,
//either. Just tell them up front it’s predictably going to go horribly wrong,
//and if they still want to be heroines after that, fine.”
-- Це __їхній__ вибір, Герміоно, так само, як і твій. __Я__ вирішив
не чинити очевидну дурницю, яку всі роблять у книжках, і не намагатися
тримати тебе в безпеці, захищену та безпорадну, щоб потім ти розізлилася на
мене по-справжньому, розсварилася зі мною, пішла кудись сама й втрапила б у
ще більшу халепу, яку ти б героїчно й успішно витримала, після чого на мене
б нарешті зійшло осяяння, і я збагнув, що бла-бла-бла тощо. Я знаю, якою
буде ця частина історії мого життя, тож я її просто перегорну. Якщо я можу
передбачити свої майбутні погляди, я можу прийняти їх прямо зараз. Хай там
як, я веду до того, що тобі теж не варто стримувати __своїх__ друзів, тримати
їх у безпеці тощо. Просто скажи їм прямо, що, найімовірніше, усе піде шкереберть,
і якщо вони все одно захочуть бути героїнями, то й нехай.

// 12528
//It was at times like this that Hermione wondered if she was __ever __going
//to get used to the way Harry thought. “Harry, I really,” her voice stuck for a
//second, “really, __really __don’t want them getting hurt! Especially
//because of something I started!”
У такі миті Герміоні завжди було цікаво, чи зможе вона __колись__ звикнути
до ходу думок Гаррі.

-- Гаррі, я справді, -- на мить вона затнулася, -- справді, __справді__ не хочу,
щоб вони постраждали! Особливо через щось розпочате мною!

// 12529
//“Hermione,” Harry said seriously, “I’m pretty sure you did the right thing. I
//don’t see what could realistically happen to them that would be __worse
//__for them, in the long run, than__ not trying__.”
-- Герміоно, -- серйозно сказав Гаррі, -- я впевнений, що ти чиниш правильно.
Не можу уявити, що такого реалістично може статися з ними, що було б
__гіршим__, зрештою, за __бездіяльність__.

// 12530
//“What if they get __badly __hurt?” Hermione said. Her voice felt blocked
//in her throat; she remembered Captain Ernie saying how Harry had just stared
//straight into the eyes of a bully as the bully bent his finger back, before
//Professor Sprout had arrived to save him; and there was another thought that
//came after that, about Hannah and her delicate hands with the fingernails that
//she carefully painted in Hufflepuff yellow every morning, but that wasn’t
//allowed to be imagined. “And then - they’ll never do anything courageous, ever
//again -”
-- А що як вони __сильно__ постраждають? -- запитала Герміона. Слова застрягли
в її горлі; вона згадала, як капітан Ерні розповідав про Гаррі, що просто втупився
в очі хулігана, коли той зігнув йому палець, перед тим, як професорка Спраут
зʼявилася й врятувала його; а тоді вона згадала про Анну та її витончені руки з
нігтями, що їх вона фарбувала у жовтий колір Гафелпафу щоранку, та таке не можна
було уявляти. -- І тоді... Вони вже ніколи не зроблять нічого сміливого, ніколи
в житті...

// 12531
//“I don’t think it works like that,” Harry said steadily. “Even if it all goes
//mind-bogglingly wrong, I don’t think it works like that inside a human mind.
//The important thing is believing about yourself that you’re someone who can
//break your boundaries. Trying and getting hurt can’t possibly be worse for you
//than being… __stuck__.”
-- Гадаю, це працює не так, -- впевнено сказав Гаррі. -- Навіть якщо станеться
щось неуявле{stress}нно погане, гадаю, всередині людського розуму все відбувається
інакше. Важливо вірити, що ти можеш вийти за свої обмеження. Спробувати й постраждати
-- не гірше, ніж... __застрягнути__.

// 12532
//“What if you’re __wrong, __Harry?”
-- А що, як ти __помиляєшся__, Гаррі?

// 12533
//Harry paused for a moment, and then shrugged a little sadly, and said, “What if
//I’m right?”
Гаррі мить помовчав, а тоді трохи сумно знизав плечима:

-- А що, як я маю рацію?

// 12534
//Hermione looked back at the black mesh running over her hand. From the inside
//the cloak felt strangely soft and yet firm against her palm, as if it was
//trying to give her hand a reassuring hug.
Герміона знову поглянула на чорну тканину, що струменіла в її руці. Зсередини
плащ на дотик був на диво мʼяким, хоча на долоні був твердим, ніби намагався
потиснути їй руку, чи заспокійливо обійняти.

// 12535
//Then she lifted her arm back up, holding the cloak back to Harry.
Вона підвела руку, щоб віддати плащ Гаррі.

// 12536
//Harry didn’t move to take it.
Гаррі навіть не поворухнувся, щоб забрати його.

// 12537
//“I -” said Hermione. “I mean, thank you, thank you a lot, but I’m still
//thinking about it, so you can take it back for now. And… Harry, I don’t think
//it’s right to __spy __on people -”
-- Я... Я вдячна тобі, дуже, та я досі вагаюся, тож забери його поки що. І...
Гаррі, навряд чи це правильно -- __шпигувати__ за людьми...

// 12538
//“Not even on known bullies, to rescue their victims?” Harry said.
//“__I’ve__ never been bullied, but I’ve been through a realistic
//simulation, and it didn’t feel very pleasant. Have you ever been bullied,
//Hermione?”
-- Навіть якщо відомо, що вони цькувальники, для порятунку жертв? __Мене__
ніколи не цькували, та я пройшов реалістичну імітацію, і це було не надто
приємно. Тебе колись цькували, Герміоно?

// 12539
//“No,” she said in a quiet voice, and went on holding out Harry’s invisibility
//cloak to him.
-- Ні, -- тихо відповіла вона, і далі тримала плащ-невидимку Гаррі перед ним.

// 12540
//Finally Harry took back his cloak - she felt a small twitch of loss as the
//inaudible song vanished from the back of her mind - and started to stuff the
//black material back into his pouch.
Нарешті Гаррі забрав свій плащ -- вона відчула сум через втрату нечутної музики
в її розумі -- і почав повертати чорну матерію до свого капшучка.

// 12541
//As the pouch ate the last of the fabric, Harry turned from her, to break the
//Quieting Barrier -
Коли капшучок доїв останній шматочок тканини, Гаррі розвернувся до неї спиною,
і вже збирався перетнути барʼєр тиші...

// 12542
//“And, um,” Hermione said. “That’s not __the __Cloak of Invisibility, is
//it? The one we read about in the library on page eighteen of Paula Vieira’s
//translation of Gottschalk’s __An Illustrated Scroll of Lost Devices__?”
-- І, ем... -- сказала Герміона. -- Це ж не __той самий__ Плащ невидимості,
правда? Не той, про який ми в бібліотеці читали на вісімнадцятій сторінці
"`Ілюстрованого манускрипту втрачених пристроїв`" Ґотшалка в перекладі Паули
Вієри?

// 12543
//Harry turned his head back, grinning slightly, and said in exactly the same
//tone of voice he’d used earlier with the other students at dinner, “I cannot
//confirm or deny that I possess magical artifacts of incredible power.”
Гаррі озирнувся до неї та усміхнувся. А тоді сказав саме таким тоном, яким
нещодавно відповідав учням за вечерею:

-- Я не можу ані підтвердити, ані заперечити, що володію магічними артефактами
неймовірної сили.

***

// 12544
//When Hermione climbed into bed that night she was still trying to decide. Her
//life had been simpler at dinnertime, back when there hadn’t __been __any
//practical way for them to find bullies; and now she had to choose again; not
//for herself, this time, but for her friends. In her mind’s eye she kept seeing
//Dumbledore’s lined face and the pain it hadn’t quite hidden, and in her mind’s
//ears she kept hearing Harry’s voice saying ‘That’s their choice, Hermione, just
//like it’s yours.’
Коли того вечора Герміона забралася в ліжко, вона досі не визначилася. Її життя
було значно простішим під час вечері, коли в неї ще __не було__ жодного методу
знаходити цькувальників. А тепер їй знову треба було вирішувати. І цього разу
не тільки для себе, а й для своїх друзів. Їй весь час згадувалося зморшкувате
обличчя Дамблдора з не до кінця прихованим болем, і слова Гаррі "`Це їхній вибір,
Герміоно, так само, як твій`".

// 12545
//And her hand kept remembering the sensation of the cloak against her fingers,
//replaying it over and over in her mind. There was a power to the feeling that
//compelled her thoughts to return to it, and to the song she’d heard / hadn’t
//heard in a part of her mind and magic which now lay silent once more.
А також вона згадувала відчуття від доторку до плаща -- цей спогад знову й
знову зринав у її розумі. Якась сила повертала її до тієї миті, і до пісні, що її
вона чула-не-чула у тій частині її розуму й магії, що знову поринула в тишу.

// 12546
//Harry had spoken to the cloak like it was a __person__, telling it to take
//good care of her. Harry had said the cloak had belonged to his father, that he
//couldn’t replace it if it was lost…
Гаррі розмовляв був з плащем, ніби той був __особистістю__, наказував йому добре її
берегти. Гаррі казав був, що плащ належав його батькові, що він не зможе замінити
його, якщо його буде втрачено...

// 12547
//But… Harry wouldn’t __really __do that, would he?
Але... Гаррі ж __не зробив би__ такого, правда?

// 12548
//Just __hand __her one of the three Deathly Hallows created centuries
//before Hogwarts?
Просто __віддати__ їй одну з трьох смертельних реліквій, що були створені
за сторіччя до Гоґвортсу?

// 12549
//She could say that she felt flattered, but this went __way __beyond
//feeling flattered, into making her wonder just what she was to Harry, exactly.
Можна було б сказати, що це їй лестило, якби це не було недоречно слабкими
словами. І вона почала розмірковувати, а ким насправді вона була для Гаррі.

// 12550
//Maybe Harry was the sort of person who went around loaning ancient lost magical
//artifacts to __anyone __he considered a friend, but -
Можливо, Гаррі просто був такою людиною, що позичає втрачені древні магічні
артефакти __будь-кому__, кого вважає за друга, проте...

// 12551
//But when she thought about __which __part of his life Harry had said he’d
//skipped over, the part where he tried to keep her safe and protected…
Проте коли вона подумала про те, __яку__ частину свого життя Гаррі вирішив перегорнути,
-- ту частину, де він намагався вберегти та захистити її...

// 12552
//Hermione stared up at the ceiling of the Ravenclaw dorm. Somewhere beyond her
//bed, Mandy and Su were talking. She’d turned up her Quieting Charm to where she
//couldn’t hear the exact words, but could still hear their faint murmur; there
//was something comforting about sleeping in a dorm with the other girls. Harry
//kept his own Quieter turned up all the way, she knew.
Герміона витріщилася на стелю Рейвенкловської спальні. Десь поряд з її ліжком
Менді та Су розмовляли. Вона виставила рівень чарів тиші так, щоб не чути
слів, та щоб чути слабке бурмотіння. Це заспокоювало -- спати в одній кімнаті з
іншими дівчатами. Вона знала, що Гаррі вмикав квіетер на повну потужність.

// 12553
//She was starting to wonder if maybe Harry actually __did__, well…
Їй спало на думку, що можливо вона, ну...

// 12554
//You know…
Ну ви знаєте...

// 12555
//__Like __her.
__Подобалася__ Гаррі.

// 12556
//It took Hermione Granger a long time to fall asleep that night.
Герміона Ґрейнджер довго не могла заснути тієї ночі.

// 12557
//And when she woke up the next morning there was a small slip of parchment
//peeking out from under her pillow which said __At half-past ten you will
//find a bully in the fourth passageway to the left of the hall leaving the
//Potions classroom - S.__
А коли вона прокинулася наступного ранку, з-під її подушки виднівся куточок
пергаменту, що на ньому було написано: "`О пів на десяту ви знайдете цькувальника
в четвертому проході ліворуч від коридору, що виходить з кабінету зіль. С.`"

***

// 12558
//When Hermione entered the Great Hall that morning, her stomach was filled with
//flying butterflies the size of Hippogriffs; even as she approached the
//Ravenclaw breakfast table she still hadn’t decided what to __do.__
Коли Герміона того ранку зайшла до Великої Зали, серце їй стискали кігті
гіпогрифів -- навіть коли вона наближалася до столу Рейвенклову, вона досі
не вирішила, що __робити__.

// 12559
//There was an empty place next to Padma, she saw. That would be where to sit
//down, if she was going to tell Padma and then ask Padma to tell Daphne and
//Tracey.
Вона побачила, що поряд з Падмою було порожнє місце. Туди варто було сісти, якщо
вона збиралася сказати Падмі й попросити її розповісти Дафні та Трейсі.

// 12560
//Hermione walked toward the empty place next to Padma.
Герміона підійшла до порожнього місця поряд з Падмою.

// 12561
//There were words waiting in her throat, __Padma, I got a____
//mysterious____ message -__
У її горлі застрягли слова "`Падмо, я отримала __таємниче__
повідомлення...`"

// 12562
//And she could feel a huge brick wall inside her, stopping the words from coming
//out. She’d be putting Hannah and Susan and Daphne __in danger__. Taking
//them and leading them by the hand straight into trouble. That was Wrong.
Вона відчувала всередині себе величезний цегляний мур, що не давав вимовити
ці слова. Вона б створила для Анни, Сьюзен та Дафни __небезпеку__. Повела б
їх прямо до халепи. Це було погано.

// 12563
//Or she could just go try to handle the bully herself, without telling her
//friends anything, and that, quite obviously, was also Wrong.
Або вона могла просто піти й впоратися з цькувальником сама, не сказавши
своїм друзям нічого, і це, цілком очевидно, теж було погано.

// 12564
//Hermione knew she was being faced with a Moral Dilemma, just like all those
//wizards and witches she’d read about in stories. Only in stories people always
//got a __right __choice and a wrong choice, not two wrong ones, which
//seemed a bit unfair. But she had the sense, somehow - maybe it came from the
//way Harry always talked about how the history books would see them - that she
//was faced with a Heroic Decision, and that her whole life might end up going
//one way or another, depending on what she chose right now, __this
//morning__.
Герміона знала, що перед нею одна з "`моральних дилем`", що поставали перед усіма
чаклунами й відьмами, про яких вона читала в книжках. Тільки от у книжках у
людей завжди був __хороший__ варіант і __поганий__ варіант, а не два поганих,
що видавалося дещо нечесним. Та якимось чином вона відчувала, -- можливо,
просто через нескінченні промови Гаррі про те, як про них писатимуть у книжках
з історії, -- що перед нею був вибір героя, і що все її життя може змінитися в
залежності від того, що вона вирішить зараз, __цього ранку__.

// 12565
//Hermione sat down at the table without looking to either side, just gazing at
//the plate and silverware like they might have answers hidden inside, thinking
//as hard as she ever had, and a few seconds later she heard Padma’s voice
//whispering almost in her ear, “Daphne says she knows where a bully’s going to
//be at ten-thirty today.”
Герміона сіла за стіл і старалася не дивитися навколо -- просто втупилася в
тарілку та столове срібло, ніби вони можуть мати всередині якісь приховані
відповіді. Вона розмірковувала напружено як ніколи, а за кілька секунд вона
почула біля вуха шепіт Падми:

-- Дафна каже, що знає, де сьогодні буде цькувальник о пів на десяту.

***

// 12566
//Doomed.
Приречені.

// 12567
//They were all doomed, in Susan Bones’s opinion.
На думку Сьюзен Боунз вони всі були приречені.

// 12568
//Auntie sometimes told stories which started out like this, people doing
//something they __knew __was stupid, and the stories usually ended with
//someone being __doomed__ all over the floor and all over the walls and
//getting on Auntie’s shoes.
Тітонька інколи розповідала історії, що так починалися: з того, що люди робили
щось, що вони й самі __знали__ було дурним, і зазвичай завершувалися тим, що
цьому комусь була __приречена доля__ розтектися по всій підлозі й стінах, та ще й
забруднити тітоньці туфлі.

// 12569
//“Hey, Padma,” muttered Parvati, her voice just barely audible over the soft
//impacts of eight girls tiptoeing through the corridor leading to the Potions
//classroom, “d’you know why Hermione’s been sighing all morning -”
-- Гей, Падмо, -- пробурмотіла Парваті -- її голос ледь не заглушали мʼякі
кроки восьми дівчат, що навшпиньках просувалися коридором до кабінету зіль,
-- не знаєш, чому Герміона зітхає весь ранок...

// 12570
//“No talking!” hissed Lavender, the harsh whisper sounding much louder than
//Parvati’s mutter. “You never know when Evil might be listening!”
-- Мовчати! -- прошипіла Лаванда, її грубий шепіт був значно гучнішим за
бурмотіння Парваті. -- Ніколи не знаєш, коли зло слухає!

// 12571
//__“Shhh!__” said three other girls even more loudly.
// hedrok: "дівчата" -- так, погоджуюся, дивно. Але має бути не родовий відмінок,
//         а називний множини.
//         https://slovnyk.ua/index.php?swrd=%D0%B4%D1%96%D0%B2%D1%87%D0%B8%D0%BD%D0%B8
-- __Шшш!__ -- вимовили інші три дівчата навіть гучніше.

// 12572
//Utterly, totally, quite extremely doomed.
Цілковито, безнадійно, надзвичайно приречені.

// 12573
//As they approached the fourth passageway to the left of the Potions classroom,
//where Daphne’s mysterious informant had said the bullying would take place, the
//eight of them moved slower, the sound of their feet got softer, and finally
//General Granger made the gesture that meant __Halt, I’ll look ahead__.
Коли вони наблизилися до четвертого проходу ліворуч від кабінету зіллєваріння,
де, згідно з таємничим інформатором Дафни, мало відбутися цькування, вісім дівчат
сповільнилися й старалися ступати ще мʼякіше, а потім генерал Ґрейнджер зробила
жест, що означав "`стійте, я подивлюся попереду`".

// 12574
//Lavender raised a hand, then, and when Hermione turned to look at her,
//Lavender, looking puzzled, pointed straight down the corridor, gestured to
//herself, and then tried to sign something else that Susan didn’t understand -
Тоді Лаванда підняла руку, і коли Герміона озирнулася, Лаванда, що здавалася
спантеличеною, вказала на підлогу коридору, потім на себе, а тоді зробила якийсь
жест, якого Сьюзен не розуміла...

// 12575
//General Granger shook her head, and once again, this time with slower, more
//exaggerated movements, made the sign for __Halt, I’ll look ahead__.
Генерал Ґрейнджер похитала головою і знову, цього разу повільніше, перебільшеними рухами,
подала знак "`стійте, я подивлюся попереду`".

// 12576
//Lavender, looking even more puzzled, pointed back the way they’d come, and made
//a bouncing gesture with her other hand.
Лаванда, ще більш спантеличена, вказала туди, звідки вони прийшли, а іншою рукою
замахала вгору-вниз.

// 12577
//Now everyone else was looking even more confused than Lavender, and Susan
//thought with some acerbity that evidently one hour of practice done two days
//ago wasn’t enough to remember a new set of code signals.
Тепер усі інші були навіть більш здивованими за Лаванду, а Сьюзен не без
жовчі подумала, що, видається, однієї години практики два дні тому було
недостатньо, щоб вивчити нові кодові сигнали.

// 12578
//Hermione pointed at Lavender, then at the floor beneath Lavender’s feet, the
//expression on her face making it very clear that the intended meaning was
//__You. Stay. Here.__
Герміона вказала на Лаванду, потім на підлогу під ногами Лаванди, і її вираз обличчя
дуже ясно передавав думку "`Ти. Залишайся. Тут.`"

// 12579
//Lavender nodded.
Лаванда кивнула.

// 12580
//__Doom doom doom,__ went the words of the Chaos Legion’s marching song
//through Susan’s mind, __doom doom doom doom doom doom__…
"`До ля ля`", -- лунав у розумі Сьюзен марш Легіону Хаосу, -- "`до ля ля
до ля ля...`"

// 12581
//Hermione reached into her robes, and drew out a little rod with a mirror on the
//end of it and an eyepiece. Very very softly indeed, the Ravenclaw girl crept up
//to the wall, right next to where the passageway opened off the corridor, and
//peeked just the tip of the eyepiece around the corner.
Герміона дістала з глибин мантії тонкий стрижень з дзеркалом наприкінці та з
окуляром. І справді дуже-дуже повільно рейвенкловка підкралася вздовж стіни до того
місця, де прохід відгалужувався від коридору, виставила лише кінчик дзеркала за ріг.

// 12582
//Then a little more.
Потім трохи більше.

// 12583
//Then a little more.
Потім трохи більше.

// 12584
//Then General Granger cautiously stuck her head around the side.
Генерал Ґрейнджер обережно визирнула й роззирнулася.

// 12585
//General Granger turned back to them, nodded, and made the hand gesture for
//__follow me__.
Генерал Ґрейнджер повернулася до них, кивнула, та зробила жест "`за мною`".

// 12586
//Susan felt a little better as she crept forward. The part of the Plan which
//called for them to arrive thirty minutes before the bully had, apparently,
//actually worked. Maybe they were only __slightly __doomed…?
Сьюзен почувалася трохи краще, коли вони кралися вперед. Частина плану -- прибути
за тридцять хвилин до цькувальника -- видається, і справді спрацювала. Можливо,
вони лише __трохи__ приречені?..

***

// 12587
//At ten-twenty-nine, almost on the dot, the bully showed up. If anyone had been
//present to hear - though the corridor was apparently empty - they would have
//heard his shoes clicking solidly through the main corridor, entering the
//passageway, walking toward where the passageway turned its first corner,
//turning that corner, and then stopping in some surprise upon seeing that the
//passageway now terminated in a solid brick wall where no wall had been before.
О десятій двадцять девʼять, майже точно за планом, зʼявився хуліган. Якби хтось
тут був, щоб почути, -- хоча коридор здавався порожнім -- то він почув би, як
його взуття впевнено стукотить головним коридором, потім він заходить до
проходу, йде туди, де прохід робить перший поворот, завертає за нього, а тоді
здивовано зупиняється, коли бачить, що прохід завершується суцільною цегляною
стіною там, де раніше стіни не було.

// 12588
//Then the bully shrugged and turned away, as he leaned back to watch the main
//passage from just around the corner.
Цькувальник знизав плечима й розвернувся -- він сперся на стіну, щоб спостерігати
за головним коридором, лише трохи визираючи з-за рогу.

// 12589
//It __was __the castle Hogwarts, after all.
Зрештою, це був замок __Гоґвортс__.

// 12590
//Behind the hastily Transfigured thin panels they’d assembled into the outward
//appearance of a brick wall, the girls waited; not speaking, not moving, hardly
//even breathing, but watching through the eyeholes they’d left themselves.
За нашвидкуруч трансфігурованими панелями, що були зібрані так, щоб зовні нагадувати
цегляну стіну, дівчата чекали. Не розмовляли, не рухалися, майже не дихали, а
спостерігали крізь шпаринки, які вони собі залишили для цього.

// 12591
//As Susan’s gaze took in the bully, she could feel the tightening of her chest
//all the way into her toes. The boy looked to be in his seventh-year if not
//__older__, and his robes were trimmed in green instead of the red they’d
//been hoping for, and he had __muscles__, and after staring for a bit
//longer, Susan realized his stance had the balance that meant that he
//__dueled__.
Коли Сьюзен добре розгледіла хулігана, вона відчула напруження з голови до
пʼят. Хлопець, видавалося, був у сьомому класі, а то й __старшим__, його
мантію прикрашав зелений, а не червоний, на який вони сподівалися були, і в
нього були __мʼязи__, а ще по деякому часі спостережень Сьюзен збагнула, що
його стійка й баланс свідчили про те, що він брав участь у __дуелях__.

// 12592
//Then they all heard the sound of more feet approaching from the corridor. The
//fourth-year Gryffindors and Slytherins had just been let out of Potions class.
Вони всі почули наближення кроків у головному коридорі. Четвертокласників Ґрифіндору
та Слизерину щойно відпустили з заняття зіллями.

// 12593
//The footsteps pattered past, and diminished and faded, and the bully didn’t do
//anything. For a moment Susan felt an instant of relief -
Гамір проминув повз, притих та зник, а цькувальник нічого не робив.
На мить Сьюзен відчула полегшення...

// 12594
//Then another, smaller group of footsteps approached.
А потім наблизилася інша, менша група кроків.

// 12595
//The bully still didn’t do anything, as the footsteps went past.
Цькувальник нічого не робив, доки ці кроки проминули повз.

// 12596
//That happened a few more times.
Це повторилося кілька разів.

// 12597
//And then, as there approached the faintly audible sound of one last set of
//footsteps, the seven girls heard the bully’s voice saying, clear and cold and
//quiet, “__Protego__”.
А потім, коли почувся ледве чутний звук кроків останньої людини, сім дівчат почули
холодний ясний тихий голос цькувальника: "`__Протеґо__`".

// 12598
//Someone __did __gasp then, though fortunately very very quietly. If they
//couldn’t get in even a single shot -
Хтось __зойкнув__, та на щастя дуже-дуже тихо. Якщо їм не вдасться дістати
його закляттям навіть один раз...

// 12599
//The bullies were learning __already__, Susan realized, she hadn’t expected
//S.P.H.E.W. to be able to do this very often before the bullies caught on - but
//- Hermione had already defeated three bullies - and the school had been buzzing
//with speculation about Salazar Slytherin’s ghost, yesterday -
Тоді Сьюзен збагнула, що цькувальники __вже__ вчилися, вона й не очікувала
була, що С.С.Р.А.Г.Ч. зможе довго заскакувати цькувальників зненацька... але...
Герміона вже перемогла була трьох хуліганів... і вчора вся школа теревенила про
привид Салазара Слизерина...

// 12600
//__He’s expecting us!__
__Він чекав на нас!__

// 12601
//Susan would have whispered to give up, to abort the plan, only there was no way
//to convey a message to -
Сьюзен прошепотіла б, що треба здаватися, скасовувати план, тільки от не було
жодного методу передати повідомлення таким чином, щоб...

// 12602
//“__Silencio__,” said the bully in a soft, deliberate voice with his wand
//pointed toward the corridor, the blue haze of his Shielding Charm shimmering
//around him. “__Accio__ victim.”
-- __Сіленціо__ -- спокійно й гучно сказав цькувальник, направивши паличку до
головного коридору; синя імла захисних чарів мерехтіла навколо нього. --
__Акціо__ жертва.

// 12603
//When the fourth-year boy came into their field of vision he was dangling upside
//down as if an invisible hand were holding him high by one leg, his red-trimmed
//robes beginning to slide down his thighs to reveal the pants beneath. His mouth
//was opening and closing helpessly, no sound coming out.
Невдовзі в їхньому полі зору зʼявився четвертокласник, що висів догори дриґом, ніби
невидима рука високо тримала його за одну ногу. Його мантія з червоним оздобленням
почала сповзати, показавши штани. Його рот безпорадно відкривався й закривався, та
жодного звуку не виникало.

// 12604
//“I suppose you’re wondering what’s going on,” the seventh-year Slytherin said
//in a quiet, cold voice. “Don’t worry. It’s so simple even a Gryffindor could
//understand.”
-- Гадаю, тобі цікаво, що коїться, -- тихо й холодно сказав
семикласник-слизеринець. -- Не хвилюйся, усе так просто, що навіть
ґрифіндорець зрозуміє.

// 12605
//With that, the Slytherin’s left hand formed a fist and drove hard into the
//Gryffindor’s belly. The fourth-year boy’s body jerked around frantically, but
//still no words left his mouth.
Після цього слизеринець склав руку в кулак та сильно вдарив ґрифіндорця в
живіт. Четвертокласник несамовито засмикався, та від нього досі не було
чути жодного слова.

// 12606
//“You’re my victim,” said the older Slytherin. “I’m a bully. I’m going to beat
//you up. And we’ll see if anyone stops me.”
-- Ти моя жертва, -- сказав старший слизеринець. -- Я цькувальник. Я тебе
битиму. І подивимося, чи хтось мене зупинить.

// 12607
//It was at that moment that Susan realized it was a trap.
Тоді Сьюзен зрозуміла, що це пастка.

// 12608
//And in almost the same moment, there rang out the mighty and high-pitched voice
//of a young girl, crying, “__Stop, evildoer! Finite Incantatem!__”
І майже тієї ж самої миті пролунав могутній високий голос молодої дівчини, що
крикнула:

-- __Зупинися, лиходію! Фініте Інкантатем!__

// 12609
//__Lavender__, thought Susan, agonized. The Gryffindor girl had volunteered
//to be a distraction, while the rest of them executed a flank attack from where
//the bully wouldn’t expect it, that had been the plan, only now -
__Лаванда__, розпачливо подумала Сьюзен. Ґрифіндорка зголосилася була
відволікати увагу, доки решта атакуватиме з флангів -- звідки хуліган не
очікуватиме. Таким був план, тільки от тепер...

// 12610
//“In the name of Hogwarts,” cried Lavender’s voice, though they couldn’t see
//her, “and in the name of heroines everywhere, I command you to let go of that
//EEK!”
-- Іменем Гоґвортсу, -- кричала Лаванда, хоча вони не могли її бачити, -- та
іменем усіх героїнь цього світу, наказую тобі відпустити цього... ЯАААЙ!

// 12611
//“__Expelliarmus__,” said the bully. “__Stupefy__. __Accio
//__stupid heroine.”
-- __Експеліармус__, -- сказав цькувальник. -- __Закляктус__. __Акціо__ дурна
героїня.

// 12612
//When Lavender floated into their vision, dangling by one foot and unconscious,
//Susan blinked; the girl was dressed in a bright crimson-and-gold skirt and
//blouse, instead of her usual Hogwarts robes.
Коли Лаванда влетіла в їхнє поле зору -- також ніби її тримали за одну ногу, і
непритомна -- Сьюзен кліпнула: на дівчині були багряно-червона з золотим
спідниця та блузка, а не її звичайна шкільна мантія.

// 12613
//The bully was also giving the girl’s upside-down body an odd look, and then he
//pointed his wand at her and said “__Finite Incantatem__,” but the clothes
//stayed the same.
Хуліган теж з подивом розглядав перевернуту догори дриґом дівчину, тоді вказав
на неї паличкою та сказав "`__Фініте Інкантатем__,`" але одяг не змінився.

// 12614
//Then the bully shrugged, and, still facing in the direction of Lavender instead
//of the dangling fourth-year boy, drew back his fist -
Тоді цькувальник знизав плечима, він дивився на Лаванду, а не на четвертокласника,
що так і залишився висіти, заніс кулак...

// 12615
//“__Lagann!__” yelled five voices, and five green spirals blasted from five
//wands aimed through five holes in the false wall, and an instant later
//Hermione’s voice shouted ”__Stupefy!__”
-- __Лаґанн!__ -- закричали пʼять голосів, і вилетіли пʼять зелених спіралей з
пʼяти паличок, що були націлені крізь отвори в несправжній стіні.

-- __Закляктус!__ -- за мить почувся крик Герміони.

// 12616
//Five green spirals shattered ineffectually on blue haze, and Hermione’s red
//bolt bounced off the haze and struck the fourth-year boy, who jerked and then
//was still.
Пʼять зелених спіралей без жодного ефекту розбилися на друзки об синє мерехтіння,
а червона блискавка віддзеркалилася від щита та влучила в четвертокласника, що
смикнувся й затихнув.

// 12617
//And the seventh-year bully turned around, smiling grimly, as the first-year
//girls screamed and charged.
Тоді цькувальник-семикласник розвернувся, на його лиці була жорстока посмішка,
а першокласниці з криками кинулися в атаку.

***

// 12618
//Susan’s eyes flew open and instantly she was rolling away from where she’d lain
//on the floor, her lungs still on fire and her whole body still aching from when
//she’d been hit, the battle had only moved forward a few seconds from what she
//could see, Hannah’s body falling with her arm still stretched out toward Susan,
//“__Glisseo!__” shouted Hermione but the older boy just slashed his wand
//down leaving a trail of green glow behind and Hermione’s Charm visibly
//disrupted into a shower of blue-white sparks, then in almost the same motion
//the bully said ”__Stupefy!__” and Hermione was blown backward and Susan
//summoned up all the magic she had left and shouted ”__Innervate!__” at
//Hermione’s body even as the bully turned toward her, the bully’s wand pointed
//in her direction again and then Padma yelled ”__Prismatis!__” just before
//the bully shouted ”__Impedimenta!__”, the rainbow sphere forming
//__around the bully __and the seventh-year Slytherin staggered as his own
//hex was reflected back at him, but an instant later the bully’s wand swept back
//to tap himself and then Padma’s Prismatic Sphere shattered like a blown soap
//bubble as the bully’s wand cut through it and ”__Innervate!__” yelled
//Parvati at Hannah’s body and Tracey and Lavender screamed at the same time,
//”__Wingardium Leviosa!__” -
Сьюзен розплющила очі й тієї ж миті відкотилася вбік з того місця, де вона лежала
на підлозі. Її легені досі ніби палали, усе її тіло боліло від закляття, що в неї
влучило. Видавалося, битва просунулася лише на кілька секунд. Непритомна Анна почала
падати, її рука досі була направлена на Сьюзен. Герміона крикнула "`__Ґліссео__!`"
Та старшокласник лише рубанув паличкою, залишивши якесь зелене сяйво, і чари
Герміони розпалися на потік синьо-білих іскор; не зупиняючи руху палички,
хуліган сказав "`__Закляктус!__`", і Герміону відштовхнуло назад. Сьюзен зібрала
всі рештки своєї магії та крикнула "`__Інервація!__`" в напрямку тіла Герміони,
а цькувальник вже розвертався до неї, знову направив на неї паличку. Падма крикнула
"`__Призматіс!__`" за мить до того, як цькувальник вигукнув "`__Імпедімента!__`",
веселкова сфера утворилася __навколо хулігана__, і семикласник похитнувся від
власного віддзеркаленого прокльону. Та вже за мить паличка цькувальника
торкнулася його самого, а тоді призматична сфера Падми лопнула, мов мильна бульбашка,
коли паличка хулігана розрізала її. Парваті крикнула "`__Інервація!__`" на тіло
Анни. Трейсі й Лаванда одночасно крикнули "`__Вінґардіум Левіоза!__`"...

***

// 12619
//Hannah Abbott held out her wand with a hand that trembled with exhaustion, she
//didn’t have enough magic left for even one __Innervate__, now.
Анна випростала перед собою руку з паличкою. Рука тремтіла від втоми,
і в Анни вже не залишилося магії бодай на одну інервацію.

// 12620
//The rest of the passageway was silent, scattered bodies lying across the
//ground, Padma and Tracey and Lavender, Hermione and Parvati in a heap against
//one wall, Susan standing in petrified rigor as her eyes tracked it all
//helplessly, even the Gryffindor boy lying sprawled and motionless (Hermione had
//woken him and he’d fought, but it hadn’t been enough).
З решти коридорчика не було чути ані звуку, підлога була всіяна тілами: Падма, Трейсі,
Лаванда, Герміона та Парваті лежали купою біля однієї стіни, Сьюзен була паралізована
й безпорадно за всім спостерігала, навіть ґрифіндорець був розпластаний та нерухомий
(Герміона будила його, і він боровся, та цього було недостатньо).

// 12621
//It had been a very short battle.
Це була дуже коротка битва.

// 12622
//The bully was still smiling, the only signs of his exertion a wavering ripple
//in the blue glow surrounding him, and a few beads of sweat on his forehead.
Цькувальник досі посміхався. Єдиними ознаками його напруження були брижі на
синьому сяйві навколо нього та кілька краплин поту на чолі.

// 12623
//The bully raised his arm, wiped the sweat off his forehead, and stalked toward
//her like a man-shaped living Lethifold.
Цькувальник підвів руку, витер піт з чола і попрямував до неї, ніби смертефалд
у подобі чоловіка.

// 12624
//Hannah turned and fled, spun and ran with screams kept bound in her choking
//throat, sprinted past the fallen paneling of the fake brick wall, ran down the
//passageway with all the speed she could muster, weaving as much as she could -
Анна розвернулася й втекла -- крутнулася на місці й побігла з криками, що так і
не полишали її горла через утруднене дихання, понеслася до решток панелей
несправжньої цегляної стіни, чимдуж побігла проходом, якомога більше
петляючи...

// 12625
//Just before Hannah got to the turn in the passageway, the bully’s voice from
//behind her said “__Cluthe!__” and she got awful cramps all through her
//legs, she fell down and slid and hit her head against the wall, only she didn’t
//even notice the pain of the smack as she started to scream with the twisting
//muscles -
// hedrok: Cluthe - усе, що знайшов, https://en.wikipedia.org/wiki/Sarkoy
// перекладаю за звучанням.
Вона вже майже завернула за ріг, коли з-за спини почувся голос цькувальника:
"`__Клате!__`", і жахливі судоми звели її ноги, вона впала, покотилася, вдарилася
головою об стіну, та навіть не помітила болю від зіткнення, а почала кричати
через корчі в мʼязах...

// 12626
//The bully was still stalking toward her, Hannah saw as she turned her head;
//approaching her slowly, still wearing that dreadful smile.
Цькувальник усе крокував до неї, як побачила Анна, повернувши голову. Він
повільно наближався, страхітлива посмішка не сходила з його обличчя.

// 12627
//And she rolled, despite the pain as her leg muscles knotted up around
//themselves, she rolled around the corner of the passageway, and screamed, “Go
//__away!__”
Попри біль у ногах, вона перекотилася за ріг та закричала:

-- __Забирайся геть!__

// 12628
//“I think not,” said the bully, his voice deep and scary like that of a grown
//man, sounding very close at hand now.
-- Це навряд, -- сказав хуліган. Його голос був глибоким та страшним, звучав зовсім
по-дорослому, і був десь поряд.

// 12629
//The bully walked around the corner and Daphne Greengrass stabbed her Most
//Ancient Blade directly into his groin.
Цькувальник повернув за ріг, і Дафна Ґрінґрас рубанула найдавнішим лезом прямо
йому в пах.

// 12630
//There was a flash that lit up the whole corridor -
Спалах освітив увесь коридор...

***

// 12631
//It was with a subdued mien that seven girls left Madam Pomfrey’s office,
//leaving one of their own behind in a hospital bed.
Коли сім дівчат покинули офіс мадам Помфрі, панувала пригнічена атмосфера
-- вони залишили одну зі своїх лав у лікарняному ліжку.

// 12632
//Hannah would be all right in about thirty-five minutes, the healer had said;
//torn muscles were easy to mend.
Як сказала цілителька, з Анною все буде гаразд за тридцять пʼять хвилин --
розірвані мʼязи зцілювати легко.

// 12633
//Daphne had done all the talking, and according to her, Hannah had suffered a
//mishap with a Road-Running Charm which had caused the leg cramps. Madam Pomfrey
//had given them a sharp look but hadn’t argued, even though that Charm was
//around six years above their level.
Усі перемовини взяла на себе Дафна. Згідно з її версією, Анну спіткав нещасний
випадок з чарами бігу, що ви{stress}кликали в неї судоми. Мадам Помфрі суворо на них
подивилася, та не сперечалася, хоча ці чари перевершували їхній поточний рівень
на шість років.

// 12634
//Madam Pomfrey had also given Daphne a potion to help with her state of total
//magical exhaustion, and warned her not to cast any spells for the next three
//hours. That, supposedly, was from Daphne using up too much magic trying to
//__Finite __Hannah, rather than the Most Ancient Blade drawing out all of
//her power to break the __Protego__.
Мадам Помфрі також дала Дафні зілля від повного виснаження її
магії, та сказала не застосовувати жодних заклять протягом трьох годин.
Причиною виснаження нібито було надто старанне використання магії в спробі
застосувати "`__Фініте__`" на Анні, а не те, що найдавніше лезо спустошило всі
її сили, щоб пробити "`__Протеґо__`".

// 12635
//The rest of them had decided not to say anything about the bruises under their
//robes until they could get some older girls to cast __Episkey__. There
//were limits to what Daphne could talk around.
Інші вирішили нічого не казати про свої синці під мантіями, бо старші дівчата
можуть з ними зарадити за допомогою "`__Епіскі__`". Винахідливість Дафни
мала свої межі.

// 12636
//The whole thing, Susan thought, had been too close, much too close. If the
//bully had so much as looked around the corner - if he’d taken a moment to
//recast his Shielding Charm -
На думку Сьюзен вони були на волосину від поразки. Якби хуліган просто зазирнув
за ріг... якби він знову застосував чари щита...

// 12637
//“We should stop,” said Susan, as soon as the seven of them had gotten out of
//hearing range of the healer’s office. “We should stop doing this.”
-- Нам треба зупинитися, -- сказала Сьюзен, щойно вони відійшли на достатню
відстань від кабінету цілительки. -- Ми маємо припинити це робити.

// 12638
//For some reason, then, even though they were supposed to vote on this sort of
//thing, everyone turned to look at General Granger.
Тоді чомусь, хоча в таких випадках вони мали голосувати, усі поглянули на Герміону
Ґрейнджер.

// 12639
//The Sunshine General didn’t seem to see them looking at her, she just strode
//on, gazing off straight ahead.
Генерал Сонечка, видається, не помічала, що всі на неї дивляться, і просто
крокувала далі, дивлячись лише вперед.

// 12640
//After a little while, Hermione Granger said, in a voice that sounded thoughtful
//and a little sad, “Hannah said __she __didn’t want us to stop. I’m not
//sure it’s right for us to… be less brave __for __her, than she is.”
По якомусь часі дещо сумно й замріяно Герміона Ґрейнджер сказала:

-- Анна стверджувала, що __вона__ не хоче зупинятися. Не впевнена,
що з нашого боку правильно... бути менш сміливими __заради__ неї, ніж
вона сама.

// 12641
//All the other girls, except Susan, nodded at that.
Інші дівчата, за винятком Сьюзен, кивнули.

// 12642
//“I think that’s got to be as bad as it gets,” said Parvati. “And we can handle
//it. We’ve proved that now.”
-- Гадаю, гірше вже не буде, -- сказала Парваті. -- І ми з цим впораємося.
Ми це вже довели.

// 12643
//Susan couldn’t think of anything to say to that. She didn’t think that
//shrieking at the top of her lungs about blatant stupidity and DOOM would be
//persuasive. And she couldn’t just __leave __the other girls, either.
//Wasn’t it enough to be cursed with hard work, why did Hufflepuffs have to be
//__loyal __on top of everything else?
Сьюзен не знала, що на це відповісти. Вона сумнівалася, що як вона заверещить
якомога гучніше про кричущу дурість та ПРИРЕЧЕНІСТЬ, це когось переконає.
І просто __облишити__ решту дівчат вона теж не могла. Хіба не достатньо, що
гафелпафці прокляті старанною працею, чому вони ще й на додачу мають бути
__вірними__?

// 12644
//“By the way, Lavender,” said Padma. “What in the name of Merlin’s underpants
//were you __wearing __back there?”
-- До речі, Лавандо, -- сказала Падма. -- Що, заради Мерліна, на тобі були за
майтки?

// 12645
//“My hero outfit,” said the Gryffindor girl.
-- Моє геройське вбрання, -- сказала ґрифіндорка.

// 12646
//Daphne sounded weary, as she spoke without turning her own head from where she
//was plodding through the hall. “It’s the costume of the Soldier of Gryffindor
//from the play __Chronicles of the Lunarian Soldiers__.”
Дафна, не відводячи погляду від свого курсу крізь залу, сказала стомленим голосом:

-- Це костюм солдатів Ґрифіндору з пʼєси "`Хроніки лураніанських солдатів`".

// 12647
//“Did you Transfigure it?” said Parvati, looking puzzled. “But the bully cast
//__Finite __on you -”
-- Ти трансфігурувала його? -- спантеличено спитала Парваті. -- Але ж цькувальник
застосував "`__Фініте__`"...

// 12648
//“Nope!” Lavender said. “It’s __real!__ See, I just Transfigured my hero
//outfit into a regular shirt and skirt __beforehand__, so all I had to do
//was cast __Finite __on myself after I saw the bully. Do you want your own,
//Parvati? I got mine made yesterday by Katarina and Joshua in sixth-year, for
//twelve Sickles -”
-- Ні! -- самовдоволено сказала Лаванда, -- Одяг __справжній__! Я просто
трансфігурувала своє геройське вбрання у звичайну сорочку та спідницю
__заздалегідь__, щоб мені достатньо було використати "`__Фініте__`" на собі,
щойно я побачила хулігана. Хочеш такий одяг, Парваті? Мій зшила Катаріна та
Джошуа з шостого року за дванадцять серпиків...

// 12649
//“I think,” General Granger said in a careful voice, “that would make us all
//look a little silly.”
-- Гадаю, -- обережно почала генерал Ґрейнджер, -- ми всі тоді матимемо трохи
дурний вигляд.

// 12650
//“Well,” said Lavender, “we should vote on whether to -”
-- Ну, -- сказала Лаванда, -- ми маємо з цього приводу проголосувати...

// 12651
//“I think,” General Granger said, “that no matter what __anyone __votes,
//I’m not going to be caught __dead __wearing one of those costumes -”
-- Гадаю, -- сказала генерал Ґрейнджер, -- хай там як __будь-хто__ проголосує,
мене не знайдуть __мертвою__ в такому костюмі...

// 12652
//Susan ignored the argument. She was trying to think up some sort of clever
//strategy for being less doomed.
Сьюзен не зважала на суперечку. Вона намагалася вигадати якийсь хитрий метод
зменшити їхню приреченість.

***

// 12653
//The whole Great Hall went silent, even if only for a moment, as the seven of
//them walked into lunch.
У всій Великій Залі запала тиша, хай і ненадовго, коли семеро дівчат зайшли
на обід.

// 12654
//Then the applause started.
Тоді залунали оплески.

// 12655
//It was scattered, not the massive applause of everyone applauding at once. A
//lot of it came from the Gryffindor table, less from Hufflepuff and Ravenclaw,
//and none from Slytherin.
Оплески були розпорошені -- не овації від усіх людей одразу. Багато чулося
від Ґрифіндору, менше від Гафелпафу та Рейвенклову. І жодних від Слизерину.

// 12656
//Daphne felt her face tightening. She’d __hoped __- well, maybe after they
//found a Gryffindor bully to stop and a Slytherin to rescue, her fellow
//Slytherins would realize -
Лице Дафни напружилося. Вона __сподівалася була__... ну, може коли вони
зупинять цькувальника-ґрифіндорця та врятують слизеринця, її товариші зі
Слизерину зрозуміють...

// 12657
//She looked at the Hufflepuff table.
Вона поглянула в бік гафелпафського стола.

// 12658
//Neville Longbottom was applauding with his hands held high above his head,
//although he wasn’t smiling. Maybe he’d heard about Hannah, or maybe he was
//wondering why Hannah wasn’t there.
Невіл Лонґботом аплодував високо піднятими над головою руками, хоча він не
всміхався. Можливо, він чув про Анну, а може просто непокоївся, де вона.

// 12659
//Then, not quite able to help herself, she glanced toward the Head Table.
Тоді, не в змозі стриматися, вона поглянула на головний стіл.

// 12660
//Professor Sprout’s face was lined with concern. She and Professor McGonagall
//were leaning their heads toward Headmaster Dumbledore, who had a solemn look,
//and all their lips were moving quickly. Professor Flitwick looked more resigned
//than anything else, and Quirrell, face slack, was taking trembling stabs at his
//soup using a spoon gripped in a fist.
Обличчя професорки Спраут сповнювала тривога. Вони з професоркою Макґонеґел схилилися
до директора Дамблдора, що був похмурим, і їхні губи швидко рухалися. Професор Флитвік,
видається, був переважно пригніченим. А професор Квірел з неконтрольованим обличчям
штрикав суп затиснутою в кулаці ложкою.

// 12661
//Professor Snape was looking directly at -
Професор Снейп дивився прямо на...

// 12662
//__Her?__
__Неї?__

// 12663
//Or - at Hermione Granger, standing next to her?
Чи... на Герміону Ґрейнджер, що стояла поряд з нею?

// 12664
//A small, thin smile crossed the Potions Master’s face, and he raised his hands,
//brought them together once in a motion that was too slow to be a real clap; and
//then the Potions Master turned back to his plate, ignoring the conversations
//around him.
Ледь помітна тонка усмішка промайнула на обличчі майстра зіллєваріння, він підняв руки,
склав їх разом у надто повільному русі, щоб це можна було назвати справжнім сплеском.
Тоді він повернувся до своєї тарілки та не зважав більше на розмови навколо.

// 12665
//Daphne felt a little chill go down her spine, and she hastily turned to walk
//toward the Slytherin table. Susan and Lavender and Parvati peeled off from
//their group, heading toward the Hufflepuff and Gryffindor tables on the other
//side of the Great Hall.
Дафна відчула, як мурахи пробігли їй по спині, і вона поспіхом рушила до
слизеринського стола. Сьюзен, Лаванда та Парваті відділилися від їхньої групи,
щоб піти до гафелпавського та ґрифіндорського столів з іншого боку Великої Зали.

// 12666
//It happened as they were passing the part of the Slytherin table where the
//Slytherin Quidditch team sat.
Це сталося, коли вони проходили повз слизеринську квідичну команду за
слизеринським столом.

// 12667
//That was when Hermione stumbled suddenly, stumbled __hard __like she was
//being yanked off her feet, and went sprawling into the gap between where Marcus
//Flint and Lucian Bole sat, and there was a sad little splutching sound as
//Hermione’s face ended up in Flint’s plate of steak and mashed potatoes.
Тоді Герміона раптом перечепилася, __сильно__ перечепилася -- ніби її хтось
підняв, і незграбно впала між Маркусом Флінтом та Луціаном Боулом, і
жалюгідно хлюпнулася обличчям у тарілку Флінта зі стейком та мʼячкою.

// 12668
//Everything seemed to happen too quickly then, or maybe it was just Daphne
//herself who was thinking too slow, as Flint let out a bellow of indignation and
//his hand yanked Hermione back and threw her into the Ravenclaw table, and she
//bounced off a student’s back and collapsed onto the ground -
Усе сталося надто швидко, або це Дафна просто надто повільно все сприймала.
Флінт обурено рикнув, схопив її рукою та кинув у рейвенкловський стіл. Вона
відштовхнулася від спини якогось учня та впала на підлогу...

// 12669
//The quiet spread out in ripples.
Залою хвилями поширилася тиша.

// 12670
//Hermione pushed herself up on her hands, though she didn’t get all the way to
//her feet, Daphne could see that her whole body was shaking, and that her face
//was still covered with mashed potatoes with scattered pieces of steak.
Герміона підвелася на руки, але не встала. Дафна бачила, що все тіло Герміони
тремтить, а її обличчя досі вкрито мʼячкою та деінде шматочками стейка.

// 12671
//For a long moment, nobody spoke, nobody moved. Like nobody in the whole Great
//Hall could imagine, any more than Daphne could, what happened next.
Довгий час ніхто нічого не казав, ніхто не рухався. Ніби ніхто в усій Великій
Залі не міг уявити, як не могла й Дафна, що станеться далі.

// 12672
//Then Flint’s powerful voice, the voice of the Slytherin Captain that bellowed
//commands on the Quidditch pitch, said in a dangerous rumble, “You ruined my
//food, girl.”
Тоді сильний голос Флінта -- голос слизеринського капітана, що викрикував команди
на квідичному полі, загрозливо прогуркотів:

-- Ти зіпсувала мою їжу, дівчино.

// 12673
//Another moment of frozen silence. Hermione’s head - Daphne could see it
//trembling - turned to look at the Slytherin Quidditch Captain.
І знову заклякла тиша. Голова Герміони -- як Дафна бачила, вона тремтіла, --
озирнулася на капітана слизеринської команди з квідичу.

// 12674
//“Apologize to me,” said Flint.
-- Вибачся переді мною, -- сказав Флінт.

// 12675
//Harry Potter started to push himself up from the Ravenclaw table, and then
//stopped abruptly, halfway to his feet, as if he’d just thought of something -
Гаррі Поттер почав підводитися з-за рейвенкловського столу, та раптом
зупинився на півдорозі, ніби щось спало йому на думку.

// 12676
//Then five other people stood up from the Ravenclaw table.
Тоді з-за рейвенкловського стола підвелися пʼятеро людей.

// 12677
//All of the Slytherin Quidditch team stood up, their wands coming into their
//hands, and then students stood up at the Gryffindor table and at the Hufflepuff
//table and without thinking Daphne turned to look at the Head Table and she saw
//that the Headmaster was still sitting down, watching, just watching, Dumbledore
//was __just watching __and he had one hand out as though to restrain
//Professor McGonagall - in just one second someone would shout a spell and then
//it would be too late, __why wasn’t the Headmaster doing anything __-
Уся слизеринська команда з квідичу встала з паличками напоготові. Тоді за
ґрифіндорським та гафелпафським столами підвелися учні. Дафна бездумно
поглянула на головний стіл, та директор досі сидів і спостерігав, просто
спостерігав, Дамблдор __просто спостерігав__, і однією рукою він ніби зупиняв
професорку Макґонеґел... за секунду хтось вигукне закляття, і буде запізно,
__чому директор нічого не робить__...

// 12678
//And a voice said, “My apologies.”
А тоді пролунав голос:

-- Перепрошую.

// 12679
//Daphne turned back to look, her mouth gaping open in absolute shock.
Дафна озирнулася на звук, її рот розкрився через неймовірний шок.

// 12680
//“__Scourgify__,” said that smooth voice, and the mashed potatoes vanished
//from Hermione’s face, revealing the Ravenclaw’s surprised expression as Draco
//Malfoy approached her, sheathed his wand again, and then knelt to one knee
//beside her and offered her a hand.
-- __Брудозникс__, -- сказав приємний голос, і мʼячка зникла з обличчя Герміони,
показавши здивований вираз лиця рейвенкловки, коли Драко Мелфой наблизився до
неї, сховав паличку, опустився на одне коліно поряд з нею та подав їй руку.

// 12681
//“Sorry about that, Miss Granger,” said Draco Malfoy’s polite voice. “I guess
//someone thought they were being funny.”
-- Вибачте за це, міс Ґрейнджер, -- ввічливо сказав Драко Мелфой. -- Гадаю, комусь
це здалося веселим.

// 12682
//Hermione took Draco’s hand, and Daphne suddenly realized what was about to
//happen -
Герміона взялася за руку Драко, і раптом Дафна зрозуміла, що зараз станеться...

// 12683
//But Draco Malfoy __didn’t __raise Hermione halfway up and then drop her.
Але ні, Драко Мелфой __не__ підняв Герміону трохи й не кинув її напівдорозі.

// 12684
//He just pulled her to her feet.
Він просто допоміг їй підвестися.

// 12685
//“Thanks,” said Hermione.
-- Дякую, -- сказала Герміона.

// 12686
//“You’re welcome,” Draco Malfoy said in a loud voice, not looking to either side
//to see where all four Houses of Hogwarts were staring at him in total shock.
//“Just remember, being cunning and ambitious doesn’t mean you have to be like
//that.”
-- Про{stress}шу, -- гучно сказав Драко Мелфой, не озираючись по сторонах, де
він міг би побачити, що всі чотири гуртожитки Гоґвортсу витріщаються
на нього в цілковитій невірі. -- Просто памʼятайте, що хитрість та амбіційність
ще не означають, що ти мусиш бути ось таким.

// 12687
//And then Draco Malfoy went back to his seat at the Slytherin bench and sat down
//like he hadn’t - he hadn’t just - __he’d just __-
І Драко Мелфой повернувся на своє місце на лавці Слизерину, і сів там, ніби
він щойно не... щойно не... __щойно не__...

// 12688
//Hermione went to the nearest empty place at the Ravenclaw bench and sat down.
Герміона підійшла до найближчого порожнього місця за рейвенкловським столом та
сіла.

// 12689
//A number of other people, rather slowly, sat down.
Ще чимало людей доволі повільно сіло назад.

// 12690
//“Daphne?” said Tracey. “Are you all right?”
-- Дафно? -- запитала Трейсі. -- З тобою все гаразд?

***

// 12691
//Draco’s heart was hammering in his chest so hard he worried it might explode
//right out of his chest in a shower of blood, like that curse Amycus Carrow had
//used once on a puppy.
Серце Драко стукотіло в грудях так сильно, що він почав непокоїтися, чи не
вибухне воно водограєм крові так само, як від прокляття, яке Амікус Керроу
застосував був якось на цуценяті.

// 12692
//Draco’s face stayed completely controlled, because he knew (it’d been drilled
//into him over and over) that if he showed the slightest sign of the fear he was
//feeling, his Housemates would rip him apart like a swarm of Acromantulas.
Лице Драко було цілковито незворушним, бо він знав (це йому втовкмачували знов
і знов), що варто йому виявити найменші ознаки свого справжнього страху, і
учні з його гуртожитку роздеруть його, мов колонія акромантул.

// 12693
//There’d been no time to check with Harry Potter, no time to plot, no time to
//think, just the instant of realizing that the time to start rescuing
//Slytherin’s reputation was __right then__.
Не було часу радитися з Гаррі Поттером, не було часу планувати, не було
часу поміркувати, була лише мить усвідомлення, що треба рятувати репутацію
Слизерину __негайно__.

// 12694
//From all sides of the long Slytherin table, angry faces stared at Draco.
Звідусіль за довгим столом Слизерину на Драко витріщалися злобні обличчя.

// 12695
//But they were outnumbered by the faces that just looked puzzled.
Та значно більше було просто спантеличених облич.

// 12696
//“All right, I give up,” said a sixth-year boy that Draco didn’t recognize,
//sitting across from him and two places to his right. “Why did you do that,
//Malfoy?”
-- Гаразд, я здаюся, -- сказав якийсь шестикласник, якого Драко не впізнавав,
що сидів навпроти й на два місця праворуч. -- Нащо ти це зробив, Мелфою?

// 12697
//Although his mouth was very dry, Draco didn’t swallow. That would have been a
//sign of fear. Instead he took a bite of carrots, which had the most moisture of
//anything on his plate, and chewed and swallowed, thinking as rapidly as he
//could.
Хоч у нього в роті пересохло, Драко не ковтнув. Це було б ознакою страху.
Натомість він відкусив шматочок моркви, що містила найбільше вологи серед
усього, що було на його тарілці, прожував, ковтнув, і обмірковував ситуацію
дуже швидко.

// 12698
//“You know,” Draco said, making his voice as cutting as he could - as his heart
//thumped even harder in his chest, as everyone around him stopped talking to
//listen - “there’s __probably __some way to make Slytherin look even
//__worse __than attacking eight first-year girls from all four Houses who
//are working together to stop bullies, but I can’t think of __how__. This
//way we get the benefit of what Greengrass is doing.”
-- Знаєш, -- сказав Драко якомога жорсткішим тоном, хоча серце загупало ще
гучніше, коли всі навколо замовкли, щоб послухати, -- __можливо__ у Слизерину
й існує якийсь спосіб справити __гірше__ враження, ніж напасти на вісім дівчат
з першого класу з усіх чотирьох гуртожитків, що працюють разом, щоб зупинити
хуліганів, та я щось його __не можу вигадати__. Таким чином ми отримуємо
переваги від того, що робить Ґрінґрас.

// 12699
//The puzzled faces stayed puzzled.
Здивування не полишило здивовані обличчя.

// 12700
//“What?” said the sixth-year boy, and “Wait, __what __benefit?” said a
//fifth-year girl sitting to his right.
-- Що? -- сказав шестикласник.

-- Зажди, __які__ переваги? -- запитала пʼятикласниця, що сиділа праворуч від
нього.

// 12701
//“It makes Slytherin House look better,” said Draco.
-- Через неї Слизерин справляє ліпше враження, -- відповів Драко.

// 12702
//The Slytherins around him were giving him quizzical gazes like he’d just tried
//to explain algebra.
Слизеринці навколо нього здивовано перезиралися, ніби він намагався розʼяснити
їм алгебру.

// 12703
//“Look better to __who?__” said the sixth-year boy.
-- Справляє ліпше враження __на кого__? -- запитав шестикласник.

// 12704
//“But you just helped a __mudblood__,” said the fifth-year girl. “How’s
//__that s__upposed to look good?”
-- Але ж ти щойно допоміг __бруднокровці__, -- сказала пʼятикласниця. -- Яким
чином __це__ може справляти хороше враження?

// 12705
//Draco’s throat closed up. His brain was experiencing a hideous malfunction
//during which it couldn’t think of anything to say except the truth -
У Драко стислося горло. Його мозок тимчасово затьмарився, через що він не
міг вигадати нічого, крім як сказати правду...

// 12706
//Then, “It’s probably some kind of tremendously clever scheme Malfoy’s got
//going,” said a fifth-year boy. “You know, like in __The Tragedy of
//Light__, where everything that looks like a setback is part of the plot. And it
//ends with Granger’s head on a stick and nobody suspecting that it was him.”
А тоді:

-- Та це напевно який надзвичайно хитрий план Мелфоя, -- сказав якийсь
пʼятикласник. -- Ну знаєте, як у "`Трагедії Лайта`", коли все, що здається
поразкою, насправді частина плану. І все завершується тим, що голова Ґрейнджер
на палі, і ніхто не підозрює, що це він.

// 12707
//“__That __makes sense,” someone said from further down the table, and
//there was a lot of nodding.
-- __У це__ легко повірити, -- сказав хтось далі за столом, і багато
хто кивнув.

***

// 12708
//“Do __you __know what the boss’s up to?” Vincent muttered in an undertone.
-- А __ти__ знаєш, що замислив бос? -- тихо пробурмотів Вінсент.

// 12709
//Gregory Goyle didn’t reply. In his mind he could hear very clearly his master’s
//voice, saying,__ I can’t believe I believed every word of that__, the day
//the rumor had started about Salazar Slytherin showing Potter and Granger where
//to find bullies.
// hedrok: слова Драко з 071:12455
Ґреґорі Ґойл не відповів. У розумі він ясно чув слова свого господаря: "`не
можу повірити, що я повірив кожному її слову`", -- коли поширилися чутки про те,
що Салазар Слизерин вказує Поттерові й Ґрейнджер, де знайти цькувальників.

// 12710
//“Mr. Goyle?” whispered Vincent.
-- Містере Ґойл? -- прошепотів Вінсент.

// 12711
//Gregory Goyle’s lips shaped the words, __Oh no, __but no sound came out.
Самими губами Ґреґорі Ґойл вимовив: "`о, ні`", -- та він не видав жодного звуку.

***

// 12712
//Hermione had left lunch early that day, for some reason she hadn’t felt hungry.
//Those few seconds of horrible humiliation had kept burning through her mind,
//over and over, the feeling of her face squishing into the mashed potatoes and
//then being thrown through the air and then the Slytherin’s boy’s voice saying
//‘Apologize to me’… it might have been the first time in her whole life that
//she’d felt like __hating __someone. The boy who’d thrown her (Marcus
//Flint, they’d said his name was) and whoever had cast the tripping Jinx on her
//in the first place… she’d felt it, for one horrible instant she’d wanted to go
//tell Harry that if he started getting __creative __on her behalf, she
//wouldn’t object.
Герміона рано пішла з обіду того дня -- чомусь вона не була голодна. Ці кілька секунд
жахливої ганьби знов і знов обпікали її розум: відчуття того, як її обличчя
впало у мʼячку, як її підкинули в повітря, як голос слизеринця промовив "`вибачся переді мною`"...
Напевно, вперше в житті вона справді відчувала __ненависть__ до когось. Хлопець, що
кинув її (їй сказали, що його звали Маркус Флінт), і хай там хто застосував
прокльон спотикання... вона відчула це -- одну жахливу мить вона хотіла піти до
Гаррі й сказати, що вона не заперечуватиме, якщо він від її імені використає свою
__винахідливість__.

// 12713
//She hadn’t been a minute out of the Great Hall before she’d heard the sound of
//running feet behind, and turned to see Daphne racing toward her.
І хвилини не проминуло після її виходу з Великої зали, як вона почула, що
за нею хтось біжить. Озирнувшись, вона побачила, що Дафна наздоганяє її.

// 12714
//And listened to what her Sunshine Soldier had to say…
Вона вислухала все, що хотіла розказати їй солдат Сонечка...

// 12715
//“Don’t you __understand?__” Daphne’s voice was barely below a shriek.
//“Just because someone’s nice to you doesn’t mean they’re your friend! He’s
//__Draco Malfoy!__ His father’s a Death Eater, all the parents of all his
//friends are Death Eaters - Nott, Goyle, Crabbe, __everyone around him__,
//do you get it? They __all __despise Muggleborns, they want everyone like
//you to __die__, they think you’re good for nothing but being a
//__sacrifice __in horrible Dark rituals! Draco is __the next Lord
//Malfoy__, he’s been raised from birth to hate you and he’s been raised from
//birth to __lie!__” Daphne’s gray-green eyes stared fiercely at her,
//demanding assent and understanding.
-- Хіба ти __не розумієш__? -- ледь не верещала Дафна. -- Лише через те, що
хтось поводиться з тобою чемно, не варто його вважати другом! Це ж __Драко
Мелфой__! Його батько -- смертежер, усі батьки усіх його друзів -- смертежери:
Нот, Ґойл, Креб, __усі навколо нього__, второпала? Вони __всі__ зневажають
маґлородців, вони хочуть, щоб усі такі, як ти, __померли__, вони гадають, що ви
здатні лише на одне -- стати __жертвою__ в жахливому темному ритуалі! Драко --
__наступний лорд Мелфой__, його від народження виховували ненавидіти тебе, і
від народження вчили __брехати__! -- зелено-сірі очі Дафни люто дивилися на
неї, вимагали згоди й розуміння.

// 12716
//“He -” Hermione said falteringly. She remembered the rooftop, the awful jolt as
//she started to fall, Draco Malfoy’s hand grabbing hers and holding it so hard
//that she’d had bruises afterward. She’d had to tell him twice before he finally
//let her fall. “Maybe Draco Malfoy isn’t like them -”
-- Він... -- непевно почала Герміона. Вона памʼятала дах, жахливий поштовх, коли
вона почала падати, руку Драко Мелфоя, що стиснула її власну так сильно, що в
неї залишилися синці. Вона мала сказати йому двічі перед тим, як він її
нарешті відпустив. -- Може, Драко Мелфой не такий, як вони...

// 12717
//Daphne’s whisper was almost a scream. “If he __doesn’t __end up doing you
//ten times as hard as he just helped you, his __life __is __over__, do
//you understand? I mean Lucius Malfoy would __literally __disinherit him!
//D’you know what the chance is that he’s __not __up to something?”
Шепіт Дафни був ледь не криком.

-- Якщо він __не__ скомпенсує цю допомогу чимось вдесятеро гіршим, то
його __життю кінець__, розумієш? Тобто Луціус Мелфой __буквально__ зречеться
його! Ти розумієш, яка ймовірність того, що він __не__ замислив щось?

// 12718
//“Tiny?” said Hermione in a small voice.
-- Крихітна? -- слабко спитала Герміона.

// 12719
//“__Zero!__” hissed Daphne. “I mean __none!__ I mean __less
//__than zero! I mean the chance is so small that you couldn’t find it with three
//Magnifying Charms and a Point-Me spell and - and - and an ancient map and a
//centaur prophet! Everyone in Slytherin knows he’s plotting to do something to
//you and doesn’t want to be suspected, I heard someone say he was seen pointing
//his wand at you just before you tripped - don’t you __see?__ __This
//is all part of Malfoy’s plan!__”
-- __Нульова!__ -- прошипіла Дафна. -- Тобто __жодної__! Тобто __менше__ за нуль!
Тобто ймовірність така маленька, що її неможливо виявити за допомогою трьох
збільшувальних чарів, закляття вкажи-на-мене і... і... і древньої карти з
кентавром-провидцем!
Усі в Слизерині знають, що він планує щось з тобою зробити й не хоче, щоб його
підозрювали. Я чула, хтось казав, що бачив, як він вказав на тебе паличкою
прямо перед тим, як ти перечепилася. Хіба ти не __розумієш__? __Це все частина
плану Мелфоя!__

***

// 12720
//Draco sat eating his steak with roasted cauliflower florets and Ashwinder sauce
//(it wasn’t made from real Ashwinder eggs, it just tasted like fire), trying not
//to laugh and trying not to cry.
Драко сидів та їв свій стейк із запеченими квітками цвітної капусти та
попеляшковим соусом (його не робили зі справжніх яєць попеляшки, просто вони на
смак нагадували вогонь) і старався не зареготати та не заплакати.

// 12721
//He’d __heard __about plausible deniability, but hadn’t realized how much
//it mattered until he found that Malfoys didn’t have any.
Він __чув__ про спроможність на заперечення, проте не розумів, наскільки вона
важлива, доки не зʼясував, що в Мелфоїв її немає.

// 12722
//“You want to know my plot?” said Draco. “__Here’s __my plot. I’m not going
//to do __anything__ and then the __next __time people think I’m
//plotting something, they won’t be sure.”
-- Хочете знати мій задум? -- сказав Драко. -- __Ось__ мій задум: я __нічого__
не робитиму й __наступного__ разу, коли людям здаватиметься, що я щось
планую, вони сумніватимуться.

// 12723
//“Huh…” said the fifth-year boy. “I don’t think I believe you, that doesn’t
//sound cunning enough to be really it -”
-- Гм... -- сказав пʼятикласник. -- Я не вірю тобі, це недостатньо хитро,
щоб бути правдою...

// 12724
//“That’s what he __wants __you to think,” said the fifth-year girl.
-- Він __хоче__, щоб ти так вважав, -- сказала пʼятикласниця.

***

// 12725
//“Albus,” Minerva said dangerously, “did you __plan __all this?”
-- Албусе, -- загрозливо сказала Мінерва, -- ти __спланував__ це все?

***

// 12726
//“Well, if I __did __snap my fingers under the table, I wouldn’t just
//__tell __you that -”
-- Ну, якби я __клацнув__ пальцями під столом, хіба я __розповів__ би
тобі...

***

// 12727
//The Defense Professor’s quavering hand dropped his spoon into the soup again.
Тремтяча рука професора із захисту знову впустила ложку в суп.

***

// 12728
//“What do you mean, __set you up?__” said Millicent. The two of them were
//sitting cross-legged on Daphne’s bed, having come there straight from the Great
//Hall after lunch. “With my Seer’s eyes that stare through Time Itself, I saw
//you __winning__.”
-- Як це, __підставила__? -- запитала Мілісент. Вони вдвох сиділи по-турецьки
на ліжку Дафни, вони прийшли сюди одразу після обіду у Великій Залі. -- Мої очі
провидиці витріщаються на сам час, я бачила, що ви __виграєте__.

// 12729
//Daphne stared at Millicent, her own merely mortal eyes rather narrowed at the
//moment. “That boy was __expecting __us.”
Дафна витріщилася на Мілісент своїми власними очима смертної, що наразі були доволі
примружені.

-- Той хлопець __чекав__ на нас.

// 12730
//“Well, yeah!” said Millicent. “Everyone knows you’re hunting bullies!”
-- Ну, так! -- сказала Мілісент. -- Усі знають, що ви полюєте на цькувальників!

// 12731
//“Hannah got hit by a really painful hex,” Daphne said. “She had to visit a
//healer, Millicent! If we’re friends you should’ve __warned __me!”
-- Анна потрапила під справді болісний прокльон. Їй довелося відвідати
цілительку, Мілісент! Якби ми були друзями, ти б мене __попередила__!

// 12732
//“Look, Daphne, I __told __you -” The Slytherin girl paused, as if trying
//to remember something, and then said, “I mean, I told you, what I See
//__has __to come to pass. If I try to change it, if __anyone __tries
//to change it, really terrible, awful, no good, extremely bad things will
//happen. And then it’ll come to pass __anyway__. If I See you getting
//beaten up, I __can’t __tell you that, because then you’d try to
//__not go__, and __then __-” Millicent stopped.
// hedrok: копія "What I See has to come to pass" у 073:12794
// hedrok: копія "If I try to change it ... to pass anyway" у 073:12807
-- Слухай, Дафно, я ж __казала__ тобі... -- слизеринка затнулася, ніби
старалася щось пригадати, а тоді продовжила: -- тобто, я ж казала тобі -- те,
що я бачу, __має__ справдитися. Якщо спробувати його змінити, якщо __будь-хто__
спробує його змінити, справді жахливі, страхітливі, нехороші, надзвичайно
погані речі стануться. А тоді воно __все одно__ справдиться. Якщо я бачу,
що тебе побʼють, я не можу тобі про це розповісти, бо тоді ти спробуєш
__не піти__, і __тоді__... -- Мілісент замовкла.

// 12733
//“And then?” Daphne said skeptically. “I mean, what happens if we just don’t
//go?”
-- І тоді? -- скептично спитала Дафна. -- Тобто, що станеться, якщо ми просто
не підемо?

// 12734
//“I don’t __know!__” said Millicent. “But it probably makes being eaten by
//Lethifolds look like a tea party!”
// hedrok: копія "it probably..." у 073:12794
-- Я __не знаю__! Та напевно бути зʼїденим смертефалдами видаватиметься
чайною вечіркою в порівнянні.

// 12735
//“Look, even I know that’s not how prophecies work,” Daphne said, then paused.
//“At least prophecies don’t work like that in plays…” Admittedly, there were all
//sorts of tragedies where trying to avoid a prophecy __made__ it happen, or
//where, on the other hand, trying to __go along __with a prophecy was the
//only reason why it happened. But you __could__ make prophecies happen your
//own way if you were clever enough; or someone who loved you enough could take
//your place; or with enough effort it was possible to break a prophecy outright…
//Then again, in plays the Seers never remembered what they Saw, either…
-- Слухай, навіть я знаю, що пророцтва працюють не так, -- сказала Дафна, а тоді
замислилася. -- Принаймні, пророцтва працюють не так у пʼєсах...

Вона мала визнати, що існувало розмаїття всіляких трагедій, де спроби уникнути
пророцтва __втілювали__ його, чи навпаки -- спроби __здійснити__ пророцтво були
єдиною причиною його здійснення. Та __можна було__ змусити пророцтва
здійснитися так, як тобі хочеться, якщо ти був достатньо розумним. Або якщо
хтось достатньо тебе любив, то він міг помінятися з тобою місцями. За достатніх
зусиль можна було просто знищити пророцтво... Але знову ж таки, у пʼєсах
провидиці ніколи не памʼятали того, що вони бачили...

// 12736
//Millicent must have seen Daphne’s hesitation, because the other girl started
//looking a little more confident. “Well,” Millicent said sharply, “this isn’t a
//play! Look, I’ll tell you if I See it being a hard battle or an easy one. But
//that’s __all __I can do, you understand? And if I say ‘hard’ you
//__can’t __not show up! Or - or -” Millicent’s eyes rolled back in her
//head, and she intoned hollowly, “__Those who try to cheat their destinies
//will come to sad and gloomy ends -”__
Напевно Мілісент помітила вагання Дафни, бо вона ставала дедалі впевненішою.

-- Ну, -- різко сказала Мілісент, -- це не пʼєса! Слухай, я казатиму тобі, я
бачу складну чи легку битву. Та це __все__, що я можу, розумієш? І якщо я кажу
"`складна`", ти __не можеш__ не прийти! Або.. або... -- Мілісент закотила очі й
загробним голосом промовила: -- __Тих, хто намагаються обдурити свою долю,
спіткає сумний та похмурий фінал...__

***

// 12737
//Professor Sprout shook her head, her face looking tight.
Професорка Спраут похитала головою, її обличчя було напруженим.

// 12738
//“But -” said Susan. “But you helped __Harry Potter __that one time -”
-- Але... -- сказала Сьюзен. -- Але ви допомогли __Гаррі Поттерові__ тоді...

// 12739
//“And it was made __quite clear __to me,” Professor Sprout said in a voice
//that sounded like someone was using a Shrinking Charm to squeeze her throat,
//“that it was Professor Snape’s job, and not mine, to keep order in Slytherin
//House - Miss Bones, __please__, you don’t have to __do __this if -”
-- І тоді мені __вкрай докладно__ розʼяснили, -- сказала професорка Спраут
таким голосом, ніби хтось застосовував стискальні чари на її горлі, -- що це
робота професора Снейпа -- підтримувати лад у гуртожитку Слизерин... Міс
Боунз, __будь ласка__, ви __не мусите__ цього робити...

// 12740
//“Yes, I __do __have to,” Susan said unhappily. “I’m a Hufflepuff, we have
//to be loyal.”
-- Так, __мушу__, -- безрадісно сказала Сьюзен. -- Я гафелпафка, а ми маємо
бути вірними.

***

// 12741
//“A mysterious parchment under your pillow?” said Harry Potter, looking up from
//where he was sitting, in the Quieted nook where they were studying. Then the
//boy’s green eyes narrowed. “It wasn’t from Santa Claus, was it?”
-- Таємничий пергамент під твоєю подушкою? -- запитав Гаррі Поттер, підвівши погляд
з місця, де він сидів -- у заглибленні під дією чарів тиші, де вони навчалися. Тоді
хлопець примружив очі. -- Він раптом не від Санти Клауса, га?

// 12742
//Pause.
Пауза.

// 12743
//“Okay,” said Hermione. “I’m __not __going to ask, and you’re __not
//__going to tell me, and we’re __both __going to pretend you never said that
//and I don’t know anything about it -”
-- Гаразд, -- сказала Герміона. -- Я __нічого__ не питатиму, а ти __нічого__
не розповідатимеш мені, і ми __обидвоє__ вдамо, ніби ти цього ніколи не казав,
і я про це нічого не знаю...

***

// 12744
//Susan approached the table as soon as the older girl was alone, glancing around
//the Hufflepuff common room to make sure nobody was watching (the way Auntie had
//taught her to do it, so that it wouldn’t be obvious that she was looking).
Сьюзен наблизилася до стола, щойно старша дівчина залишилася сама, роззирнулася
довкола вітальні Гафелпафу, щоб переконатися, що ніхто не стежив (так, як її навчила
була тітонька -- щоб не було очевидним, що вона дивилася).

// 12745
//“Hey, Susie,” said the seventh-year Hufflepuff. “Do you already need more -”
-- Привіт, Сьюзі, -- сказала семикласниця з Гафелпафу. -- Тобі вже потрібно
більше...

// 12746
//“Can I please talk to you privately for a bit?” Susan said.
-- Можна ми трохи порозмовляємо особисто? -- запитала Сьюзен.

***

// 12747
//Jaime Astorga, seventh-year of Slytherin, and until recently considered a
//promising upstart on the youth dueling circuit, stood ramrod straight in
//Professor Snape’s office, with his teeth clenched tight and sweat trickling
//down his spine.
Джеймі Астроґа, семикласник зі Слизерину, і донедавна перспективний дуеліст
серед юних дуелянтів, стояв виструнчившись посеред кабінету професора Снейпа
зі стиснутими зубами та спітнілою спиною.

// 12748
//“I distinctly recall,” said the Head of his House in a sardonic drawl, “that I
//warned you, and a number of others this very morning, that there were certain
//first-year girls who might prove annoying, if a fighter were __incautious
//__and allowed himself to be __taken by surprise__.”
-- Я чітко памʼятаю, -- із сардонічною тягучістю промовив вихователь його
гуртожитку, -- як я попереджав вас і декількох інших цього ранку, що є певні
дівчата з першого класу, що можуть виявитися надокучливими, якщо боєць буде
__необачним__ і дозволить __застати себе зненацька__.

// 12749
//Professor Snape stalked in a slow circle around him.
Професор Снейп крокував навколо нього.

// 12750
//“I -” said Jaime, as more sweat beaded on his forehead. He knew how ridiculous
//it sounded, how much of a pathetic excuse. “Sir, they shouldn’t have been able
//to -” One first-year-girl shouldn’t have been able to break his
//__Protego__, no matter what sort of ancient Charm she used - Greengrass
//must have had __help __-
-- Я... -- його чоло спітніло сильніше. Він знав, як сміховинно це звучить, яким
жалюгідним було це виправдання. -- Сер, у них не мало вийти...

Одна першокласниця не мала бути здатна пробити його "`__Протеґо__`", хай які
древні чари вона використовувала... хтось мав їй __допомогти__...

// 12751
//But it was very clear that his Head of House wouldn’t believe that.
Але було очевидно, що вихователь його гуртожитку не повірить у це.

// 12752
//“Oh, I quite agree,” murmured Snape in a low tone, instinct with menace. “They
//shouldn’t have. I begin to wonder if Mr. Malfoy, whatever his plotting, has a
//point, Astorga. It cannot be good for the repute of Slytherin’s House if our
//fighters, rather than demonstrating their strength, lose to little girls!”
//Snape’s voice had risen. “It is well that you had the good taste to be defeated
//by a little girl who is a fellow Slytherin of a Noble House, Astorga, or I
//would deduct points from you myself!”
-- О, я цілковито погоджуюся, -- сповненим загрози тоном пробурмотів Снейп. --
Не мало. Я починаю сумніватися, можливо, містер Мелфой, хай що він замислив,
має рацію, Астроґо. Репутації Слизерину не йде на користь, коли наші бійці
замість демонстрації сили програють маленьким дівчаткам! -- Снейп підвищив
голос: -- Дуже добре, що вам вистачило такту бодай бути переможеним маленькою
дівчинкою, що є слизеринкою та з древнього роду, Астроґо, інакше я власноруч
почав би знімати з вас очки!

// 12753
//Jaime Astorga’s fists clenched at his side, but he couldn’t think of a thing to
//say.
Джеймі Астроґа стиснув кулаки, та не знав, що він може відповісти.

// 12754
//It was some time before Jaime Astorga was allowed to leave the presence of his
//Head of House.
Лише по деякому часі Джеймі Астрозі дозволили піти.

// 12755
//And afterward, only the walls, the floor, and the ceiling saw Severus Snape’s
//smile.
А потім лише стіни, підлога та стеля засвідчили усмішку Северуса Снейпа.

***

// 12756
//That evening Draco was visited by his father’s owl, Tanaxu, who wasn’t green
//but only because there weren’t such things as green owls. The best Father had
//been able to find was an owl of the purest silver feathers, with great luminous
//green eyes, and a beak as sharp and cruel as any snake’s fang. The parchment
//wrapped around Tanaxu’s leg was short and to the point:
Того вечора Драко відвідала батькова сова -- Танаксу. Вона не була зеленою лише
через те, що зелених сов не існувало. Найкраще, на що був здатен батько, --
знайти сову з пірʼям кольору щирого срібла, величезними сяйливими зеленими
очима, та дзьобом, що не поступався в гостроті та жорстокості іклам змії.
Пергамент, що його було привʼязано до лапки Танаксу, містив стислий та діловий текст:

// 12757
//__What are you doing, my son?__
__Що ти робиш, синку?__

// 12758
//The parchment that Draco sent back was equally short, and it said,
Драко надіслав пергамент з не менш стислою відповіддю:

// 12759
//__I am trying to stop harm done to Slytherin’s reputation, father.__
__Намагаюся зупинити заподіяну репутації Слизерину шкоду, батьку.__

// 12760
//In as much time as it took for an owl to fly from Hogwarts to Malfoy Manor and
//back again, the family owl bore another message to Draco, and this one said
//only:
Після часу, що потрібен для перельоту сови з Гоґвортсу до маєтку Мелфоїв і
назад, родинна сова принесла Драко інше повідомлення, цього разу з текстом:

// 12761
//__What are you really doing?__
__ Що ти робиш насправді?__

// 12762
//Draco stared at the parchment he’d unwrapped from the owl’s leg. His hands
//trembled, as he held up the parchment to the light of his fireplace. Five
//words, carved in black ink, shouldn’t have been scarier than death.
Драко втупився у знятий з ноги сови пергамент. Його руки тремтіли, коли
він підняв пергамент ближче до полумʼя в каміні. Чотири написані чорним
чорнилом слова не мали б бути страшнішими за смерть.

// 12763
//There wasn’t very much time to think. Father knew exactly how long it took for
//a message to go from Malfoy Manor to Hogwarts and back again; he would know if
//Draco delayed to compose a careful lie.
У нього було небагато часу на роздуми. Батько точно знав, як довго повідомлення
буде йти від маєтку Мелфоїв та назад. Він знатиме, якщо Драко відкладатиме
відповідь, щоб вигадати старанну брехню.

// 12764
//But Draco still waited until his hand stopped trembling, before he wrote his
//reply, the only answer he’d thought of that Father might accept.
Та Драко все одно зачекав, доки його рука не припинить тремтіти, і лише тоді
написав відповідь -- єдину відповідь, яку, можливо, батько прийме.

// 12765
//__I am preparing for the next war.__
__Я готуюся до наступної війни.__

// 12766
//Draco wrapped that parchment around the owl’s leg and tied it, and then sent
//Tanaxu winging out from his room, through the halls of Hogwarts, into the
//night.
Драко обгорнув пергамент навколо лапи сови та привʼязав його, а тоді відправив
Танаксу зі своєї кімнати коридорами Гоґвортсу в ніч.

// 12767
//He waited, but no reply came.
Він чекав, та відповіді не було.
