// 14752
//== Taboo Tradeoffs, Aftermath 1
== Розділ 83. Неприпустимі поступки, Наслідок 1

// 14753
//When Padma entered the Transfiguration classroom, she saw that half the class
//had beaten her there, a strange, deathly silence pervading the room. Harry
//Potter sat alone in one corner, staring off into some unknown distance, his
//eyes half-lidded, nearly closed.
Коли Падма увійшла до кабінету трансфігурації, половина учнів уже були там.
Незвична, мертва тиша охоплювала кімнату. Гаррі Поттер сидів сам, дивлячись
напівзаплющеними очима кудись вдалину.

// 14754
//Rumor said that the Aurors had discovered that the Defense Professor had
//Polyjuiced as Granger to fool Malfoy.
Ходили чутки, що за версією аврорів професор із захисту багатозільнувся у
Ґрейнджер, щоб напасти на Мелфоя.

// 14755
//Rumor said that Hermione had been bound by the Unbreakable Vow to be Draco
//Malfoy’s slave.
Ходили чутки, що Герміону змусили дати незламну обітницю бути
рабинею Драко Мелфоя.

// 14756
//Rumor said that Hermione had gotten the Dementor’s Kiss.
Ходили чутки, що Герміона отримала Цілунок дементора.

// 14757
//But if __that__ were true, Harry Potter wouldn’t be sitting there, he
//would be -
Якби щось з __цього__ було правдою, Гаррі Поттер зараз не сидів би тут!
Він би...

// 14758
//Padma didn’t know what General Potter would do. Her mind went blank, trying to
//think about it.
Падма насправді не знала, що зробив би генерал Поттер. Її мозок відмовлявся
вигадати хоч щось, коли вона про це думала.

// 14759
//Even when Professor McGonagall got there, the silence hadn’t broken. The
//Transfiguration Professor walked up to the board without a pause, erased it
//with a sweep of her hand, and then began to write.
Навіть коли зайшла професорка Макґонеґел, тишу не було порушено. Професорка
трансфігурації не зупиняючись підійшла до дошки, очистила її помахом руки, та
почала писати.

// 14760
//“Today, children,” began the calm professional voice of the Transfiguration
//Professor, just as though nothing out of the ordinary had happened that week,
//“we shall learn how much effort it takes to sustain a Transfiguration, and why,
//at your age, you should not even try. The original Form is not gone, only
//suppressed; and to maintain that suppression -”
-- Сьогодні, діти, -- почала професорка трансфігурації спокійним голосом, наче
нічого незвичного не сталося цього тижня, -- ми вивчатимемо, яких зусиль
потребує підтримка трансфігурації, і чому у вашому віці не варто навіть
намагатися. Отже, оригінальна форма предмета нікуди не зникає, вона лише
прихована, і, щоб підтримувати цей стан...

// 14761
//“Excuse me,” said Padma Patil. She knew her voice was shaking, she knew that
//she was trembling visibly, but she had to ask. “Excuse me, Professor, what
//happened with Miss Granger?”
-- В-вибачте, -- перервала професорку Падма Патіл. Вона знала, що її голос
тремтить, що все її тіло тремтить, але вона мусила спитати. -- Вибачте,
професорко, що сталося з міс Ґрейнджер?

// 14762
//The Transfiguration Professor paused at the board, and turned to look at Padma.
//The Professor should have looked stern, having been interrupted without a hand
//being raised, but instead her face was kindly. “You don’t already know, Miss
//Patil? I expected that rumor would have spread.”
Професорка припинила писати та повернулася до Падми. Погляд професорки мав би
бути суворим через те, що її перервали без дозволу, але натомість її очі
дивилися мʼяко.

-- Ви ще не знаєте, міс Патіл? Я очікувала, що чутки поширяться
швидко.

// 14763
//“There’s too many rumors,” said Padma. “I don’t know what’s true.”
-- Забагато чуток поширилося, -- сказала Падма. -- Я не знаю, що з того правда.

// 14764
//Morag MacDougal raised her hand, then said without waiting to be called, “I
//told you, Padma, what’s __true__ is that the Wizengamot found Granger
//guilty and ordered her to get the Dementor’s Kiss and they brought in the
//Dementor and Harry Potter glued it to the ceiling and wouldn’t let it down
//until -”
Мораґ Макдуґал підняла руку і, не чекаючи дозволу, сказала:

-- Я ж тобі казала, Падмо, що __правдою__ є те, що Чарверсуд визнав Ґрейнджер
винною та призначив їй Цілунок дементора як покарання. І коли завели дементора
для виконання вироку, Гаррі Поттер приклеїв того до стелі та не відпускав
доки...

// 14765
//“Oh, dear Merlin,” said Professor McGonagall, her expression growing sharp, but
//then she visibly calmed herself. “The affair was utterly ridiculous and I
//shan’t go into detail. Let it stand that Miss Granger is resting with Madam
//Pomfrey for now, and coming back to classes tomorrow. And if I catch anyone
//bothering her, I shall turn them into glass vases and drop them.”
-- Великий Мерліне, -- випалила професорка Макґонеґел. Вираз її обличчя
ставав дедалі суворіший, але вона себе вгамувала. -- Розгляд
справи був просто сміховинний, та я не вдаватимусь у деталі. Наразі лише
скажу, що міс Ґрейнджер відпочиває під наглядом мадам Помфрі та повернеться до
занять уже завтра. І якщо я дізнаюся, що хтось її тривожить, то я
перетворю його на скляну вазу і розібʼю.

// 14766
//The entire class gasped at this; it wasn’t so much that the threat was fatal,
//as that it broke the safety rules for Transfiguration.
Весь клас йойкнув від цих слів. Здивування викликала не стільки очевидна
смертельність погрози, скільки порушення правил безпеки трансфігурації!

// 14767
//Professor McGonagall turned back to her board -
Професорка Макґонеґел повернулася назад до дошки...

// 14768
//From a corner of the classroom, another voice rose up. “What about Professor
//Quirrell?” said Terry Boot. “Has he been arrested?”
З іншої частини зали пролунав ще один голос:

-- А як щодо професора Квірела? -- спитав Террі Бут. -- Його заарештували?

// 14769
//“The Aurors are only detaining him,” said the Transfiguration Professor without
//turning around. “If they have not given back our Defense Professor by tomorrow,
//I shall ask the Headmaster to go fetch him. Though I may as well tell you now
//that the Board of Governors has scheduled a vote on whether Professor
//Quirrell’s battles shall be allowed to continue.”
-- Аврори лише тримають його під вартою, -- відповіла професорка трансфігурації,
не повертаючись до класу. -- Якщо вони до завтра не повернуть нашого професора,
я прохатиму директора піти та витягти його звідти. Також маю вам повідомити,
що Рада опікунів призначила голосування щодо того, чи можуть битви професора
Квірела проводитись і надалі.

// 14770
//Kevin Entwhistle spoke. “And General Malfoy? When’s he getting back from St.
//Mungo’s?”
Кевін Ентвісл спитав:

-- А генерал Мелфой? Коли він повернеться з лікарні Святого Мунґо?

// 14771
//The Transfiguration Professor paused in her drawing.
Професорка трансфігурації припинила писати на дошці.

// 14772
//She turned around again, more slowly, this time.
Вона знову повернулася обличчям до класу. Цього разу значно повільніше.

// 14773
//“I __am__ sorry, Mr. Entwhistle,” said Professor McGonagall. Her face
//looked a little more lined than when she had entered the room. “Mr. Malfoy’s
//health is in no danger, I am given to understand. Unfortunately, I have
//received an owl from Mr. Malfoy’s father withdrawing him from Hogwarts. I am
//afraid he is not coming back.”
-- Мені __дуже__ шкода, містере Ентвісл, -- промовила професорка Макґонеґел.
Здавалося, що з моменту, коли вона ввійшла до класу, на її обличчі зʼявилися
нові зморшки. -- Здоровʼю містера Мелфоя нічого не загрожує, як мені
повідомили. На жаль, я отримала сову від батька містера Мелфоя, з якою він
повідомив, що забирає сина зі школи. Боюся, містер Мелфой не повернеться
у Гоґвортс.
