// 16815
//== Roles, Pt 6
== Розділ 95. Ролі, ч.6

// 16816
//__The third meeting__
__Третя зустріч__

// 16817
//__(10:31am, April 17th 1992)__
__(10:31 ранку, 17 квітня 1992го року)__

// 16818
//Spring had begun, the late-morning air still crisp with the leavings of winter.
//Daffodils had bloomed amid the sprouting grass of the forest, the gentle yellow
//petals with their golden hearts dangling limply from their dead, grayed stems,
//wounded or killed by one of the sudden frosts that you often saw in April. In
//the Forbidden Forest there would be stranger lifeforms, centaurs and unicorns
//at the least, and Harry had heard allegations of werewolves. Though from what
//Harry had read of real-life werewolves, that did not make the slightest bit of
//sense.
Прийшла весна. У ранковому повітрі досі відчувалися останні подихи зими.
Нарциси розцвіли посеред молодої трави лісу: ніжні жовті пелюстки з
золотою серединкою безвільно звисали з мертвого сірого стебла, пошкодженого
чи вбитого одним з тих морозів, що частенько трапляються в квітні. У
Забороненому лісі водяться досить дивні істоти: щонайменше кентаври та
єдинороги, також до Гаррі доходили безпідставні чутки про вовкулаків.
Та з усього прочитаного Гаррі про справжніх вовкулаків випливало, що в цьому не
було жодної дрібки сенсу.

// 16819
//Harry didn’t venture anywhere near the border of the Forbidden Forest, since
//there was no reason to take the risk. He walked invisibly among the more
//ordinary life-forms of the permitted woods, wand in hand, a broomstick strapped
//to his back for easier access, just in case. He was not actually afraid; Harry
//thought it odd that he didn’t feel afraid. The state of constant vigilance,
//readiness for fight or flight, failed to feel burdensome or even abnormal.
// kabakchey: https://uk.wikipedia.org/wiki/Реакція_«Бийся_або_тікай»
Гаррі не наважувався підходити хоч трохи до Забороненого лісу, бо не було
потреби ризикувати. Він, невидимий, крокував повз більш звичні життєві форми
дозволених гаїв: паличка напоготові, мітла привʼязана за спиною для легкого
доступу -- про всяк випадок. Насправді ж він не був наляканим. Гаррі подумав,
що це дивно, що він не відчував страху. Був стан постійної пильності,
готовності битися або тікати -- і це не було обтяжливим, навіть не здавалося
незвичним.

// 16820
//On the edges of the permitted woods Harry walked, his feet never straying near
//the beaten path where he might be more easily found, never leaving sight of
//Hogwarts’s windows. Harry had set the alarm upon his mechanical watch to tell
//him when it was lunchtime, since he couldn’t actually look at his wrist, being
//invisible and all that. It raised the question of how his eyeglasses worked
//while he was wearing the Cloak. For that matter the Law of the Excluded Middle
//seemed to imply that either the rhodopsin complexes in his retina were
//absorbing photons and transducing them to neural spikes, or alternatively,
//those photons were going straight through his body and out the other side, but
//not both. It really did seem increasingly likely that invisibility cloaks let
//you see outward while being invisible yourself because, on some fundamental
//level, that was how the caster had - not __wanted__ - but
//__implicitly believed__ - that invisibility should work.
// kabakchey: https://uk.wikipedia.org/wiki/Закон_виключеного_третього
//! kabakchey: Насправді існує і третій варіант: плащ, реєструючи фотон,
//!            випускає ДВА фотони з тим же вектором руху та енергією: один
//!            назовні, інший всередину. Це б порушило закон збереження енергії,
//!            але ж ніде не сказано, на якому "паливі" працює плащ, правда ж?:)
//! hedrok: Гм... мені здається, він жодного разу не підходив до торованого
//!         шляху... Ну і з вікон його не бачать, він бачить вікна.
//! hedrok: про Плащ - так, звісно. Фотона взагалі може не бути, Плащ цілком
//!         може надсилати зображення прямо в мозок Гаррі - хтозна. Тут потрібні
//!         ретельні наукові досліди :)
//! hedrok: Cloak of Invisibility = Плащ невидимості = смертельна реліквія
//!         invisibility cloak = плащ-невидимка = решта плащів
Гаррі йшов краєм дозволених гаїв, його нога жодного разу не
наближалася до второваного шляху, де його могли б легко знайти, але водночас він
гуляв так, щоб весь час бачити вікна Гоґвортсу. Гаррі встановив будильника на своєму
механічному годиннику, щоб той повідомив, коли почнеться обідній час, бо він
не міг подивитися на своє запʼястя через невидимість та все оце. Знову ж
виникало питання, як його окуляри можуть працювати, коли він накритий Плащем
невидимості. Згідно з законом виключеного третього, або ж родопсинові
комплекси в його сітківці поглинають фотони та перетворюють їх на нейронні
сигнали, або ж ці фотони проходять прямісінько через його тіло назовні,
третього не дано. Справді здається, що з великою ймовірністю плащі-невидимки
дозволяють носіям бачити назовні, поки знаходяться невидимими, бо, на якомусь
фундаментальному рівні, заклинатель не __хотів__, а __несвідомо вірив__ у те, як
повинна працювати невидимість.

// 16821
//Whereupon you had to wonder whether anyone had tried Confunding or Legilimizing
//someone into implicitly and matter-of-factly believing that __Fixus
//Everythingus__ ought to be an easy first-year Charm, and then trying to invent
//it.
//!hedrok "усілякус" - просто смішніше, як на мене. Приберу, якщо не до вподоби
Тут спадало на думку питання, чи хтось уже пробував за допомогою Конфундусу чи
виманології неявно вірити й сприймати як належне, що "`__Виправлятус усілякус__`" є
простим заклинанням для першокласників, а потім спробувати його винайти.

// 16822
//Or maybe find a worthy Muggleborn in a country that didn’t identify Muggleborn
//children, and tell them some extensive lies, fake up a surrounding story and
//corresponding evidence, so that, from the very beginning, they’d have a
//different idea of what magic could do. Though apparently they’d still have to
//learn a number of previous Charms before they became capable of inventing their
//own…
Чи, навіть, знайти гідного маґлородця у країні, де їх не визначають, як
чарівників, та розповісти йому комплексну, всеосяжну брехню, підробити
відповідні свідчення та сфабрикувати історію так, що з самого початку у нього
буде зовсім інше уявлення того, що можливо з магією. Але, очевидно, йому
доведеться вивчити певну кількість заклинань ще до того, як пробувати
винайти власні...

// 16823
//It might not work. Surely there’d been some organically insane wizards who’d
//truly believed in their own possibility of godhood, and yet had failed to
//become god. But even the insane had probably believed the ascension spell ought
//to be some grandiose dramatic ritual and not something you did with a carefully
//composed twitch of your wand and the incantation __Becomus Goddus.__
Це може не спрацювати. Напевно, існували божевільні від природи чаклуни, що
вірили у власну божественність, але все ж не змогли стати богами. Мабуть,
навіть божевільний чаклун вірив, що заклинання для вшестя мало б бути
грандіозним, драматичним ритуалом, а не якимось ретельно вивіреним змахом
палички та вимовлянням "`__Ставатус богомус__`".
//! kabakchey: "вознесіння" -- не зовсім те. Мабуть варто перефразувати...
//! hedrok: пропоную "вшестя". Теоретично, те ж саме, що й "вознесіння", але не
//!         я ніколи не чув цього слова, і не залишає двозначності.
//!         Якщо тобі не подобається щось інше - пиши, як на мене, і вознесіння
//!         нормально.

// 16824
//Harry was already pretty sure it wouldn’t be that easy. But then the question
//was, __why not?__ What pattern had his brain learned? Could the reason be
//predicted in advance?
Гаррі вже майже не мав сумнівів, що так просто нічого не вийде. Але справжнє
питання тут -- __чому б ні__? Який стереотип завчив його мозок? Чи можна наперед
передбачити справжню причину?

// 16825
//A slight fringe of apprehension crept through Harry then, a tinge of worry, as
//he contemplated this question. The nameless concern sharpened, grew greater -
Легкий холодок занепокоєння пройшов крізь Гаррі, а потім -- доторк неспокою,
поки він розмірковував про це питання. Безіменна стурбованість загострилася,
стала сильнішою...

// 16826
//__Professor Quirrell?__
__Професоре Квірел?__

// 16827
//“Mr. Potter,” a soft voice called from behind him.
-- Містере Поттер, -- мʼякий голос промовив позаду нього.

// 16828
//Harry spun, his hand going to the Time-Turner beneath his cloak; again the
//principle of being ready to flee upon an instant’s notice felt only ordinary.
Гаррі крутнувся, а його рука під плащем потяглася в бік часовороту. Знову
принцип бути готовим тікати будь-якої миті видавався чимось буденним.
//! kabakchey: Я не зрозумів останньої частини речення...
//! hedrok: переклав нормально )
//!         тут те ж саме, що й у 16819: чергові натяки на Волдемортовість
//!         Гаррі. Він сам дивується, що так легко й швидко натренувався миттєво
//!         реагувати втечею, весь час бути напоготові, і йому це все дається
//!         без зусиль. Я впевнений, що без спеціального тренування, навіть за
//!         умов Гаррі (якщо виключити Волдемортовість), перша реакція - ступор.
//!         Але через спадок Тома Редла він дуже легко увійшов у режим постійної
//!         пильності.
//!         (це все моя інтерпретація, легко можу помилятися)

// 16829
//Slowly, palms empty and turned outward, Professor Quirrell was walking towards
//him within the forests’ outskirts, coming from the general direction of the
//Hogwarts castle.
Повільно, з порожніми долонями, повернутими, щоб їх було видно, професор
Квірел крокував у його бік через ліс, йдучи напряму від гоґвортського замку.

// 16830
//“Mr. Potter,” Professor Quirrell said again. “I know that you’re here. You know
//that I know that you’re here. I must speak to you.”
-- Містере Поттер, -- знову мовив професор Квірел, -- я знаю, що ви тут. Ви
знаєте, що я знаю, що ви тут. Я маю з вами поговорити.

// 16831
//Still Harry said nothing. Professor Quirrell hadn’t actually said what this was
//about, and Harry’s sunlit morning walk about the forest edge had produced a
//mood of silence within him.
Гаррі нічого не відповів. Професор Квірел так і не сказав до чого все це, та й
ранкова прогулянка краєм залитого сонцем лісу породила в Гаррі мовчазний
настрій.

// 16832
//Professor Quirrell took a small step to the left, a step forward, another to
//the right. He tilted his head with a look of calculation, and then he walked
//almost directly towards where Harry stood, halted a few paces off with the
//sense of doom enflamed to the height of bearability.
Професор Квірел ступив трішки вліво, потім крок уперед, ще один вправо. Він
нахилив голову з виглядом, наче щось прораховував, а потім закрокував
прямісінько туди, де стояв Гаррі, зупинився у кількох кроках так, що лиховісне
передчуття злетіло до крайньої висоти терпимості.

// 16833
//“Are you still resolved upon your course?” Professor Quirrell said. “The same
//course you spoke of yesterday?”
-- Ви досі налаштовані рухатися вашим курсом? -- запитав професор Квірел.
-- Тим, про який ви говорили вчора?

// 16834
//Again Harry did not reply.
Гаррі знову не відповів.

// 16835
//Professor Quirrell sighed. “There is much I have done for you,” the man said.
//“Whatever else you may wonder of me, you cannot deny that. I am calling in some
//of the debt. Talk to me, Mr. Potter.”
Професор Квірел зітхнув.

-- Я стільки всього зробив для вас, -- продовжив чоловік. -- Хай які у вас є
сумніви щодо мене, цього ви не можете заперечувати. Я закликаю повернути хоч
частку боргу. Поговоріть зі мною, містере Поттер.

// 16836
//__I don’t feel like doing this right now,__ Harry thought; then:
//__Oh, right.__
__Щось мені наразі не хочеться__, -- подумав Гаррі, але потім: -- __О,
точно.__
//! hedrok: щось ти не використовуєш у таких випадках двокрапку. Дуже раджу.

***

// 16837
//Two hours later, after Harry had spun the Time-Turner once, noted down the
//exact time and memorized his exact location, spent another hour walking, went
//inside and told Professor McGonagall that he was currently talking to the
//Defense Professor in the woods outside Hogwarts (just in case anything happened
//to him), walked for a further hour, then returned to his original location
//exactly one hour after he’d left and spun the Time-Turner again -
Дві години потому, після одного повороту Гарріного часовороту, запису точного
часу та запамʼятовування його точного розташування, годинної прогулянки,
він пішов усередину та повідомив професорку Макґонеґел, що він зараз
спілкується з професором із захисту у лісі за межами Гоґвортсу (на випадок,
якщо щось із ним станеться). Потім прогулявся ще годину, повернувся точно у
місце свого оригінального розташування рівно за годину після зникнення з цієї
точки та повернув часоворот ще раз...

***

// 16838
//“What was that?” Professor Quirrell said, blinking. “Did you just -”
-- Що це було? -- запитав професор Квірел, кліпнувши. -- Ви що -- щойно...
//@ kabakchey: тут і нижче за текстом залишив "ти", але зовсім не впевнений
//             у доречності цього.
//! hedrok: збережемо "ти" для парселмови. А також фінальної розмови Волдеморта
//!         з Гаррі. Там будуть частини, коли він розмовляє "як професор", там
//!         буде "ви". Тут "чи" мені здається зайвим

// 16839
//“Nothing important,” Harry said without pulling back the hood of his
//invisibility cloak, or taking his hand from his Time-Turner. “Yes, I’m still
//resolved. To be honest, I’m thinking I shouldn’t have said anything.”
-- Нічого особливого, -- відповів Гаррі, не скидаючи каптура свого
плаща-невидимки та не прибираючи руки з часовороту. -- Так, я досі так
налаштований. Якщо чесно, гадаю, мені не варто було нічого розповідати.

// 16840
//Professor Quirrell inclined his head. “A sentiment which shall serve you well
//in life. Is there anything which is liable to change your mind?”
Професор Квірел нахилив голову.

-- Звичка, що добре служитиме вам у житті. Чи є щось здатне змінити вашу
думку?

// 16841
//“Professor, if I already __knew__ about the existence of an argument which
//would change my decision -”
-- Професоре, якби я вже __знав__ про аргумент, що міг би змінити моє рішення...

// 16842
//“True, for the likes of us. But you would be surprised how often someone knows
//what they are waiting to hear, yet must wait to hear it said.” Professor
//Quirrell shook his head. “To put this in your terms… there is a true fact,
//known to me but not to you, of which I would like to convince you, Mr. Potter.”
-- Це правда. Для таких, як ми. Але ви були б здивовані дізнатися, наскільки
часто люди знають, що вони мають почути, але чекають, доки це не вимовлять уголос,
-- захитав головою професор Квірел. -- Перекладаючи на вашу мову... Існує
дійсний факт, що відомий мені, але не вам, щодо якого я хотів би вас
переконати, містере Поттер.

// 16843
//Harry’s eyebrows rose, though he realized in the next moment that Professor
//Quirrell couldn’t see it. “That’s in my terms, all right. Go ahead.”
Брови Гаррі здійнялися, хоча наступної миті він зрозумів, що професор Квірел
не може того бачити.

-- Так, це моєю мовою. Я слухаю.

// 16844
//“The intention you have formed is far more dangerous than you realize.”
-- Наміри, що у вас сформувалися, є значно більш небезпечними, ніж ви собі
уявляєте.

// 16845
//Replying to this surprising statement did not take much thought on Harry’s
//part. “Define dangerous, and tell me what you think you know and how you think
//you know it.”
// kabakchey: копія "What do you think you know and how do you think you know it?"
// у 007:866, 038:7437, 053:9403 та 077:13677
Відповідь на це несподіване твердження не примусила Гаррі довго думати:

-- Дайте визначення небезпечному і розкажіть мені, що, ви гадаєте, ви
знаєте і звідки, ви гадаєте, ви це знаєте.
//! kabakchey: умисно спробував по-іншому сформувати What do you think...
//!            Просто як варіант на обговорення. Треба всюди привести до одного
//!            вигляду, щоб ця знакова фраза легко читалася та упізнавалася.
//! hedrok: тут лишаю, як було.
//!         Ось issue: https://gitlab.com/hpimr/hpimr/issues/345
//!         Відкривай, пропонуй.

// 16846
//“Sometimes,” said Professor Quirrell, “telling someone about a danger can cause
//them to walk directly into it. I have no intention of having that happen this
//time. Do you expect me to tell you exactly what you must not do? Exactly why I
//am afraid?” The man shook his head. “If you were wizardborn, Mr. Potter, you
//would know to take it seriously, when a powerful magus tells you only to
//beware.”
// hedrok: "this time". Йдеться про те саме пророцтво й Волдеморта. Має бути
//         сформульовано відповідно.
-- Іноді, -- почав професор Квірел, -- повідомивши когось про небезпеку,
ви лише змушуєте його прямувати до неї навпростець. У мене немає наміру, щоб це
сталося цього разу. Ви очікуєте, що я вкажу вам, чого ви не мусите
робити? Чого саме я боюся? -- чоловік захитав головою. -- Якби ви були
чаклунського роду, містере Поттер, ви б дуже серйозно сприйняли те, що
могутній маг радить вам бути обережним.
//! kabakchey: "потрапляння" -- щось зовсім зашквар.
//! hedrok: переформулював.

// 16847
//It would have been a lie to say that Harry was not annoyed, but he also wasn’t
//an idiot; so Harry said merely, “Is there anything you __can__ tell me?”
Було б неправдою сказати, що Гаррі не був роздратований, але він також не був
ідіотом, тому Гаррі просто спитав:

-- Чи є щось, що ви __можете__ мені повідомити?

// 16848
//Carefully, Professor Quirrell seated himself upon the grass, and took out his
//wand, his hand assuming a position that Harry recognized. Harry’s breath
//caught.
Професор Квірел обережно усадив себе на траву, дістав паличку. Його рука
прийняла положення, що Гаррі розпізнав. Гаррі перехопило подих.

// 16849
//“This is the last time that I shall be able to do this for you,” Professor
//Quirrell said quietly. Then the man began to speak words that were strange, of
//no language Harry could recognize, intonation that seemed not quite human,
//words which seemed to slip from Harry’s memory even as he tried to grasp them,
//exiting from his mind as quickly as they entered.
-- Це востаннє, коли я можу це зробити для вас, -- тихо прокоментував професор
Квірел. Тоді чоловік почав промовляти слова, що були дивними, належали до мови,
що Гаррі не міг розпізнати, інтонацією, що здавалася нелюдською, слова, що
вислизали з Гарріної памʼяті, хоч він намагався їх вловити, полишали його
розум, щойно туди потрапляли.

// 16850
//The spell took effect more slowly, this time. The trees seemed to darken,
//branches and leaves staining, as though seen through perfect sunglasses that
//faded and attenuated light without distorting it. The blue bowl of the sky
//receded, the horizon which Harry’s brain falsely assigned a finite distance
//pulling back as it turned gray, and darker gray. The clouds became translucent,
//transparent, wisping away to let the darkness shine through.
Цього разу заклинання спрацювало значно повільніше. Дерева потемнішали, гілки
та листя поблякли, наче були видимі через ідеальні сонцезахисні окуляри, що
послаблювали та зменшували потік світла, не спотворюючи його. Синій купол неба
відступив, обрій, який, як хибно вважав мозок Гаррі, мав
скінченну відстань, відійшов, ставши сірим та темно-сірим. Хмари стали
тоншими, прозорими, і зовсім щезли, давши дорогу темряві.

// 16851
//The forest shaded, faded, abated into blackness.
Ліс затінився, поблякнув, зник у чорноті.

// 16852
//The great sky river became visible once again, as Harry’s eyes adjusted, became
//able to see the largest object which human eyes could ever behold as more than
//a point, the surrounding Milky Way.
Велика небесна ріка знову стала видимою, як тільки очі Гаррі адаптувалися та
змогли бачити найбільший обʼєкт з усіх, які людські очі можуть сприймати як
щось більше за точку, -- Чумацький шлях навколо.

// 16853
//And the stars, piercingly bright and yet remote, out of a great depth.
І світло зірок, сліпучо-яскраве та все ж віддалене, з великої глибини.

// 16854
//Professor Quirrell breathed deeply. Then he raised his wand again (just barely
//visible, in the starlight without sun or moon) and tapped himself on the head
//with a sound like an egg cracking.
Професор Квірел глибоко вдихнув. Тоді він підняв паличку ще раз (ледь
видиму без світла сонця чи місяця) та торкнувся своєї голови зі звуком, схожим
на тріскіт яйця.

// 16855
//The Defense Professor also faded away, became likewise invisible.
Професор із захисту теж розчинився, ставши повністю невидимим.

// 16856
//A tiny disk of grass, illuminated by not much light at all, drifted unoccupied
//within empty space.
Крихітний диск трави, ледве освітлений слабким промінням, самотньо
дрейфував посеред порожнього космосу.

// 16857
//Neither of them spoke for a time. Harry was content to look at the stars,
//undistracted even by his own body. Whatever Professor Quirrell had called him
//here to say, it would be said in due time.
Деякий час вони обидва мовчали. Гаррі намагався зануритися поглядом у
зірки та не відволікатися навіть на власне тіло. Хай що професор Квірел хотів
йому сказати, це буде сказано у свій час.

// 16858
//In due time, a voice spoke.
І у свій час голос заговорив.

// 16859
//“There is no war here,” said a soft voice emanating from within the emptiness.
//“No conflict and battle, no politics and betrayal, no death and no life. That
//is all for the folly of men. The stars are above such foolishness, untouched by
//it. Here there is peace, and silence eternal. So I once thought.”
-- Тут немає війни, -- мовив мʼякий голос посеред порожнечі. -- Жодних
конфліктів та бійок, жодної політики та зради, ані смерті, ані життя. Все те є
наслідками людського невігластва. Зірки нагорі позбавлені дурості, непорушені
нею. Тут є мир та тиха вічність. Так я колись вважав.

// 16860
//Harry turned to look at where the voice originated, and saw only stars.
Гаррі повернувся у бік, звідки лунав голос, але побачив самі зірки.

// 16861
//“So you once thought?” Harry said, when no other words seemed to be
//forthcoming.
-- Так ви колись вважали? -- перепитав Гаррі, коли здалося, що більше не буде
слів.

// 16862
//“There is nothing above the folly of men,” whispered the voice from the
//emptiness. “There is nothing beyond the destructive powers of sufficiently
//intelligent idiocy, not even the stars themselves. I went to a great deal of
//trouble to make a certain golden plaque last forever. I would not like to see
//it destroyed by human folly.”
-- Ніщо не вище за невігластво людства, -- прошепотів голос із порожнечі. --
Немає нічого по той бік руйнівних сил достатньо розумного ідіотизму, навіть
самих зірок. Я справді багато віддав був, щоб певна золота пластинка була вічною.
Мені б не сподобалося побачити її знищеною через людське невігластво.

// 16863
//Again Harry’s eyes reflexively darted toward where the voice should have been,
//again saw only emptiness. “I think I can reassure you on that score, Professor.
//Nuclear weapons don’t have a fireball extending out for… how far away is
//Pioneer 11? Somewhere around a billion kilometers, maybe? Muggles talk about
//nuclear weapons destroying the world, but what they actually mean is lightly
//warming up some of Earth’s surface. The __Sun__ is a giant fusion reaction
//and __it __doesn’t vaporize distant space probes. The worst-case scenario
//for nuclear war wouldn’t even come close to destroying the Solar System, not
//that this is much of a consolation.”
Знову очі Гаррі рефлекторно поглянули туди, звідки мав линути голос, і знову
побачили лише порожнечу.

-- Думаю, я міг би заспокоїти вас щодо цього, професоре. Вогняна куля від
ядерної зброї не поширюється на... Як там далеко зараз Піонер-11? Десь,
приблизно, мільярд кілометрів, напевно? Маґли кажуть, що ядерна зброя знищить
світ, але насправді мають на увазі легкий підігрів частини поверхні Землі.
Наше __Сонце__ є велетенською реакцією ядерного синтезу і навіть воно не
випаровує віддалені космічні зонди. Навіть у найгіршому випадку ядерна війна й
близько не підійде до знищення Сонячної системи, хоч це не дуже тішить.

// 16864
//“True while we speak of Muggles,” said the soft voice amid starlight. “But what
//do Muggles know of true power? It is not they who frighten me now. It is you.”
-- Правда, доки ми говоримо про маґлів, -- підтвердив мʼякий голос посеред
зоряного світла. -- Але що маґли знають про справжню силу? Це не вони мене
зараз лякають. А ви.

// 16865
//“Professor,” Harry said carefully, “while I have to admit I’ve rolled a few
//critical failures in my life, there’s a bit of distance between that and
//missing a saving throw so hard that the Pioneer 11 probe gets caught in the
//blast radius. There’s no realistic way to do that without blowing up the Sun.
//And before you ask, our Sun is a main-sequence G-type star, it __can’t__
//explode. Any energy input would just increase the volume of the hydrogen
//plasma, the Sun doesn’t have a degenerate core that could be detonated. The Sun
//doesn’t have enough mass to go supernova, even at the end of its lifespan.”
// kabakchey: https://uk.wikipedia.org/wiki/Жовтий_карлик
// kabakchey: https://uk.wikipedia.org/wiki/Вироджений_газ
// hedrok: https://en.wikipedia.org/wiki/Saving_throw
-- Професоре, -- обережно почав Гаррі, -- мушу визнати, що хоча я й допустив
декілька критичних невдач у житті, є певна різниця між цим та таким невдалим
розкладом, щоб Піонер-11 опинився у радіусі вибуху. Не існує
 реалістичного способу зробити це, не підірвавши Сонце. І випереджаючи
ваше питання, повідомляю, що Сонце -- це зірка класу G головної послідовності
-- вона __не може__ вибухнути. Будь-який вклад енергії лише збільшить обʼєм
водневої плазми. Сонце не має ядра з виродженого газу, що могло б здетонувати.
Сонце не має достатньо маси, щоб стати суперновою, навіть у кінці життя.

// 16866
//“Such amazing things the Muggles have learned,” the other voice murmured. “How
//stars live, how they are preserved from death, how they die. And they never
//wonder if such knowledge might be dangerous.”
-- Які ж дивовижні речі змогли дізнатися маґли, -- промугикав інший голос. --
Як зірки живуть, як вони уникають смерті, як вони помирають. І у них жодного
разу не виникло думки, чи може це знання бути небезпечним.

// 16867
//“In all frankness, Professor, that particular thought has never occurred to me
//either.”
-- Відверто кажучи, професоре, така думка ніколи не приходила й до мене.

// 16868
//“You are Muggleborn. I speak not of blood, I speak of how you spent your
//childhood years. There is a freedom of thought in that, true. But there is also
//wisdom in the caution of wizardkind. It has been three hundred and twenty-three
//years since the magical territories of Sicily were ruined by one man’s folly.
//Such incidents were more common in the years when Hogwarts was raised. Commoner
//still, in the aftertime of Merlin. Of the time before Merlin, little remains to
//study.”
-- Ви маґлівського роду. Я не про кров, я про те, як ви провели
дитинство. Це дає свободу думки, так. Але є мудрість і в чаклунській
обачності. Минуло вже триста двадцять три роки з події, коли всі магічні
території Сицилії було знищено через дурість однієї людини. Такі інциденти були
поширеними у часи, коли Гоґвортс було збудовано. І навіть більш поширеними після
життя Мерліна. А з часів до Мерліна майже нічого не залишилося для досліджень.

// 16869
//“There’s around thirty orders of magnitude of difference between that and
//blowing up the Sun,” Harry observed, then caught himself. “But that’s a
//pointless quibble, sorry, blowing up a country would also be bad, I agree. In
//any case, Professor, I don’t plan on doing anything like that.”
-- Цілих тридцять порядків різниці між цим та підриванням сонця, -- зазначив
Гаррі, але потім схаменувся: -- Але це безґлузде ухиляння від
суті, вибачте, підірвати країну було б теж поганим, я згоден. У будь-якому
разі, професоре, я не планую робити нічого такого.
//! hedrok: Гаррі зловив себе? :)

// 16870
//“Your choice is not required, Mr. Potter. If you had read more wizardborn
//novels and fewer Muggle stories, you would know. In serious literature the
//wizard whose foolishness threatens to unleash the Shambling Bone-Men will not
//be deliberately bent on such a goal, that is for children’s books. This truly
//dangerous wizard shall perhaps be bent on some project of which he anticipates
//great renown, and the certain prospect of losing that renown and living out his
//life in obscurity will seem to him more vivid than the unknown prospect of
//destroying his country. Or he shall have promised success to one he cannot bear
//to disappoint. Perhaps he has children in debt. There is much literary wisdom
//in those stories. It is born of harsh experience and cities of ash. The most
//likely prospect for disaster is a powerful wizard who, for whatever reason,
//cannot bring himself to halt as warning signs appear. Though he may speak much
//and loudly of caution, he will not be able to bring himself actually to halt. I
//wonder, Mr. Potter, have you thought of trying anything which Hermione Granger
//herself would have told you not to do?”
// hedrok "Your choice is not required" 092:16605
//@ kabakchey: Shambling Bone-Men:
//     https://www.fanfiction.net/s/4068153/1/Harry-Potter-and-the-Wastelands-of-Time
//     Українською нічого не знайшов, тому лишив ходячих мерців, хоч може це й не те.
// hedrok: Виправив на "Незграбний Кістяк" великими. Я цей фанфік не читав,
//         але "the" разом з великими літерами підказує, що це особиста назва.
//         Впевнений, ані нам, ані Гаррі не має бути зрозуміло, хто це такий,
//         тож переклав просто дослівно -- це ж теоретично якась казка, про яку
//         знають лише чаклуни.
-- Ваше рішення й не потрібне, містере Поттер. Якби ви читали
більше чаклунських романів та менше маґлівський історій, ви би знали. В
серйозній літературі чаклун, чия дурість погрожує випустити Незграбного Кістяка,
не буде свідомо йти до цієї мети, бо інакше це історія для дитячих
книжок. Цей по-справжньому небезпечний чаклун, швидше за все, буде схилений до
участі у якомусь проєкті, що може принести йому велику славу, і перспектива
втратити цю славу та жити своїм життям у тіні буде для нього значно чіткішою,
ніж можливість зруйнувати свою країну. Або ж він пообіцяє бути успішним тому,
кого він не в силах розчарувати. Або ж його діти комусь заборгували. У цих
історіях криється багато літературної мудрості. Вони були народжені з страшного
досвіду та перетворених на попіл міст. Найбільша ймовірність для виникнення
катастрофи -- це могутній чарівник, хто з будь-якої причини не зрозумів, що
треба зупинитися, коли зʼявився попереджувальний знак. Попри те, що він багато
й щиро говоритиме про безпеку, він не зможе зупинити себе. Цікаво, містере
Поттер, чи думали ви спробувати щось, що Герміона Ґрейнджер заборонила б вам
робити?

// 16871
//“All __right, __point taken,” said Harry. “Professor, I am well aware that
//if I save Hermione at the price of two other people’s lives, I’ve lost on total
//points from a utilitarian standpoint. I am __extremely__ aware that
//Hermione would not want me to risk destroying a whole country just to save her.
//That’s just common sense.”
-- Ну, __добре вже__, приймається, -- відповів Гаррі. -- Професоре, я
чудово усвідомлюю, що, врятувавши Герміону ціною двох інших життів, я програю
в загальному рахунку з утилітарної точки зору. Я __надзвичайно__ добре
усвідомлюю, що Герміона не захотіла б, щоб я ризикував цілою країною задля її
порятунку. Це просто здоровий ґлузд.
//! kabakchey: ґлузд лишаю як і всюди...
//! hedrok: дякую, колись я повернуся до того issue...
//! hedrok: про "point taken": це все ж таки згода, як на мене.

// 16872
//“Child who destroys Dementors,” said that soft voice, “if it were only one
//country I feared you might ruin, I would be less concerned. I did not at first
//credit that your knowledge of Muggle science and Muggle practices would be a
//source of great power. I now credit it more. I am, in complete sincerity,
//concerned for the safety of that golden plaque.”
-- Дитя, що знищує дементорів, -- почав мʼякий голос, -- якби я боявся, що
ти можеш зруйнувати лише одну країну, я би не був настільки занепокоєний. Я не
одразу зрозумів, що твоє знання маґлівської науки та маґлівських практик стане
джерелом великої сили. Тепер я віддаю цьому належне. Я, з усією щирістю,
занепокоєний безпекою тієї золотої пластинки.

// 16873
//“Well, if science fiction has taught me anything,” said Harry, “it’s taught me
//that destroying the Solar System is not morally acceptable, especially if you
//do it before humanity has colonized any other star systems.”
-- Ну, не дарма я читав стільки наукової фантастики, -- почав Гаррі, --
принаймні, вона навчила мене, що знищення Сонячної системи -- морально
неприйнятне, особливо раніше, ніж людство колонізує інші зіркові системи.
//! hedrok: ризикнув сильно переформулювати, бо всіх цих "так це тому, що" мені
//!         були не до вподоби.

// 16874
//“Then will you give up this -”
-- Тоді ви відмовитеся від цього...

// 16875
//“No,” Harry said without even thinking before he opened his mouth. After a
//moment, he added, “But I do understand what you’re trying to tell me.”
-- Ні, -- відрізав Гаррі, без жодної думки вимовивши це.
За мить він додав: -- Але я справді розумію, що саме ви намагаєтеся
донести до мене.

// 16876
//Silence. The stars had not shifted, not even as they would have in an Earthly
//night sky, over time.
Тиша. Зірки не зсунулися, як би це сталося на земному нічному небі протягом
розмови.

// 16877
//A very slight rustle, as of someone shifting their body. Harry realized that he
//had been standing for a while in the same position, and dropped down to the
//almost unseeable circle of grass that still stayed beneath him, careful not to
//touch the edges of the spell.
Пролунав легкий шелест, наче хтось посунув своє тіло. Гаррі усвідомив, що він
весь цей час стояв, не ворухнувшись, і обережно, не торкаючись
краю, спустився на ледь помітне коло трави, що залишалося під ним.

// 16878
//“Tell me this,” said the soft voice. “Why does that girl matter to you so
//much?”
-- Скажіть мені ось що, -- почав мʼякий голос. -- Чому ця дівчина така важлива
для вас?

// 16879
//“Because she is my friend.”
-- Бо вона мій друг.

// 16880
//“In the English language as it is customarily used, Mr. Potter, the word
//‘friend’ is not associated with a desperate effort to raise the dead. Are you
//under the impression that she is your true love, or some such?”
-- У буденному вжитку, містере Поттер, слово "`друг`" не
повʼязують з відчайдушними спробами оживити мертвих. Чи може ви вважаєте, що
вона є вашим справжнім коханням, чи щось таке?
//!hedrok: я зазвичай опускаю "англійську", хоч і не додаю "українську". Бо ось
//         слова "друг" в англійській немає :)

// 16881
//“Oh, not you too,” Harry said wearily. “Not you of all people, Professor. Fine,
//we’re best friends, but that’s __all,__ okay? That’s enough. Friends don’t
//let friends stay dead.”
-- Ох, тільки не ви теж, -- втомлено відповів Гаррі. -- Тільки не ви,
професоре, з усіх людей. Добре, ми -- найкращі друзі, але на цьому __все__,
добре? Досить. Друзі не дозволяють друзям залишатися мертвими.

// 16882
//“Ordinary folk do not do as much, for those they call friends.” The voice
//sounded more distant now, abstracted. “Not even for those they say they love.
//Their companions die, and they do not go in search of power to resurrect them.”
-- Прості люди не йдуть аж так далеко для тих, кого вони кличуть друзями, --
голос звучав трохи віддалено зараз, відокремлено. -- І навіть для тих, кого
як вони кажуть, вони люблять. Їхні супутники помирають, і вони не шукають
сили, щоб воскресити їх.

// 16883
//Harry couldn’t help himself. He looked over again, despite knowing it would be
//futile, and saw only more stars. “Let me guess, from this you deduce that…
//people don’t actually care as much about their friends as they pretend.”
Гаррі не зміг себе втримати. Він знову озирнувся, знаючи що це марно, і він
побачить лише більше зірок.

-- Дайте здогадаюся -- з цього ви робите висновок, що... людям насправді
байдуже щодо своїх друзів, вони лише вдають почуття.
//@ kabakchey: все ж "турбуються" чи "піклуються"? Тут і далі за текстом.
//! hedrok: Щось у мене літературний настрій зранку... Але підібрати просто
//!         нормальне слово для перекладу "care" мені не вдалося... (це, напевно,
//!         сумно?..)

// 16884
//A brief laugh. “They would scarcely pretend to care __less__.”
Пролунав короткий сміх.

-- Більшу байдужість __захочеш__ вдати -- не вийде.

// 16885
//“They care, Professor, and not just for their true loves. Soldiers throw
//themselves on grenades to save their friends, mothers run into burning houses
//to save their children. But if you’re a Muggle you don’t think there’s any such
//thing as magic to bring someone back to life. And normal wizards don’t…
//__think outside the box__ like that. I mean, most wizards aren’t searching
//for power to make __themselves__ immortal. Does that prove they don’t care
//about their own lives?”
-- Їм не байдуже, професоре, і не лише щодо своїх коханих. Солдати кидаються
на гранати, щоб врятувати друзів, матері забігають у палаючий будинок,
щоб врятувати дітей. Але, якщо ти маґл, то ти не знаєш, що існує така
штука як магія, щоб оживити когось. А звичайні чаклуни не можуть... __мислити
нешаблонно__ в цьому напрямку. Тобто більшість чарівників не шукають
можливості зробити __себе__ безсмертними. Чи це доводить, що їм начхати й
на власне життя?

// 16886
//“As you say, Mr. Potter. Certainly I myself would consider their lives
//pointless and without a shred of value. Perhaps, somewhere in their hidden
//hearts, they also believe that my opinion of them is the correct one.”
-- Як скажете, містере Поттер. Безумовно, я би оцінив їхні життя як безґлузді
та позбавлені усілякої цінності. Можливо, десь глибоко всередині вони теж
погоджуються, що моя думка про них є правильною.

// 16887
//Harry shook his head, and then, in annoyance, cast back the hood of his Cloak,
//and shook his head again. “That seems like a rather __contrived__ view of
//the world, Professor,” said the dim-lit head of a boy, floating unsupported on
//a circle of dark grass amid stars. “Trying to invent a resurrection spell just
//isn’t something normal people would think of, so you can’t deduce anything from
//their not taking the option.”
Гаррі захитав головою, а потім у роздратуванні скинув каптура свого Плаща та
захитав головою ще раз.

-- Це звучить як __притягнуте за волосся__ бачення світу, професоре, -- промовила
ледь освітлена голова хлопчика, що висіла без підтримки над колом темної трави
серед зірок. -- Спроби винайти закляття для воскресіння не є чимось, що прості
люди розглянули б, тому ви не можете робити ніяких висновків з того, що вони не
скористалися цією можливістю.

// 16888
//A moment later, the dim-lit outline of a man sitting on the circle of grass was
//visible as well.
За якусь мить ледь освітлений силует чоловіка, що сидів на колі трави,
також став видимий.
//! kabakchey: "ледь освітлений" тут і далі
//! hedrok: мені ок. Але цікаво, що я вважав, що лише Гаррі на колі трави...

// 16889
//“If they __truly__ cared about their supposed loved ones,” the Defense
//Professor said softly, “they would think of it, would they not?”
-- Якби вони __насправді__ піклувалися про своїх нібито коханих, --
мʼяко промовив професор із захисту, -- то вони б подумали про цей варіант,
чи не так?

// 16890
//“Brains don’t work that way. They don’t suddenly supercharge when the stakes go
//up - or when they do, it’s within hard limits. I couldn’t calculate the
//thousandth digit of pi if someone’s life depended on it.”
-- Мізки працюють зовсім не так. Вони не можуть несподівано підвищити свою
потужність, коли ставки стають високими... чи скоріш, вони підвищують її, але
у дуже жорстких рамках. Я б не зміг розрахувати тисячу розрядів числа пі,
навіть якби чиєсь життя від цього залежало.

// 16891
//The dim-lit head inclined. “But there is another possible explanation, Mr.
//Potter. It is that people play the __role__ of friendship. They do just as
//much as that role requires of them, and no more. The thought occurs to me that
//perhaps the difference between you and them is not that you care more than they
//do. Why would you have been born with such unusually strong emotions of
//friendship, that you alone among wizardkind are driven to resurrect Hermione
//Granger after her death? No, the most likely difference is not that you care
//more. It is that, being a more logical creature than they, you alone have
//thought that playing the role of Friend would require this of you.”
Ледь освітлена голова нахилилася убік:

// hedrok: копія в 096:16941
-- Але є й інше можливе пояснення, містере Поттер. Можливо, люди __грають
роль__ друга. Вони роблять тільки те, що вимагає від них роль, але не більше.
Мені спадає на думку, що різниця між вами й ними не в тому, що
ви піклуєтеся більше, ніж вони. Чого б це ви народилися з таким незвично
сильним відчуттям дружби, що ви єдині серед чаклунського світу жадаєте
воскресити Герміону Ґрейнджер після її смерті? Ні, найбільш ймовірна різниця
не в тому, що ви піклуєтеся більше. А в тому, що ви, будучи більш логічною
істотою, ніж вони, єдиний, хто вирішив, що цього вимагає роль друга.

// 16892
//Harry stared out at the stars. He would have been lying if he’d claimed not to
//be shaken. “That… can’t be true, Professor. I could name a dozen examples in
//Muggle novels of people driven to resurrect their dead friends. The authors of
//those stories clearly understood exactly how I feel about Hermione. Though you
//wouldn’t have read them, I guess… maybe Orpheus and Eurydice? I didn’t actually
//read that one but I know what’s in it.”
Гаррі подивився на зірки. Було б брехнею сказати, що його це не зачепило.

-- Це... не може бути правдою, професоре. Я можу назвати з десяток прикладів
людей з маґлівських творів, хто хотів воскресити їхніх мертвих друзів. Автори
цих історій чітко розуміли, що я відчуваю щодо Герміони. Але ж ви, напевно, не
читали їх, гадаю... може "`Орфе{stress}й і Евріді{stress}ка`"? Насправді,
я цього не читав, але знаю зміст.

// 16893
//“Such tales are also told among wizardkind. There is the story of the Elric
//brothers. The tale of Dora Kent, who was protected by her son Saul. There is
//Ronald Mallett and his doomed challenge to Time. In Sicily before its fall, the
//drama of Precia Testarossa. In Nippon they tell of Akemi Homura and her lost
//love. What these stories have in common, Mr. Potter, is that they are all
//__fiction.__ Real-life wizards do not attempt the same, even though the
//notion is clearly __not__ beyond their imagination.”
// kabakchey: Elric brothers: https://uk.wikipedia.org/wiki/Сталевий_алхімік
// kabakchey: Dora Kent: https://en.wikipedia.org/wiki/Dora_Kent
// kabakchey: Ronald Mallett: https://en.wikipedia.org/wiki/Ronald_Mallett
// kabakchey: Precia Testarossa: https://uk.wikipedia.org/wiki/Mahō_Shōjo_Ririkaru_Nanoha
// kabakchey: Akemi Homura: https://uk.wikipedia.org/wiki/Mahou_Shoujo_Madoka_Magica
-- Такі історії також популярні серед чаклунської спільноти. Є історія про
братів Елріків. Історія Дори Кент, яку намагався врятувати її син Сол. Ще є
Рональд Маллет та його приречене змагання з Часом. На Сицилії до її падіння
існувала драма Преші Тестаросси. У Японії розповідають про Акемі Хомуру та її
втрачене кохання. І всі ці історії обʼєднує те, містере Поттер, що вони
є __вигадкою__. В реальному житті чаклуни не намагаються цього зробити, хоч
це точно __не є__ для них чимось, що неможливо уявити.
//! kabakchey: Не всі історії вигадані, лол. Холі шит, скільки ще референсів тут закопано?
//! hedrok: забагато, як на мене :)
//!         такі посилання варто залишати, а не зі знаком оклику - я переніс

// 16894
//“Because they don’t think they __can!__” Harry’s voice rose.
-- Бо вони гадають, що це __неможливо__! -- підвищив тон Гаррі.

// 16895
//“Shall we go and tell the good Professor McGonagall about your intention to
//find a way to resurrect Miss Granger, and see what she thinks of it? Perhaps it
//has simply never occurred to her to consider that option… Ah, but you hesitate.
//You already know her answer, Mr. Potter. Do you know why you know it?” You
//could hear the cold smile in the voice. “A lovely technique, that. Thank you
//for teaching it to me.”
// @ hedrok: Якщо хтось підкаже, про що йдеться (коли Гаррі навчив професора
//           Квірела цьому прийому), буду вдячний.
-- Тоді може нам варто піти до доброї професорки Макґонеґел та розповісти
про ваші наміри знайти спосіб повернути до життя Герміону Ґрейнджер та
подивитися, що вона про це думає? Можливо, у неї ніколи не виникала думка
дослідити цю можливість... Ага, але ж ви вагаєтеся. Ви вже знаєте її відповідь,
містере Поттер. Чи здогадуєтеся, чому ви це знаєте? -- холодну посмішку можна
було розчути з голосу. -- Чудовий технічний прийом, до речі. Дякую, що навчили
мене його.

// 16896
//Harry was aware of the tension that had developed in his face, his words came
//out as though bitten off. “Professor McGonagall has not grown up with the
//Muggle concept of the increasing power of science, and nobody’s ever told her
//that when a friend’s life is at stake is a time when you need to __think
//very rationally__ -”
Гаррі усвідомлював напруження, що змінило вираз його обличчя, його слова
вийшли різкими:

-- Професорка Макґонеґел не росла з маґлівським концептом зростаючої сили
науки, ніхто ніколи не казав їй, що коли на кону життя друга, то тобі
потрібно __мислити дуже раціонально__...

// 16897
//The Defense Professor’s voice was also rising. “The Transfiguration Professor
//is __reading from a script,__ Mr. Potter! That script calls for her to
//mourn and grieve, that all may know how much she cared. Ordinary people react
//poorly if you suggest that they go off-script. As you already knew!”
Тон професора із захисту теж підвищувався.

-- Професорка трансфігурації __діє за сценарієм__, містере Поттер! Цей сценарій
вимагає від неї тужити й горювати, це все, на чому стоїть її турбота. Прості
люди недобре реагують, коли пропонуєш їм відійти від сценарію. Ви вже знаєте це!

// 16898
//“That’s funny, I could have sworn I saw Professor McGonagall going off-script
//at dinner yesterday. If I saw her go off-script another ten times I might
//actually try to talk to her about resurrecting Hermione, but right now she’s
//new to that and needs practice. In the end, Professor, what you’re trying to
//explain away by calling love and friendship and everything else a lie is just
//__human beings not knowing any better.__”
-- Кумедно, можу заприсягтися, що бачив, як професорка Макґонеґел пішла
не за сценарієм під час вчорашньої вечері. Якщо побачу, що вона відходить
від сценарію ще разів з десять, я може й справді спробую поговорити з нею про
можливість воскресіння Герміони, але наразі вона ще новачок у цьому й потребує
практики. Зрештою, професоре, все те, що ви намагаєтеся використати як
свідчення того, що любов, дружба та все інше -- лише брехня, насправді випливає
з того, що __людські істоти не знають кращого__.

// 16899
//The Defense Professor’s voice rose in pitch. “If it were you who had been
//killed by that troll, it would not even __occur__ to Hermione Granger to
//do as you are doing for her! It would not occur to Draco Malfoy, nor to Neville
//Longbottom, nor to McGonagall or any of your precious friends! There is not one
//person in this world who would return to you the care that you are showing her!
//So __why?__ Why do it, Mr. Potter?” There was a strange, wild desperation
//in that voice. “Why be the only one in the world who goes to such lengths to
//keep up the pretense, when none of them will ever do the same for you?”
Голос професора із захисту досяг піку.

-- Якби це тебе убив той троль, то в Герміони Ґрейнджер навіть не __виникла__
б думка робити те, що ти робиш для неї! Вона б не виникла ані в Драко Мелфоя,
ані в Невіла Лонґботома, ані в Макґонеґел -- у жодного з твоїх дорогоцінних друзів!
Не існує жодної людини, що повернула б тобі всю турботу, що ти виявляєш до
неї! То __навіщо ж__? Навіщо це робити, містере Поттер? -- був дивний, дикий
розпач у цьому голосі. -- Навіщо бути єдиним у світі, хто зробить так багато
лише для вдавання дружби, хоча ніхто з них ніколи не зробить того ж для
тебе?
//! hedrok: go to such lengths to keep up the pretense: йдеться знову про
//!         вдавання.

// 16900
//“I believe you are factually mistaken, Professor,” Harry returned evenly.
//“About a number of things, in fact. At the very least, your model of my
//emotions is flawed. Because you don’t understand me the tiniest bit, if you
//think that it would stop me if everything you said was __true.__
//Everything in the world has to start somewhere, every event that happens has to
//happen for a first time. Life on Earth had to start with some little
//self-replicating molecule in a pool of mud. And if I were the first person in
//the world, no -”
-- Я певен, що ви фактично помиляєтеся, професоре, -- рівно відповів Гаррі. --
Щодо багатьох речей, насправді. Ваша модель моїх емоцій недосконала. Бо
ви не розумієте мене ні на краплину, якщо вважаєте, що я б зупинився, якби все,
що ви кажете, було __правдою__. Все у світі має починатися з чогось, кожна
подія має трапитися вперше. Життя на Землі мало початися з однієї
дрібної самовідтворювальної молекули в калюжі з багнюкою. І, якби я був першою
у світі особою, ні...

// 16901
//Harry’s hand swept out, to indicate the terribly distant points of light.
Руки Гаррі спітніли, виблискуючи від жахливо далеких точок світла.

// 16902
//“- if I were the first person in the __universe__ who ever really cared
//about someone else, which I’m __not__ by the way, then I’d be honored to
//be that person, and I’d try to do it justice.”
-- ...якби я був першою особою у __всесвіті__, хто по-справжньому піклується
про когось іншого, а я, до речі, __не перший__, то я пишався б цим, і
доклав би всіх зусиль.
//! kabakchey: justice - не зрозумів цієї частини.
//! hedrok: to do oneself justice = показати себе якнайкраще.
//!         гадаю, тут це значення.

// 16903
//There was a long silence.
Запала довга тиша.

// 16904
//“You truly do care about that girl,” the man’s dim outline said softly. “You
//care about her in the way that none of __them__ are capable of caring for
//their own lives, let alone each other.” The Defense Professor’s voice had
//become strange, filled with some indecipherable emotion. “I do not understand
//it, but I know the lengths you will go to because of it. You will challenge
//death itself, for her. Nothing will sway you from that.”
-- Ви таки по-справжньому піклуєтеся за цією дівчиною, -- мʼяко мовив
затінений силует чоловіка, -- Ви піклуєтеся про неї так, як ніхто з __них__ не
здатен піклуватися про себе, не кажучи вже про піклування про інших, -- голос
професора із захисту став дивним, наповненим якоюсь нерозбірливою емоцією. -- Я
цього не розумію, але я знаю, що ви здатні зробити через це. Задля неї ви кинете
виклик самій смерті. Ніщо не похитне вашої рішучості.
//! hedrok: коли Волдеморт кричав, гадаю, він таки вийшов з ролі, і перейшов на
//! "ти". Але тут вони вже довго помовчали, Волдеморт усе обміркував, і, гадаю,
//! саме протягом цієї тиші він вирішив убити Гаррі. Далі він розмовляє
//! спокійно, тож усюди ставлю "ви".

// 16905
//“I care enough to make an actual effort,” Harry said quietly. “Yes, that is
//correct.”
-- Я піклуюся достатньо, щоб докласти справжні зусилля, -- тихо додав Гаррі.
-- Так, це коректно.

// 16906
//The starlight slowly began to fracture, the world shining through the cracks;
//slashes through the night showing treetrunks and leaves glowing in the
//sunlight. Harry raised a hand, blinking hard, as the returning brightness
//smashed into his dark-adjusted eyes; and his eyes automatically went to the
//Defense Professor, just in case an attack occurred while he was blinded.
Зоряне світло потроху почало ламатися, світ почав просочуватися крізь тріщини,
крізь розлами темряви проглядалися стовбури дерев та листя, осяяні сонячним
промінням. Гаррі підняв руку та заклі{stress}пав, коли світло вдарило у його
настроєні на темряву очі. І його очі автоматично поглянули на професора із
захисту на випадок, якщо атака здійсниться, поки він засліплений.

// 16907
//When all the stars had gone and only daylight remained, Professor Quirrell was
//still sitting on the grass. “Well, Mr. Potter,” he said in his normal voice,
//“if that is so, then I shall give you what help I can, while I can.”
Коли всі зірки зникли й лишилося лише денне світло, професор Квірел досі
сидів на траві.

-- Що ж, містере Поттер, -- почав він своїм звичним голосом, -- якщо це так,
то надам вам усю допомогу, що зможу, поки ще можу.

// 16908
//“You’ll __what?__” Harry said involuntarily.
-- __Що__ ви зробите? -- несвідомо випалив Гаррі.

// 16909
//“My offer as I made it yesterday still stands. Ask and I will answer. Show me
//the same science books you deemed suitable for Mr. Malfoy, and I shall look
//them over and tell you what comes to mind. Don’t look so surprised, Mr. Potter,
//I would hardly leave you to your own devices.”
-- Моя вчорашня пропозиція досі діє. Спитайте, і я відповім. Покажіть мені
ті ж наукові книжки, що ви підібрали для містера Мелфоя, і я прогляну їх, і
повідомлю, що приходить на думку. Не дивіться так здивовано, містере Поттер,
я не смію залишити вас сам на сам з цією задачею.

// 16910
//Harry stared, tear ducts still watering from the sudden light.
Гаррі витріщився, сльози все ще сочилися від раптового світла.

// 16911
//Professor Quirrell looked back at him. Something strange glinted in the pale
//eyes. “I have done what I can, and now I fear I must take my leave of you. Good
//-” and the Defense Professor hesitated. “Good day, Mr. Potter.”
Професор Квірел подивився на нього у відповідь. Щось дивне блиснуло у тьмяних
очах.

-- Я зробив все що міг, і тепер, боюся, я маю залишити вас. Доброго... --
професор із захисту завагався. -- Доброго дня, містере Поттер.

// 16912
//“Good -” Harry began.
-- Доброго... -- почав Гаррі.

// 16913
//The man sitting on the grass fell over, his head impacting the ground with a
//light thud. At the same time the sense of doom diminished so sharply that Harry
//leapt to his feet, his heart suddenly in his throat.
Чоловік, що сидів на траві, відкинувся, його голова вдарилася об землю з легким
стуком. У ту ж мить лиховісне передчуття зникло так різко, що Гаррі
плигнув на місці, а серце майже вирвалося з грудей.

// 16914
//But the figure on the ground slowly pushed back up to a crawling position.
//Turned to look at Harry, eyes empty, mouth slack. Tried to stand, fell back to
//the ground.
Фігура на землі повільно підвелася на карачки. Подивилася на Гаррі порожніми
очима, рот відкрився. Спробувала підвестися на ноги, знову впала на землю.

// 16915
//Harry took a step forward, sheer instinct telling him to offer a hand, although
//that was incorrect; the apprehension that rose up in him, however faint, spoke
//of continued danger.
Гаррі зробив крок уперед, щирий інстинкт штовхав його запропонувати допомогу,
але це було неправильно. Занепокоєння, що наростало у ньому, хай яке слабке,
не лишало сумнівів, що небезпека досі існує.
//!hedrok: ні, не поступилося. Лиховісне передчуття зникло - Гаррі злякався,
//!        що Квірел помер. Він почав рух до Квірела, і відчув sense of doom
//!        знову, тож наближатися небезпечно.

// 16916
//But the fallen figure flinched away from Harry, and then slowly began crawl to
//away from him, in the general direction of the distant castle.
Але впала фігура відсахнулася від Гаррі, і потім повільно почала відповзати
від нього, прямісінько в бік віддаленого замку.

// 16917
//The boy standing amid the forest gazed after.
Хлопчик, стоячи посеред лісу, залишився проводжати її поглядом.
