// 16918
//== Roles, Pt 7
== Розділ 96. Ролі, ч.7

// 16919
//__A/N: For those who have not read canon: The wooden sign has somewhat
//changed, but the inscription here is the same as in J.K. Rowling’s original.__
__Примітка автора: для тих, хто не читав канон: деревʼяний знак дещо змінено,
проте епітафія така саме, як в оригіналі Джоан Кетлін Ролінґ.__

***

// 16920
//__The fourth meeting:__
__Четверта зустріч:__

// 16921
//__(4:38pm, April 17th, 1992)__
__(17 квітня 1992 16:38)__

// 16922
//The man wearing the worn, warm coat, with three faint scars etched forever into
//his cheek, observed Harry Potter as closely as he could while the boy looked
//around politely at the rows of cottages. For someone whose best friend had died
//yesterday, Harry Potter seemed strangely composed, though not in any way
//reminiscent of unfeelingness, or normality. __I don’t wish to talk about
//that,__ the boy had said, __with you or anyone.__ Saying ‘wish’ and not
//‘want’, as though to emphasize that he was able to use grownup words and make
//grownup decisions. There had been only one thing Remus Lupin had thought of
//that might help, after he’d received the owls from Professor McGonagall and
//that strange man Quirinus Quirrell.
Чоловік у зношеному теплому пальті, на щоці ледь проступають
три застарілі шрами. Він якнайпильніше спостерігає за Гаррі, доки хлопчик
ввічливо оглядає ряди котеджів. Як на людину, що в неї ото вчора загинув
найкращий друг, Гаррі Поттер видавався на диво зібраним, утім, враження,
начебто йому не боляче, а чи то все взагалі нормально, -- ні, такого теж нема.
"`Я не бажаю говорити про це, -- сказав був хлопець, -- ані з вами, ані з
будь-ким іншим`". Він сказав "`бажаю`" замість звичного "`хочу`", наче задля
демонстрації, мовляв, я можу користуватися дорослими словами і приймати дорослі
рішення. Отримавши сов від професорки Макґонеґел і того дивака, Квіріна
Квірела, Ремус Люпин зміг вигадати лише один спосіб, що міг би допомогти.

// 16923
//“There’s a lot of empty houses,” the boy said, glancing around again.
-- Тут багацько порожніх будинків, -- сказав хлопець, знову роззирнувшись
довкола.

// 16924
//Godric’s Hollow had changed, in the decade since Remus Lupin had been a
//frequent visitor. Many of the old, peaked cottages looked deserted, with green
//leafy vines growing across their windows and their doors. Britain had
//contracted noticeably, in the aftermath of the Wizarding War, having lost not
//only the dead but the fled. Godric’s Hollow had been hard-hit. And afterward
//still more families had moved elsewhere, to Hogsmeade or magical London, the
//deserted houses too uncomfortable a reminder.
Ґодрикова долина сильно змінилася протягом десяти років, що минули відколи
Ремус Люпин був тут частим гостем. Багато гостроверхих будинків наче закинуті
були, їхні вікна й двері були зарослі зеленолистою лозою. Британія відчутно
стиснулася внаслідок Чаклунської війни, втративши не лише загиблих людей, а ще й
біженців. Ґодрикова долина сильно постраждала. А потім ще
більше родин переїхали деінде, до Гоґсміду, чи до магічного Лондона, адже вид
порожніх будівель навіював важкі спогади.

// 16925
//Others had remained. Godric’s Hollow was older than Hogwarts, older than Godric
//Gryffindor whose name it had taken, and there were families which would reside
//here until the end of the world and its magic.
Інші були залишились. Ґодрикова долина була старша за Гоґвортс, старша за
Ґодрика Ґрифіндора, що його ім'я була взяла, і деякі роди ніколи її не
покинуть, аж доки не скінчиться світ і вся його магія.

// 16926
//The Potters had been one such family, and would be again, if the last Potter so
//chose.
Поттери були колись однією з таких родин, і стануть знову, якщо так захоче
останній з Поттерів.


// 16927
//Remus Lupin tried to explain all that, simplifying it as best he could for the
//young boy. The Ravenclaw nodded thoughtfully and said nothing, as though he had
//understood it all without need of questions. Perhaps that was so; the child of
//James Potter and Lily Evans, the Head Boy and Head Girl of Hogwarts, would
//hardly be stupid. The child had certainly seemed highly intelligent, for the
//little time that they had spoken in January, though at that time Remus had done
//most of the talking.
Ремус Люпин спробував пояснити це все, якомога простіше, як для юного
хлопчика. Рейвенкловець задумливо кивав і нічого не казав, так, наче все
розумів без зайвих питань. Можливо так і було; син Джеймса Поттера й Лілі
Еванс, двох старост школи, навряд чи якийсь дурень. Насправді, дитина
справила враження вкрай розумної, за той короткий час що вони спілкувалися в
січні, хоча говорив тоді здебільшого сам Ремус.

// 16928
//(There was also that business with the Wizengamot which Remus had heard rumors
//about, but Remus didn’t believe a single word of that, any more than he’d
//believed it about James betrothing his son to Molly’s youngest.)
(До Ремуса дійшли були чутки про ту справу з Чарверсуду, але Ремус не вірив
жодному слову з тих пліток; так само, як і не вірив, нібито Джеймс посватав
свого сина за молодшу доньку Моллі.)

// 16929
//“There’s the monument,” Remus said, pointing ahead of them.
-- Он пам'ятник, -- сказав Ремус, вказавши попереду їхнього шляху.

// 16930
//Harry walked beside Mr. Lupin toward the black marble obelisk, thinking
//silently. It seemed to Harry that this adventure was essentially misguided; he
//had no use for grief counseling, that was not Harry’s chosen path. So far as
//Harry was concerned, the five stages of grief were Rage, Remorse, Resolve,
//Research, and Resurrection. (Not that the usual ‘five stages of grief’ had any
//experimental evidence whatsoever that Harry had ever heard about.) But Mr.
//Lupin had seemed too sincere to refuse; and visiting James and Lily’s home was
//something Harry felt he ought not to turn down. So Harry walked, feeling oddly
//detached; walking silently through a play whose script he was not interested in
//reading.
Гаррі йшов поряд із містером Люпином до чорного мармурового обеліска й
міркував собі. Гаррі здавалося, що всю цю пригоду було організовано намарно;
йому не потрібна була допомога у подоланні свого горя, не цей шлях Гаррі був
обрав. Для Гаррі п'ять стадій горя були: Лють, Жаль, Рішучість, Дослідження та
Воскресіння. (А щодо традиційних п'яти стадій горя, Гаррі не пригадував був
жодного експериментального свідчення на користь їхнього існування.) Але містер
Люпин занадто щиро хотів допомогти, і Гаррі не зміг йому відмовити; він
відчував, що не має права відмовлятися від навідування домівки Джеймса й Лілі.
Тож Гаррі йшов, почуваючись якимось відстороненим; ніби тихо йде п'єсою із
нецікавим сценарієм.

// 16931
//Harry had been told that he wasn’t to wear the Cloak of Invisibility for this
//journey, so that Mr. Lupin could keep track of him.
Гаррі сказали, що не можна одягати Плащ невидимості в цю подорож, щоб містер
Люпин міг за ним доглядати.

// 16932
//Harry was morally certain that Dumbledore, or both Dumbledore and Mad-Eye
//Moody, were following them invisibly to see if anyone tried for the bait. There
//was no way Harry would have been let out of Hogwarts with only Remus Lupin for
//a guard. Harry didn’t expect anything to happen, though. He’d seen nothing to
//contradict the hypothesis that all the danger centered on Hogwarts and only
//Hogwarts.
Внутрішньо Гаррі не сумнівався, що Дамблдор, чи Дамблдор разом із Дикозором,
крадькома йдуть за ними, вичікують -- чи не спіймається хтось на гачок. Гаррі
в жодному разі не випустили б з Гоґвортсу із самим Ремусом Люпином за охоронця.
Гаррі, втім, не очікував якихось пригод. Поки що все свідчило лише на користь
тій його гіпотезі, начебто вся небезпека була зосереджена в Гоґвортсі й лише
в Гоґвортсі.


// 16933
//As the two of them walked closer toward the center of town, the marble obelisk
//transformed into -
Коли вони наблизилися до центрального майдану міста, мармуровий обеліск
перетворився на...

// 16934
//Harry drew in a breath. He’d been expecting a heroic pose of James Potter with
//wand leveled against Lord Voldemort, and Lily Potter with arms outstretched in
//front of the crib.
Гаррі затамував подих. Він очікував був мармурового Джеймса Поттера в
героїчній позі, з паличкою, спрямованою на лорда Волдеморта; мармурову Лілі
Поттер, що її простягнуті руки закривають колиску.

// 16935
//Instead there was a man with untidy hair and glasses, and a woman with her hair
//let down and a baby in her arms, and that was all.
Натомість там стояли чоловік з неслухняним волоссям і в окулярах, та жінка з
довгим волоссям і дитиною на руках, і все.

// 16936
//“It looks very… normal,” Harry said, feeling an odd catch in his throat.
-- Виглядає так... звичайно, -- сказав Гаррі, і в горлі йому щось стиснулось.

// 16937
//“Madam Longbottom and Professor Dumbledore put their foot down hard,” said Mr.
//Lupin, who was looking more at Harry than at the monument. “They said that the
//Potters should be remembered as they had lived, not as they had died.”
-- Мадам Лонґботом і професор Дамблдор наполягали на цій сцені, --
сказав Люпин, дивлячись більше на Гаррі, ніж на пам'ятник. -- Вони сказали, що
Поттерів слід пам'ятати так, як вони жили, а не як померли.

// 16938
//Harry looked at the statue, thinking. Very strange, to see himself as a baby of
//stone, with no scar upon his forehead. It was a glimpse at an alternate
//universe, one where Harry James Potter (no Evans-Verres to his name) became an
//intelligent but ordinary wizarding scholar, maybe Sorted into Gryffindor like
//his parents. A Harry Potter who grew up a proper young wizard, knowing little
//of science for all that his mother was Muggleborn. Ultimately changing… not
//much. James and Lily wouldn’t have raised their son with what Professor
//Quirrell would have called __ambition__ and what Professor Verres-Evans
//would have called __the common endeavor.__ His birth parents would have
//loved him very much, and that would not have been much help to anyone in the
//world except Harry. If someone had undone their death -
Гаррі дивився на статую і думав. Дивно, бачити себе немовлям з каменя, без
шраму на лобі. Ніби крадькома зазираєш в альтеративний всесвіт, де Гаррі Джеймс
Поттер (без Еванса-Верреса) став розумним, але пересічним чаклунським
вченим, либонь, ґрифіндорцем, як і його батьки. Цей Гаррі Поттер став би
непоганим молодим чаклуном, знав би трошки про науку від матері маґлівського
роду. Зрештою він би... майже не змінився. Джеймс і Лілі не плекали б у свого
сина тієї якості, що Квірел назвав би __амбіційністю__ а професор Веррес-Еванс
-- __звичайною старанністю__. Його батьки по народженню дуже б його любили, і це
нікому б у світі не допомогло, окрім Гаррі. Якби хтось скасував їхню смерть...

// 16939
//“You were their friend,” Harry said, turning to look at Lupin. “For a long
//time, since you were children.”
-- Ви були їхнім другом, -- сказав Гаррі, повернувшись до Люпина. -- Старим
другом, ще з дитинства.

// 16940
//Mr. Lupin nodded silently.
Містер Люпин мовчки кивнув.

// 16941
//Professor Quirrell’s voice resounded in Harry’s approximate memory: __The
//most likely difference is not that you care more. Rather it is that, being a
//more logical creature than they, only you are aware that the role of Friend
//ought to require this of you…__
// hedrok: копія 095:16891
В голові Гаррі залунала промова професора Квірела, так, як він її запам'ятав:
__Найімовірніше, відмінність не в тому, що ви піклуєтеся більше. Радше, будучи
більш логічною істотою, ніж вони, лише ви розумієте, що цього вимагає роль
друга.__

// 16942
//“When Lily and James died,” Harry said, “did you think at all of whether there
//might be some magical way to get them back? Like Orpheus and Eurydice? Or the,
//what was it, Elrin brothers?”
// hedrok: Не знаю, як це Гаррі недочув "Елріків"...
-- Коли Лілі та Джеймс загинули, -- сказав Гаррі, -- ви не думали, що, можливо,
існує якийсь магічний спосіб повернути їх до життя? Як в історії про Орфея та
Еврідіку? Чи про братів Елрінів?

// 16943
//“There is no magic which can undo death,” Mr. Lupin said quietly. “There are
//some mysteries which wizardry cannot touch.”
-- Нема такої магії, що скасувала б смерть, -- тихо відповів містер Люпин. --
Існують такі таємниці, що чаклунська майстерність не здатна до них наблизитись.

// 16944
//“Did you do a mental check of what you thought you knew, how you thought you
//knew it, and how high the probability was of that conclusion?”
-- Чи перевірили ви подумки, що ви гадали, ви знали, і звідки, ви гадали, ви це
знали, та наскільки була висока ймовірність того висновку?

// 16945
//“What?” said Mr. Lupin. “Could you repeat that, Harry?”
-- Перепрошую? -- сказав містер Люпин. -- Повтори ще раз, будь ласка, Гаррі.

// 16946
//“I’m saying, did you think about it anyway?”
-- Кажу, ви взагалі про це замислювались тоді?

// 16947
//Mr. Lupin shook his head.
Містер Люпин похитав головою.

// 16948
//“Why not?”
-- А чому ні?

// 16949
//“Because it was already done, and over,” Remus Lupin said gently. “Because
//wherever James and Lily are now, they would wish me to act for the sake of the
//living, not the dead.”
-- Бо все вже сталося, і завершилося, -- м'яко мовив Ремус Люпин. -- Бо
хай де зараз Джеймс та Лілі, вони б хотіли, щоб я діяв заради живих,
а не померлих.

// 16950
//Harry nodded silently. He’d been pretty sure of the answer to that question
//before he’d asked. He’d already read that script. But he’d asked anyway, just
//in case Mr. Lupin had spent a week obsessing about it, because Harry could have
//been wrong.
Гаррі тихо кивнув. Він був більш-менш упевнений, що почує щось на цей кшталт.
Він уже читав був цей сценарій. Але все одно спитав, на той випадок, якщо
містер Люпин, навпаки, цілий тиждень не міг викинути з голови цих думок. Бо
Гаррі ж міг і помилятися.


// 16951
//The soft voice of the Defense Professor seemed to speak in Harry’s mind.
//__Surely, if Lupin truly cared, he would not need special instruction for
//something as simple as thinking for five minutes before giving up…__
Скрадливий голос професора із захисту наче прозвучав у Гаррі в голові:

__Звісно, якби Люпину насправді було не все одно, йому б не знадобилася
спеціальна вказівка, щоб п'ять хвилиночок обміркувати щось настільки просте,
перш ніж здаватися...__

// 16952
//__Yes, he would,__ Harry answered the mental voice. __Human beings
//wouldn’t suddenly obtain a skill like that just because they cared. I learned
//about it because I’d read library books, produced by a huge scientific edifice
//-__
__Та ні, без вказівки аж ніяк__, -- відповів Гаррі подумковому Квірелові. --
__Людські істоти не отримують таку навичку лише через те, що їм, бодай, не все
одно. Я навчився цього, бо читав був бібліотечні книги, продукт поважної
наукової школи...__

// 16953
//And that other part of Harry said, in that soft voice, __But there is
//also another hypothesis, Mr. Potter, and it fits the data in a much less
//complicated way.__
А та, інша частина Гаррі, провадила своє:

__Але ж існує інша гіпотеза, містере Поттер, і вона значно простіша та
відповідає даним. __

// 16954
//__No it doesn’t! How would people even know what to pretend, if nobody
//had ever cared?__
__Не простіша і не відповідає! Як би люди взагалі знали, що треба вдавати,
якби всім завжди було однаково?__

// 16955
//__They don’t know. That is what you observe.__
__А вони й не знають. Саме це ти й можеш спостерігати.__

// 16956
//The two of them walked onward toward a certain house, past a long row of
//occupied wizard cottages and other cottages overgrown with vines.
Удвох вони йшли вперед, до певного будинку, повз довжелезну шеренгу зайнятих
чаклунських осель і інших, зарослих виноградом.

// 16957
//Coming finally to the house with half its top blown off, and green leaves
//growing over into the inside; behind a shoulder-high wild-growing hedge lining
//the sidewalk, and a narrow metal gate (Mr. Hagrid had probably stepped right
//over it, being unable to fit through). The gap in the roof was like a giant
//mouth had taken a circular bite from the house, leaving spines of wood, what
//had maybe been support beams, sticking out. To the right side a single chimney
//still stood upright, uneaten by the giant bite, but leaning dangerously without
//its former support. Windows were shattered. Where there should have been a
//front door were only splinters of wood.
Нарешті вони прийшли -- до будинку, що йому знесло пів даху, а зелене лозіння
перелізло через стіни всередину. Будинок стояв за здичавілою зеленою огорожею
висотою по плече, що йшла вздовж тротуару, і за вузькими металевими ворітцями
(Містер Геґрід, певно, переступив би через них, не в змозі протиснутись між
стовпчиками). Пролам у даху виглядав так, ніби якась величезна ротяка відкусила
круглий шматок будинку, залишивши стирчати дерев'яний кістяк -- сво{stress}локи,
чи що. На правій стороні даху, досі цілий, стирчав димохід; його не зачепила
велетенська ротяка, але, позбавлений належної підтримки даху, він уже почав
небезпечно хилитися набік. Всі вікна були потрощені. На місці парадних дверей
бовваніла порожнеча.

// 16958
//To this place Lord Voldemort had come, __silently, making less noise than
//the dead leaves slithering along the pavement…__
Сюди прийшов був Волдеморт, __тихо, прошухротівши, як сухе листя по
доріжці...__

// 16959
//Remus Lupin put a hand upon Harry’s shoulder. “Touch the gate,” Mr. Lupin
//urged.
Ремус Люпин поклав руку Гаррі на плече.

-- Торкнись воріт, -- підказав містер Люпин.

// 16960
//Harry reached out a hand and did so.
Гаррі простягнув руку й торкнувся брами.

// 16961
//Like a fast-growing flower a sign burst from the tangled weeds in the ground
//behind the gate, a wooden sign with golden letters, and it said:
// hedrok "швидкоросла квітка" - канон
Як швидкоросла квітка з-посеред бур'янів, за воротами здійнявся
дерев'яний знак, на якому золотими літерами було написано:

// 16962
//On this spot, on the night of 31 October 1981,
На цьому місті, в ніч на 31 жовтня 1981 року,

// 16963
//Lily and James Potter lost their lives.
втратили свої життя Лілі та Джеймс Поттери.

// 16964
//They were survived by their son, Harry Potter,
Їх пережив їхній син, Гаррі Поттер,

// 16965
//the only wizard ever to withstand the Killing Curse,
єдиний в світі чарівник, що витримав смертельне прокляття,

// 16966
//the Boy-Who-Lived, who broke You-Know-Who’s power.
Хлопчик-Що-Вижив, який переміг силу Відомо-Кого.

// 16967
//This house has been left in its ruined state,
Цей будинок було навмисне залишено в його зруйнованому стані,

// 16968
//as a monument to the Potters,
як пам'ятник Поттерам,

// 16969
//as a reminder of their sacrifice.
і в пам'ять про їхню жертву.

// 16970
//In a blank space below the golden letters were written other messages, dozens
//of them, magical ink that rose to the surface and gleamed brightly enough to be
//read before fading and giving way to other messages.
На порожньому місці під золотими літерами мерехтіли інші написи, декілька
десятків. Написані магічним чорнилом, так, що кожен випливав на поверхню, яскраво
загорався, щоб його можна було прочитати, а потім зникав, поступаючись
наступним повідомленням.

// 16971
//So my Gideon is avenged.
Тож за мого Ґідеона помстилися.

// 16972
//Thank you, Harry Potter. Fare well wherever you are.
Дякую тобі, Гаррі Поттере. Здоров'я тобі, де б ти не був.

// 16973
//We will always be in the Potters’ debt.
Ми будемо завжди в боргу перед Поттерами.

// 16974
//Oh James, oh Lily, I am sorry.
О Джеймсе, о Лілі, мені так шкода.

// 16975
//I hope you’re alive, Harry Potter.
Я сподіваюся, що ти живий, Гаррі Поттере.

// 16976
//There is always a price.
У всього є своя ціна.

// 16977
//I wish our last words had been kinder, James. I’m sorry.
Хотів би я, щоб наша остання розмова була іншою, Джеймсе. Пробач мені.

// 16978
//There is always a dawn after the night.
На зміну ночі завжди приходить світанок.

// 16979
//Rest well, Lily.
Спочивай у спокої, Лілі.

// 16980
//Bless you, Boy-Who-Lived. You were our miracle.
Благослови тебе бог, Хлопчику-Що-Вижив. Ти був нашим дивом.

// 16981
//“I guess -” Harry said. “I guess that’s what people do - instead of trying to
//make it better -” Harry stopped. The thought seemed unworthy of this place. He
//looked up, and saw Remus Lupin gazing at him with a look so gentle that Harry
//wrenched his eyes away to the blasted and broken roof.
-- Гадаю... -- почав Гаррі. -- Гадаю люди роблять таке.... замість того щоб
щось поліпшити...

Тут він затнувся. Думка здалася йому негідною цього місця.
Він підвів погляд, побачив, з якою невимовною добротою дивиться на нього Люпин, і
одразу відвів очі, втупився у розламаний дах.

// 16982
//__You were our miracle.__ Harry had always heard the word ‘miracle’ in the
//context of how, in the natural universe, there was no such thing. And yet
//looking at the ruined house, he suddenly knew exactly what the word meant, the
//note of grace all unexplained, the blessing inexplicable. The Dark Lord had
//almost won, and then in one night all the darkness and terror had ended,
//salvation without justification, a sudden dawn from out of the darkness and
//even now nobody knew __why__ -
"`Ти був нашим дивом`". Гаррі завжди стикався зі словом "`диво`" в тому
контексті, що в природному всесвіті такого не існує. І все ж, стоячи перед
руїнами дому, він раптом зрозумів значення цього слова --
не пояснена милість, незбагненне благословення. Темний Лорд майже
переміг, аж раптом однієї ночі вся темрява і все жахіття закінчилися -- як
спасіння без приводу, як раптовий світанок з темряви, і навіть досі ніхто не
знає, __чому__...

// 16983
//If Lily Potter had lived beyond her confrontation with Lord Voldemort, she
//would have felt that way when she saw her baby alive, afterward.
Якби Лілі Поттер пережила своє зіткнення з лордом Волдемортом, вона б
почувалася саме так -- потім, дивлячись на свого живого сина.

// 16984
//“Let’s go,” whispered the baby boy, ten years later.
-- Ходімо звідси, -- прошепотів живий син, десять років потому.

// 16985
//They went.
І вони пішли.

// 16986
//The graveyard’s entrance was guarded by a lockless gate of the sort that kept
//out animals, with a place to stand while you moved the door from one side of
//the standing-place to the other. Remus took out his wand (Harry was already
//holding his) and there was a brief blur as they stepped through.
// hedrok @ про a place to stand не дуже уявляю.
Вхід на цвинтар боронили ворота без замка -- такі, щоб звірята не заходили, з
місцем, де можна стояти, доки пересуваєш двері з одного боку в інший. Ремус
дістав свою паличку (Гаррі свою вже тримав у руці); коли вони пройшли, вид на
секунду затьмарився.

// 16987
//Some of the stones rising up from the ground looked as old as the wall in
//Oxford that his father had said was around a thousand years old.
Деякі з каменів виглядали однолітками оксфордської стіни, що їй, тато казав
був, приблизно тисяча років.

// 16988
//__Hallie Fleming,__ said the first stone that Harry saw, in a carving
//almost invisibly faded with the erosion of time. __Vienna Wood,__ said
//another.
"`Галлі Флемінг`", -- вирізьблений напис на першому пам'ятнику, що побачив Гаррі,
майже розрівняний ерозією часу й ледь видимий.
"`Вієна Вуд`" -- наступний напис.

// 16989
//It had been a long time since Harry had visited a graveyard. His mind had still
//been childlike the last time he’d come to one, long before he’d seen within
//Death’s shadow. Coming here now was… strange, and sad, and puzzling, and
//__this has been happening for so long, why haven’t wizards tried to stop
//it, why aren’t they putting all their strength into that like Muggles do with
//medical research, only more so, wizards have more reason to hope…__
Останній раз Гаррі був на цвинтарі дуже давно. В його останній візит він був ще
дитиною, задовго до того, як він зазирнув за тінь смерті. Прийти сюди
тепер було... дивно, і сумно, і незрозуміло, і __це тривало так довго, чому
чаклуни не спинили це, чому вони не доклали всіх зусиль, як маґли з їхніми
медичними дослідженнями, чи то пак більше зусиль, бо в чаклунів є більше
приводів для надії__...

// 16990
//“The Dumbledores lived in Godric’s Hollow too?” Harry said, as they walked past
//a pair of relatively new stones saying __Kendra Dumbledore__ and
//__Ariana Dumbledore.__
-- Дамблдори теж жили в Ґодриковій Долині? -- спитав Гаррі; вони пройшли повз
два відносно нові могильні камені -- могилу "`Кендри Дамблдор`" та "`Аріани
Дамблдор`".

// 16991
//“For a long, long time,” Mr. Lupin said.
-- Дуже, дуже довго, -- сказав містер Люпин.

// 16992
//They walked further into the graveyard, far toward the end, past many deaths
//that had been mourned.
Вони зайшли вглиб цвинтаря, пройшли до дальньої стіни, повз чисельні оплакані
смерті.

// 16993
//Then Mr. Lupin pointed at a linked double headstone, of marble still white and
//unaged.
Тоді містер Люпин показав на подвійний, парний могильний камінь з досі білого
й незношеного мармуру.

// 16994
//“Are there going to be messages there?” Harry said. He didn’t want to deal any
//more with the way that other people dealt with death.
-- Тут теж будуть ті записки? -- спитав Гаррі.

Він не хотів більше бачити те, як інші люди переживають чиюсь смерть.

// 16995
//Mr. Lupin shook his head.
Містер Люпин похитав головою.

// 16996
//They walked toward the linked white stones.
Вони підійшли до пари білих каменів.

// 16997
//And stood before -
І стали перед...

// 16998
//“What is this?” Harry whispered. “Who… __who wrote this?__”
-- Що це? -- прошепотів Гаррі. -- Хто.. __хто написав це__?

// 16999
//JAMES POTTER
ДЖЕЙМС ПОТТЕР

// 17000
//BORN 27 MARCH 1960
НАРОДИВСЯ 27 БЕРЕЗНЯ 1960 РОКУ

// 17001
//DIED 31 OCTOBER 1981
ПОМЕР 31 ЖОВТНЯ 1981 РОКУ

// 17002
//“Wrote what?” said Mr. Lupin, puzzled.
-- Написав що? -- спантеличено перепитав містер Люпин.

// 17003
//LILY POTTER
ЛІЛІ ПОТТЕР

// 17004
//BORN 30 JANUARY 1960
НАРОДИЛАСЯ 30 СІЧНЯ 1960 РОКУ

// 17005
//DIED 31 OCTOBER 1981
ПОМЕРЛА 31 ЖОВТНЯ 1981 РОКУ

// 17006
//“__This!__” Harry cried. “The __inscription!__” There were tears
//welling up in Harry’s eyes, at the brightness out of place and unexplained, the
//touch of grace where no grace should have been, the mysterious blessing, tears
//welling up at
-- __Ось це!__ -- закричав Гаррі. -- Ось ця __епітафія__! -- в його очах стояли
сльози, сльози від яскравого спалаху, що він не очікував у цьому місці; від
доброго дотику в місці порожньому і самотньому; від магічного благословення.
Сльози лилися через

// 17007
//THE LAST ENEMY THAT SHALL BE DESTROYED IS DEATH
// hedrok: канон
// brownian: ко́му все одно треба
// hedrok: Ок, хоча в каноні вперто її не ставлять :)
ОСТАННІЙ ВОРОГ, ЯКОГО БУДЕ ЗНИЩЕНО, -- ЦЕ СМЕРТЬ.

// 17008
//“That?” Mr. Lupin said. “That’s the… motto, I suppose you could call it, of the
//Potters. Though I don’t think it was ever something as formal as that. Just a
//saying handed down from long, long ago…”
-- Це? -- уточнив містер Люпин. -- Це як... девіз, я гадаю, можна так сказати,
гасло Поттерів. Хоча, гадаю, це не було щось аж таке формальне. Просто
приказка, що передавалася з покоління в покоління, дуже, дуже довго...

// 17009
//“This - that -” Harry scrambled down to kneel beside the grave, touched the
//inscription with a trembling hand. “__How?__ Things like that can’t just
//be, be __genetic __-”
-- Це... це... -- Гаррі став на коліна перед могилою, торкнувся напису на камені
тремкими пальцями. -- __Як?__ Такі речі не можуть бути просто __генетичними__...

// 17010
//Then Harry saw what tears had blurred, the faint carving of a line, within a
//circle, within a triangle.
А тоді Гаррі побачив те, що сльози затьмарили були, -- тонке різьблення на
камені: лінія всередині кола всередині трикутника.

// 17011
//The symbol of the Deathly Hallows.
Символ Смертельних реліквій.

// 17012
//And Harry understood.
І Гаррі зрозумів.

// 17013
//“They tried,” Harry whispered.
-- Вони намагалися, -- прошепотів Гаррі.

// 17014
//__The three Peverell brothers.__
__Три брати Певерели.__

// 17015
//__Had they lost someone precious to them, was that where it had begun?__
__Може, вони загубили близьку людину, і звідти все й почалося?__

// 17016
//“With all their lives, they tried, and they made progress -”
-- Все своє життя, вони намагалися, і вони досягли певних успіхів...

// 17017
//__The Cloak of Invisibility, that could defeat the Dementors’ sight.__
__Плащ невидимості, що міг протистояти зору дементорів.__

// 17018
//“- but their research wasn’t finished -”
...та їхнє дослідження лишилося незавершеним...

// 17019
//__Hiding from Death’s shadow is not defeating Death itself. The
//Resurrection Stone couldn’t really bring anyone back. The Elder Wand couldn’t
//protect you from old age.__
__Ховатися від тіні Смерті -- не те ж саме, що перемогти саму Смерть.
Воскресальний камінь насправді не міг повернути людину з того боку. Бузинова
паличка не захищала від старості.__

// 17020
//“- so they passed on the mission to their children, and their children’s
//children.”
-- ...тож вони передали місію своїм дітям, і дітям їхніх дітей.

// 17021
//__Generation after generation.__
__Покоління за поколінням.__

// 17022
//__Until it came to me.__
__Аж доки дійшло до мене.__

// 17023
//Could Time echo like that, rhyming, between this far into the future, and that
//far in the past? It __couldn’t__ be coincidence, could it? Not this
//message, not in this place.
Чи може Час так відлунювати, будувати мости між чимось таким далеким у майбутньому
й таким далеким у минулому? Це ж __не може__ бути збігом? Тільки не це повідомлення,
тільки не в цьому місці.

// 17024
//__My family.__
__Моя родина.__

// 17025
//__You really were, my mother and my father.__
__Ви дійсно були моя мама та мій тато.__

// 17026
//“It doesn’t mean resurrecting the dead, Harry,” Mr. Lupin said. “It means
//accepting death, and so being beyond death, mastering it.”
-- Ідеться не про воскресіння мертвих, Гаррі, -- сказав містер Люпин. -- Йдеться
про те, щоб прийняти смерть, побачити продовження за нею, опанувати її.

// 17027
//“Did James tell you that?” Harry said, his voice strange.
-- Це вам Джеймс сказав? -- спитав Гаррі, дещо дивним голосом.

// 17028
//“No,” said Mr. Lupin, “but -”
-- Ні, -- сказав містер Люпин, -- але ж...

// 17029
//“Good.”
-- Добре.

// 17030
//Harry rose up slowly from where he had been kneeling, feeling as though he were
//pushing up a sun upon his shoulders, raising the dawn above the
//horizon.____
Гаррі повільно підвівся з колін, почуваючись так, ніби піднімає сонце на своїх
плечах, так, ніби зводить світанок над обрієм.


// 17031
//____

// 17032
//__Of __course__ other wizards have tried. I am not unique. I was
//never alone. These feelings in my heart, they’re not so special, not in the
//wizard world or the Muggle one.__
__Ну __звісно__ інші чаклуни теж намагалися. Я не унікальний. Я ніколи не був
сам. Всі ці почуття в моєму серці, вони не такі вже й особливі, ані у світі
чаклунів, ані у світі маґлів.__

// 17033
//“Harry, your wand!” There was a sudden excitement in Mr. Lupin’s voice, and
//when Harry raised his wand to look at it closely, he saw that it was gleaming
//ever so faintly with a silver light, welling out of the wood.
-- Гаррі, твоя паличка! -- в голосі містера Люпина раптом забриніла радість.

Коли Гаррі підвів паличку й роздивився її, то побачив слабке срібне мерехтіння,
що лилося з палички.

// 17034
//“Cast the Patronus Charm!” urged Mr. Lupin. “Try casting it again, Harry!”
-- Виклич патронуса! -- закликав містер Люпин. -- Ще раз спробуй накласти ці
чари, Гаррі!

// 17035
//__Oh, right. So far as Mr. Lupin knows, I can’t -__
__А, точно. Наскільки відомо містерові Люпину, я не вмію...__

// 17036
//Harry smiled, and even laughed a little. “I’d better not,” Harry said. “If I
//tried to cast the spell in this state of mind, it’d probably kill me.”
Гаррі всміхнувся й навіть трохи посміявся.

-- Краще не треба, -- сказав Гаррі. -- Якщо спробувати це закляття в моєму
поточному стані розуму, воно, напевно, мене вбʼє.

// 17037
//__“What?__” said Mr. Lupin. “The Patronus Charm doesn’t do that!”
-- __Що?__ -- вигукнув містер Люпин. -- Чари патронуса такого не спричиняють!

// 17038
//Harry James Potter-Evans-Verres raised his left hand, still laughing, and wiped
//away some more tears.
Гаррі Джеймс Поттер-Еванс-Веррес здійняв ліву руку, досі сміючись, і витер
сльози.

// 17039
//“You know, Mr. Lupin,” Harry said, “it really takes a __baroque__
//interpretation to think that somebody would be walking around, pondering how
//death is just something we all have to accept, and communicate their state of
//mind by saying, ‘The last enemy that shall be destroyed is death.’ Maybe
//someone else thought it sounded poetic and picked up the phrase and tried to
//interpret it differently, but whoever said it first didn’t like death much.”
//Sometimes it puzzled Harry how most people didn’t seem to even __notice__
//when they were twisting something around to the 180-degree opposite of its
//first obvious reading. It couldn’t be a raw brainpower thing, people could see
//the obvious reading of most other English sentences. “Also ‘shall be destroyed’
//refers to a change of future state, so it can’t be about the way things are
//now.”
-- А знаєте, містере Люпин, -- сказав Гаррі, -- тут і справді потрібна
__вигадлива__ інтерпретація, щоб вважати, ніби хтось такий думку собі гадає, як
би висловити, що нам усім варто просто прийняти смерть, і передає свій стан
розуму фразою "`останній ворог, якого буде знищено -- смерть`". Можливо, хтось
інший вирішив, що це звучить поетично, взяв цю фразу й інтерпретував її інакше,
та хай хто сказав це перший, не надто шанував смерть, -- інколи Гаррі дивувало,
що більшість людей __навіть не помічали__, що обертають щось на пряму
протилежність відносно очевидного читання. Проблема точно була не в потужності
мозку, бо люди здатні були осягти очевидне прочитання більшості простих речень.
-- Також "`буде знищено`" вказує на майбутню зміну стану, тож тут не може йтися
про поточний стан речей.

// 17040
//Remus Lupin was staring at him with wide eyes. “You certainly are James and
//Lily’s child,” the man said, sounding rather shocked.
Ремус дивився на нього широко розплющеними очима.

-- Ти й справді син Джеймса й Лілі, -- не без шоку сказав чоловік.

// 17041
//“Yes, I am,” Harry said. But that wasn’t enough, he had to do something more,
//so Harry raised his wand in the air and said, his voice as steady as he could
//make it, “I am Harry James Potter-Evans-Verres, the son of Lily and James, of
//the house of Potter, and I accept my family’s quest. Death is my enemy, and I
//will defeat it.”
-- Так, я їхній син, -- сказав Гаррі. Та цього було замало, треба було зробити
більше, тож Гаррі підніс паличку високо в повітря й сказав якомога рівнішим
голосом: -- я, Гаррі Джеймс Поттер-Еванс-Веррес, син Лілі та Джеймса, з роду
Поттерів, приймаю похід своєї родини. Смерть -- мій ворог, і я переможу її.

// 17042
//__Thrayen beyn Peverlas soona ahnd thrih heera toal thissoom Dath bey
//yewoonen.__
// hedrok @ тут потрібна транскрипція 17056
// Напевно староанглійська. Елізер вирішив зробити англійську транскрипцію, тож
// нам треба зробити українську трансприпцію.
// Наразі лишаю 17056 тут
__Þregen béon Pefearles suna and þrie hira tól þissum Déað béo gewunen.__

// 17043
//“What?” Harry said aloud. The words had popped up into his stream of
//consciousness as though from his own thoughts, unexplained.
-- Що? -- спитав Гаррі вголос.

Слова виникли в його розумі, ніби це були його власні думки, але без жодного
пояснення.

// 17044
//“What was that?” said Remus Lupin at the same time.
-- Що це було? -- водночас спитав Ремус Люпин.

// 17045
//Harry turned, scanning the graveyard, but he didn’t see anything. Beside him,
//Mr. Lupin was doing the same.
Гаррі роззирнувся довкола, оглянувши цвинтар, але нічого не побачив. Поряд з ним
містер Люпин робив те саме.

// 17046
//Neither of them noticed the tall stone worn as though from a thousand years of
//age, upon it a line within a circle within a triangle glowing ever so faintly
//silver, like the light which had shone from Harry’s wand, invisible at that
//distance beneath the still-bright Sun.
Жоден з них не помітив високий пошарпаний тисячоліттям камінь, на якому слабо
засяяли сріблом лінія в колі в трикутнику, світло, що дуже скидалося на світло з
палички Гаррі, але невидиме на цій відстані під досі яскравим Сонцем.

***

// 17047
//__Some time later:__
__Деякий час потому:__

// 17048
//“Thank you again, Mr. Lupin,” Harry said, the tall, faintly scarred man was
//about to depart once more. “Though I really wish you hadn’t -”
-- І ще раз дякую вам, містере Люпин, -- сказав Гаррі на прощання цьому
високому, пошрамованому чоловікові, що знов збирався в дорогу. -- Хоча було
все ж таки краще...


// 17049
//“Professor Dumbledore said that I was to portkey us back to Hogwarts if
//anything unusual happened, whether or not it seemed like an attack,” Mr. Lupin
//said firmly. “Which is eminently sensible.”
-- Професор Дамблдор сказав, що я маю летиключнути нас із тобою назад до
Гоґвортсу, щойно станеться щось незвичне, байдуже, схоже на напад, чи не схоже.
-- твердо відгукнувся містер Люпин. -- Що є цілком обачно.

// 17050
//Harry nodded. And then, having carefully saved this question for last, “Do you
//have any idea of what the words meant?”
Гаррі кивнув. А тоді, зберігши це питання наостанок:

-- Ви раптом не маєте здогадок, що ті слова могли означати?

// 17051
//“If I did, I wouldn’t tell you,” Mr. Lupin said, looking rather severe.
//“Certainly not without Professor Dumbledore’s permission. I can understand your
//eagerness, but you should not go trying to uncover any ancestral secrets of the
//Potters until you are an adult. That means after you’ve passed your NEWTs,
//Harry, or at least your OWLs. And I still think you’ve picked up entirely the
//wrong idea of what your family motto is meant to say!”
-- Якби знав, однаково не сказав би тобі, -- відповів містер Люпин, доволі
суворо. -- Лише з дозволу професора Дамблдора. Я розумію твою цікавість, та ти
не мусиш дізнатися родинних секретів Поттерів, доки не подорослішаєш. А це
означає -- доки не складеш НОЧІ, Гаррі, чи принаймні СОВи. І я досі вважаю, що в
тебе сформувалося абсолютно хибне уявлення про твоє родинне гасло!

// 17052
//Harry nodded, sighing internally, and bid Mr. Lupin farewell.
Гаррі кивнув, внутрішньо зітхнув і побажав містерові Люпину вдалої подорожі.

***

// 17053
//Harry went back through Hogwarts, to the Ravenclaw Tower, feeling strange, and
//strengthened. He would not have expected any of that, but it had been all to
//the good.
Гаррі пройшов Гоґвортсом назад, до Рейвенкловської вежі. Він почувався якось
дивно, ніби підживлений. Ніколи б не подумав, але все це виявилося на краще.

// 17054
//He was passing through the Ravenclaw common room, on the way to his dorm.
Дорогою до спальні він пройшов через рейвенкловську вітальню.

// 17055
//That was when the shining creature came to him, gleaming soft white beneath the
//candlefires of the Ravenclaw common room, as it slithered out from nowhere, the
//silver snake.
Саме тоді яскраве створіння прийшло до нього. Воно мʼяко сяяло білим під
свічками вітальні Рейвенклову, коли приповзло ніби нізвідки. Це була срібна
змія.

***

// 17056
//__Þregen béon Pefearles suna and þrie hira tól þissum Déað béo gewunen.__
__Þregen béon Pefearles suna and þrie hira tól þissum Déað béo gewunen.__

// 17057
//Three shall be Peverell’s sons and three their devices by which Death shall be
//defeated.
"`Будуть три сини в Певерелів, і три їхніх предмети переможуть Смерть`".

// 17058
//- Spoken in the presence of the three Peverell brothers,
Сказано в присутності трьох братів Певерелів,

// 17059
//in a small tavern on the outskirts of what would later be called Godric’s
//Hollow.
у невеличкій таверні на окраїнах поселення, що пізніше отримає назву "`Ґодрикова
долина`".
