// 18212
//== The Truth, Pt 4
== Розділ 107. Правда, ч.4

// 18213
//The spiraling leaves of the gigantic dieffenbachia felt like forest loam
//beneath Harry’s shoes, not as unyielding as concrete, but supporting his
//weight. Harry kept a wary eye on the tendrils, but they remained passive.
// hedrok @ loam
Ступати листям гігантської дифенбахії за відчуттями нагадувало прогулянку лісом
-- під ногами не непіддатливий бетон, але вагу підтримує. Гаррі підозріло
поглядав на вусики, але ті не ворушилися.

// 18214
//When Harry reached the bottom of the leafy spiral staircase, the tendrils
//suddenly whipped out and grasped Harry’s arms and legs.
Коли Гаррі досягнув низу листяних спіральних сходів, вусики раптом кинулися
вперед і обплели руки й ноги Гаррі.

// 18215
//After a brief struggle, Harry allowed himself to go limp.
Після недовгого пручання, Гаррі завмер.

// 18216
//“Interesting,” said Professor Quirrell, as he floated down from above, not
//touching any of the plant’s leaves or tendrils. “I notice that you seem to have
//no trouble losing to a plant.”
-- Цікаво, -- сказав професор Квірел, що злетів униз, не торкнувшись ані листя,
ані вусиків рослини. -- Бачу, у вас немає жодних проблем з тим, щоб програти
рослині.

// 18217
//Harry looked more closely at the Defense Professor, seeing him now without the
//lens of panic. Professor Quirrell was upright and moving, flying without
//apparent difficulty; the sense of doom about him was strong. But his eyes were
//still sunken in the skull, his arms thin and wasted. The sickness had
//__not__ been bluff, and the obvious hypothesis was that the Defense
//Professor had recently eaten another unicorn to temporarily regain some
//strength.
Гаррі уважніше роздивився професора із захисту, тепер без паніки. Професор
Квірел тримався прямо й рухався, летів без видимих зусиль. Лиховісне
передчуття було сильним. Та очі його все одно були запалими, руки -- худими
й змарнілими. Хвороба __не була__ блефом, очевидна гіпотеза -- професор із
захисту нещодавно зʼїв ще одного єдинорога, щоб тимчасово відновити частину сил.

// 18218
//And the Defense Professor was also speaking like the mask of Professor
//Quirrell, not like Lord Voldemort, which might not be a bad thing from Harry’s
//perspective. Harry didn’t know why - unless it was that the Defense Professor
//still needed him for something - but it certainly seemed to be in Harry’s own
//interests to play along.
І професор Квірел знову розмовляв як маска професора Квірела, а не як лорд
Волдеморт, що може бути не так вже й погано для Гаррі. Він не знав чому -- хіба
що професорові із захисту він досі для чогось був потрібен -- але йому видавалося
безсумнівним, що в його ж інтересах підіграти.

// 18219
//“You specifically let me walk into this trap, Professor,” Harry answered, just
//the way he’d have spoken to Professor Quirrell. __Roles, masks, remind
//him of how it was between us…__ “On my own, I’d have used my broomstick.”
-- Ви самі наказали мені піти в цю пастку, професоре, -- відповів Гаррі так, як
розмовляв би з професором Квірелом. __Ролі, маски, нагадай йому про те, що між
вами було...__ -- Сам я використав би мітлу.

// 18220
//“Perhaps. How would an ordinary first-year solve this challenge? If they had
//their wand, that is.” The plant was now reaching tendrils out toward Professor
//Quirrell, but Professor Quirrell was hovering just out of their reach.
-- Напевно. Як би звичайні першокласники здолали цю перепону? Я маю на увазі,
якби в них була паличка.

Рослина тепер тяглася вусиками до професора Квірела, та він висів трохи за
межами їхніх можливостей.

// 18221
//Harry had now remembered Professor Sprout talking about a Devil’s Snare plant,
//which the Herbology textbook had said liked cool, dark places like caves -
//though how that could be true of a leafy plant was anyone’s guess. “At a guess,
//I’d say this is a Devil’s Snare plant and it might retreat from light or heat.
//So maybe a first-year could use Lumos? Today I’d use __Inflammare__, but I
//didn’t learn that spell until May.”
Тепер Гаррі згадав, що професорка Спраут казала про рослину "`пастка диявола`",
що, згідно з підручником гербалогії, полюбляла прохолодні темні місця на кшталт
печер -- хоча яким чином це могло бути правдою для рослини з таким листям, він
гадки не мав.

-- Якщо треба вгадати, я б сказав, що пастка диявола відступить від світла й
тепла. Тож першокласники могли б спробувати Лумос? Зараз я б використав
"`__Інфламмаре__`", та я не знав цього закляття до травня.

// 18222
//A twirl of the Defense Professor’s wand, and a pattern of sprays of liquid shot
//out from it, striking the plant near the bases of its tendrils, hitting with a
//quiet splat and then a quiet hissing. All the tendrils touching Harry
//frantically shot back and began to beat at the growing wounds appearing on the
//plant’s skin, as if trying to remove the pain-stimulus; something about the
//plant gave the impression that it was screaming soundlessly.
Розчерк палички професора із захисту, і з неї вистрелили бризки, що
влучили в рослину коло основи вусиків з тихим шльоп, а тоді почулося шипіння.
Усі вусики, що тримали Гаррі, хутко відпустили його й почали бити по ранах на
поверхні рослини, ніби намагалися прибрати причину болю. Щось у поведінці
рослини справляло враження, ніби та беззвучно кричала.

// 18223
//Professor Quirrell finished drifting downward. “Now it is afraid of light,
//heat, acid, and me.”
Професор Квірел завершив свій спуск повітрям.

-- Тепер вона боїться світла, тепла, кислоти та мене.

// 18224
//Harry stepped off the final leaves onto the floor, after a careful glance at
//his robes and then the floor to make sure that none of the acid had splashed
//anywhere. Harry had begun to suspect that Professor Quirrell was trying to make
//some sort of point, but Harry did not know what that point might be. “I thought
//we were on a mission, Professor. I can’t stop you, but is it __smart__ to
//spend this much time on messing with me?”
Гаррі уважно огледів мантію та підлогу, чи не потрапила на них кислота, а тоді
зійшов з останніх сходинок вниз. Гаррі вже підозрював, що професор Квірел хоче
своїми діями щось сказати, та Гаррі гадки не мав, що саме.

-- Я вважав був, що в нас тут справи, професоре. Я не можу вас спинити, та хіба
__розумно__ витрачати стільки часу на ігри зі мною?

// 18225
//“Oh, we have time,” said Professor Quirrell, sounding amused. “There would be a
//great uproar if we were discovered here, guarded by an Inferius. You did not
//act like you had heard of such an uproar at your Quidditch match, before you
//arrived in this time and spoke to Snape as you did.”
-- О, час у нас є, -- весело відповів професор Квірел. -- Якби нас тут знайшли,
ще й під охороною інферія, то було б чимало галасу. Коли ви розмовляли зі
Снейпом, ви не поводилися так, ніби щось про це чули під час майбутнього
квідичного матчу -- перед тим, як прибули в цей час.

// 18226
//A slight chill came over Harry, as he comprehended this. Anything he did to
//beat Professor Quirrell would have to __not__ disrupt the school, or at
//least the Quidditch game, because it __hadn’t__ disrupted the Quidditch
//game. Even if enough forces could be called in to subdue Lord Voldemort, it
//might not be easy to do it without Professor McGonagall or Professor Flitwick
//or anyone else at the Quidditch game noticing…
//! 15%
В Гаррі мурахи пробігли спиною, коли він усвідомив це. Хай що він зробить, щоб
перемогти професора Квірела, це має __не вплинути__ на школу, чи принаймні на
квідичну гру, бо ніщо __не спинило__ квідичну гру. Навіть якщо вийде викликати
достатньо сил, щоб здолати лорда Волдеморта, це буде непросто зробити так, щоб
ані професорка Макґонеґел, ані професор Флитвік, ані будь-хто інший на квідичній
грі не помітив...

// 18227
//Fighting a smart enemy was hard.
Боротися з розумним ворогом складно.

// 18228
//And even so… even so it seemed to Harry that if he stood in Professor
//Quirrell’s shoes, he would not be having leisurely conversations and playing
//mind games. Professor Quirrell was gaining __something __by taking his
//time here. But what? Was there some other process that had to run to
//completion?
І все одно... усе одно Гаррі видавалося, що на місці професора Квірела він би не
теревенив безжурно й не грав на нервах. Професор Квірел здобував __щось__,
зволікаючи тут. Але що? Чи йшов десь якийсь процес, що мав завершитися?

// 18229
//“By the by, have you betrayed me yet?” said Professor Quirrell.
-- До речі, ти мене досі не зрадив? -- спитав професор Квірел.

// 18230
//__“Have not betrayed you yet,__” Harry hissed.
-- __Шще не зрадив васс__, -- прошипів Гаррі.

// 18231
//The Defense Professor gestured pointedly with the gun he was now holding in his
//left hand, and Harry walked ahead to the great wooden door at the end of the
//room, and opened it.
Професор із захисту наполегливо вказав пістолетом, який він тепер тримав у
лівиці, і Гаррі пішов уперед до деревʼяних дверей наприкінці коридору та
відчинив їх.

***

// 18232
//The next chamber was smaller in diameter, with a higher ceiling. The light
//shining out of the arched alcoves was white, instead of blue.
Наступна кімната була меншою за діаметром, з вищою стелею. Із ніш під арками
лилося біле світло, а не блакитне.

// 18233
//Around them whizzed hundreds of winged keys, beating frantically through the
//air. After watching for a few seconds, it became clear that only a single key
//was the golden color of a Snitch - though it was moving slower than a Snitch in
//a real Quidditch game.
Навколо них шелестіли сотні крилатих ключів, що несамовито розмахували цими
крилами. Після кількох секунд спостережень ставало очевидним, що лише один ключ
був золотого кольору сничу, хоч він і рухався повільніше за снич у справжньому
квідичі.

// 18234
//On the other end of the room was a door containing a large, prominent keyhole.
З іншого боку кімнати були двері з великою помітною замковою щілиною.

// 18235
//Against the left wall leaned a broomstick, the school’s workhorse Cleansweep
//Seven.
// hedrok: "Клінсвіп-7" - Абабагаламага
На стіну ліворуч спиралася мітла -- робоча конячка школи "`Клінсвіп-7`".

// 18236
//“Professor,” Harry said, staring up at the clouds and flocks of whizzing keys,
//“you said you would answer my questions. What exactly is all this about? If you
//think you’ve secured a door so that it won’t open without a key, you keep the
//key in a safe place and only give a copy to authorized entrants. You don’t
//__give the key wings__ and then __leave a broomstick propped against
//the wall.__ So what the heck are we doing in here and what is going on? It’s an
//obvious guess that the magic mirror is the only real factor guarding the Stone,
//but why the rest of this - and why encourage first-years to come here?”
-- Професоре, -- сказав Гаррі, не відводячи погляду від хмарок та зграйок
крилатих ключів, -- ви казали, що відповідатимете на мої питання. Що це
все таке? Якщо тобі здається, що ти зробив двері надійними, і їх не можна
відкрити без ключа, ти кладеш ключ у безпечне місце й видаєш копії лише
авторизованим відвідувачам. Ти не __наділяєш ключ крилами__, а потім __любʼязно
приставляєш мітлу до стіни__. Тож що в біса ми тут робимо та що відбувається?
Видається очевидним, що єдиним справжнім захистом Каменя є магічне дзеркало, але
навіщо вся решта... і навіщо підбурювати першокласників сюди приходити?

// 18237
//“I am truly not sure,” said the Defense Professor. He had entered the room and
//taken up station well to Harry’s right, maintaining the distance between them.
//“But I shall answer, as I said I would. Dumbledore’s way is to do a dozen
//things which seem mad, and then only eight of them, or perhaps nine, conceal an
//inner meaning. My guess is that Dumbledore intends to make it seem like I am
//invited to send a student as my proxy. Precisely so that Lord Voldemort, as
//Dumbledore conceives of him, is less tempted to think himself clever by doing
//so. Imagine Dumbledore first considering the issue of how to ward the Stone.
//Imagine Dumbledore considering whether to set true dangers to guard the Mirror.
//Imagine him imagining some young student blundering through those dangers at my
//behest. I think that is what Dumbledore is trying to avoid, by making it seem
//as though that strategy is invited, and so not cunning. Unless, of course, I
//have misunderstood what Dumbledore thinks Lord Voldemort will think.” Professor
//Quirrell grinned, and it looked just as natural, on him, as any grin he’d shown
//Harry before. “Plotting does not come naturally to Dumbledore, but he tries
//because he must. To that task Dumbledore brings intelligence, dedication, the
//ability to learn from his mistakes, and an utter lack of native talent. He is
//marvelously hard to predict for that reason alone.”
-- Я й справді не певен, -- відповів професор із захисту. Він зайшов до кімнати
й завмер праворуч від Гаррі, не змінюючи відстані між ними. -- Та я відповім, як
і обіцяв. У Дамблдора є підхід: зробити з дюжину нібито божевільних речей, і
лише вісім з них, ну може девʼять, мають якийсь сенс. Припускаю, що Дамблдор
хотів створити видимість, ніби мене примушують використати для отримання Каменя
учня. Саме для того, щоб лорд Волдеморт, як його сприймає Дамблдор, менше
схилявся до такого кроку, бо це видавалося б нерозумним. Уявіть себе на місці
Дамблдора, коли він розглядав питання, як оберігати Камінь. Уявіть, що він
уявив, як якийсь юний учень намагається здолати ці небезпеки, бо я його змусив.
Гадаю, саме цього й хотів уникнути Дамблдор, і тому створив враження, ніби саме
ця стратегія очікується, і відповідно не є хитрою. Хіба що, звісно, я
неправильно зрозумів, що Дамблдор подумає про те, що подумає лорд Волдеморт, --
професор Квірел усміхнувся, і ця усмішка видавалася такою ж природною, як і всі,
які Гаррі бачив у нього. -- Планування не є природним для Дамблдора, але він
старається, бо мусить. Для цього Дамблдор пристосовує інтелект, непохитність та
вміння навчатися з помилок. Його дивовижно важко прораховувати вже через це.

// 18238
//Harry turned away, looking at the door on the opposite side of the room.
//__It wasn’t a game to him, Professor. __“My guess is that the intended
//solution for first-years is to ignore the broomstick and use __Wingardium
//Leviosa__ to grab the key, since this isn’t a Quidditch game and there are no
//rules forbidding that. So what absurdly overpowered spell are you going to
//unleash on this one, then?”
//! 28%
Гаррі відвернувся, поглянувши на інший бік кімнати. __Для нього це не гра,
професоре__.

-- Гадаю, -- сказав Гаррі, -- правильне розвʼязання для першокласників: начхати
на мітлу й скористатися "`__Вінґардіум Левіоза__`", щоб схопити ключ, бо це не
гра в квідич, і тут немає правил, що забороняють це. Тож яке абсурдно надсильне
закляття ви кинете в бій для цього, га?

// 18239
//There was a brief silence but for the whizzing of keys.
Запанувала коротка мовчанка, сповнена лише шелестінням ключів.

// 18240
//Harry took several steps away from Professor Quirrell. “I probably shouldn’t
//have said that, should I.”
Гаррі на кілька кроків відійшов від професора Квірела.

-- Напевно не варто було цього казати, так?

// 18241
//“Oh, no,” Professor Quirrell said. “I think that is a quite reasonable thing to
//say to the most powerful Dark Wizard in the world when he is standing not a
//dozen paces from you.”
-- Та ні, -- відгукнувся професор Квірел. -- Цілком слушно таке казати
наймогутнішому чорному чарівнику в світі, коли він стоїть в якихось десяти
кроках від вас.

// 18242
//Professor Quirrell put his wand back into the sleeve of his other hand, the
//hand that sometimes held the gun.
Професор Квірел поклав паличку назад в рукав іншої руки -- тієї, в якій інколи
зʼявлявся пістолет.

// 18243
//Then the Defense Professor reached into his mouth and took out what appeared to
//be a tooth. He tossed the false tooth high in the air, and when it came down,
//it had transformed into a wand that sparked a strange sense of recognition in
//Harry’s mind, as though some part of him recognized that wand as being… part of
//him…
Тоді професор із захисту дістав зі свого рота те, що видавалося зубом. Він
підкинув хибний зуб високо в повітря, і коли той повернувся, він
трансфігурувався в паличку, що викликала дивне відчуття знайомості в Гаррі, ніби
якась частина Гаррі зрозуміла, що ця паличка... є його частиною...

// 18244
//__Thirteen and a half inches, yew, with a core of phoenix feather.__ Harry
//had memorized the information when the wandmaker Olli-something had given it,
//because it had seemed like it might be Plot-Relevant. The event, and the
//thinking that had underlain it, both felt a lifetime distant.
// hedrok: до "тисова" копія з канону.
"`Тринадцять з половиною дюймів, тисова, містить пірʼїну фенікса`". Гаррі
запамʼятав був цю інформацію, коли виробник паличок Олі-щосьтам надав її, бо
видавалося, що вона може бути важливою для сюжету. Подія й роздуми про неї
ніби сталися в іншому житті.

// 18245
//The Defense Professor raised that wand, and traced in the air a flaming rune
//that was all jagged edges and malevolence; Harry took another instinctive step
//back. Then Professor Quirrell spoke. “Az-reth. Az-reth. Az-reth.”
Професор із захисту підвів цю паличку й вивів у повітрі вогняну руну, що
ніби складалася з самих зазублених країв та злості. Гаррі інстинктивно відступив
ще на крок.

-- Аз-рет. Аз-рет. Аз-рет, -- промовив професор Квірел.

// 18246
//The flaming rune began pouring out fire that was… __twisted,__ as though
//the jagged edges of the rune had become the nature of the fire itself. The fire
//was blazing crimson, shaded further red than blood, glowing as searingly
//intense as an arc-welder. That brilliance in that shade seemed __wrong__
//in its own right, like nothing shaded so far red should give off that much
//light; and the searing crimson was shot through with veins of black that seemed
//to suck the light from the fire. Within the blackened fire, outlined in the
//interplay of crimson and darkness, animal shapes twisted wildly from one
//predator to another, cobra to hyena to scorpion.
З вогняної руни полилося полумʼя, що було... __зіпсованим__, ніби це зазублені краї
руни стали полумʼям. Воно сліпило червоним, було червонішим за кров, і сяяло не
менш пекуче, ніж іскра зварювання. Яскравість цього кольору видавалася
__неправильною__, ніби нічого такого червоного не мало б видавати
стільки світла. І сліпучий червоний перетинали вени чорноти, що ніби
висмоктували світло з полумʼя. Цей почорнілий вогонь, що опоясувала гра
червоного та пітьми, мінливо ставав то одним хижаком, то іншим: кобра, гієна, а
тоді скорпіон.

// 18247
//“Az-reth. Az-reth. Az-reth.” When Professor Quirrell had repeated the word six
//times, as much black-crimson fire had poured out as the volume of a small bush.
-- Аз-рет. Аз-рет. Аз-рет, -- коли професор Квірел повторив слово шість разів,
червоно-малинового вогню вилилося з руни десь з невеличкий кущ за обʼємом.

// 18248
//The cursed fire slowed in its changes as Professor Quirrell locked eyes upon
//it, taking on a single form, the form of a blackened blood-burning phoenix.
Проклятий вогонь сповільнив зміни, коли професор Квірел втупився в нього очима,
прийняв одну форму -- форму криваво-чорного фенікса з вогню.

// 18249
//And something told Harry with a terrible certainty that if that black burning
//phoenix met Fawkes, the true phoenix would die and never be reborn.
І щось без жодних сумнівів підказувало Гаррі: якщо цей чорний фенікс зіткнеться
з Фоуксом, справжній фенікс помре й ніколи не переродиться.

// 18250
//Professor Quirrell made a single gesture with his wand, and the blackened fire
//went soaring across the room. It met the door and its keyhole, and with a
//single sweep of crimson-burning wings, most of the door and part of the archway
//was consumed. Then the tainted crimson blaze swept on.
Професор Квірел одним жестом палички змусив чорний вогонь пролетіти кімнатою.
Полумʼя досягло дверей та замкової шпарини й одним помахом вогняних крил
зникла більша частина дверей та чималий шматок арки. Тоді хворобливий червоний
вогонь полетів далі.

// 18251
//Harry had only a glance through the hole to see huge statues just beginning to
//raise swords and clubs, when the blackened fire came among them, and they
//cracked and burned.
Гаррі лише на мить встигнув побачити крізь отвір, як величезні статуї підвели
мечі й довбні, а тоді почорніле полумʼя торкнулося їх, і вони тріснули й
згоріли.

// 18252
//When it ended, the blackened-fire phoenix swept back in through the hole, and
//hovered above Professor Quirrell’s left shoulder, the sun-intense crimson claws
//staying an inch from his robes.
Коли все скінчилося, чорно-вогняний фенікс пролетів крізь отвір назад та
зависнув над лівим плечем професора Квірела, яскраві мов сонце малинові кігті
трималися в кількох сантиметрах від його мантії.

// 18253
//“Go on ahead,” said Professor Quirrell. “It’s safe now.”
-- Проходьте, -- наказав професор Квірел. -- Тепер це безпечно.

// 18254
//Harry walked forward, needing to invoke his dark side’s cognitive patterns in
//order to maintain calm enough to do it. Harry stepped over the glowing edges of
//the remaining part of the door, and gazed at a chessboard of ruined huge
//chess-pieces. The alternating tiles of black and white marble on the floor
//started five meters after the ruined doorway, and extended from wall to wall,
//but stopped five meters short of the next door on the opposite side of the
//room. The ceiling was significantly higher than any of the statues should have
//been able to reach.
//! 42%
Гаррі пішов уперед, йому довелося скористатися когнітивними здібностями своєї
темної сторони, щоб підтримувати спокій. Гаррі переступив розпечені краї решток
дверей та поглянув на шахівницю зі зруйнованими шаховими фігурами. Білі та чорні
клітинки мармурової підлоги починалися за пʼять метрів від зруйнованого дверного
отвору й сягали стін ліворуч та праворуч, але з іншого боку кімнати від
шахівниці до дверей теж було метрів зо пʼять. Стеля була значно вищою, ніж
будь-яка зі статуй мала б бути в змозі сягнути.

// 18255
//“I would guess,” Harry said, and his dark side’s cognitive patterns kept his
//voice calm, “that the intended solution is to fly over the statues using the
//broomstick from the previous room, since it wasn’t actually needed to get the
//key?”
-- Гадаю, -- сказав Гаррі, а когнітивні шаблони темної сторони надавали голосу
спокій, -- що правильний розвʼязок такий: перелетіти над статуями за допомогою
мітли з попередньої кімнати, бо вона насправді не була потрібна для здобуття
ключа?

// 18256
//From behind, Professor Quirrell laughed, and it was Lord Voldemort’s laugh.
//“Proceed,” said a voice grown colder and higher. “Go to the next room. I wish
//to see what you will make of what is there.”
За його спиною професор Квірел розсміявся, і це був сміх лорда Волдеморта.

-- Іди далі, -- його голос став холоднішим та вищим. -- До наступної кімнати.
Хочу подивитися, що ти скажеш про неї.

// 18257
//__Arranged by Dumbledore for first-years,__ Harry reminded himself,
//__it WILL be safe,__ and he walked across the ruined chessboard, laid his
//hand upon that door’s handle, and pushed it inward.
__Тут усе зроблено Дамблдором для першокласників__, нагадав собі Гаррі, __МАЄ
бути безпечно.__

І він пройшов зруйнованою шахівницею, торкнувся ручки дверей та штовхнув їх.

***

// 18258
//Half a second later, Harry slammed the door and leapt back.
За пів секунди Гаррі захряснув двері й відстрибнув.

// 18259
//It took Harry several seconds to master his breathing, and master himself. From
//behind the door came continued loud bellows, and great slams as of a rock club
//pounding the floor.
Лише за кілька секунд він вгамував дихання, опанував себе. З-за дверей і далі
лунав гучний рик та звуки сильних ударів -- ніби камʼяна довбня гатила по
підлозі.

// 18260
//“I suppose,” Harry said in a voice grown cold as well, “that since Dumbledore
//would hardly put a real mountain troll in there, the next challenge is an
//illusion of my worst memories. Like a Dementor, with the memory projected into
//the outside world. Very amusing, Professor.”
-- Гадаю, -- сказав Гаррі, його голос теж похолоднішав, -- що, позаяк навряд чи
Дамблдор і справді тримав би тут гірського троля, наступний виклик -- це ілюзія,
створена з моїх найгірших спогадів. Як і дементор, спогади відтворюються в
справжньому світі. Дуже смішно, професоре.

// 18261
//Professor Quirrell advanced himself toward the door, and Harry stepped well
//aside. Besides the sense of doom that was now strong about the Professor,
//Harry’s dark side or just plain instinct was advising him not to get anywhere
//near that black-crimson fire hovering above Professor Quirrell’s shoulder.
Професор Квірел рушив до дверей, і Гаррі відійшов далеко вбік. Крім того, що
лиховісне передчуття від професора наразі було сильним, темна сторона Гаррі,
а може просто його інстинкти, наполегливо радили триматися від чорно-червоного
вогню над плечем професора Квірела якомога далі.

// 18262
//Professor Quirrell swung open the door, and looked in. “Hm,” Professor Quirrell
//said. “Just the troll, as you say. Ah, well. I had hoped to learn something
//about you more interesting than that. What lies within is a
//Kokorhekkus__,__ also known as the common boggart.”
Професор Квірел розчахнув двері й зазирнув досередини.

// hedrok @wiki https://en.wikipedia.org/wiki/The_Killing_Machine
-- Гм. Просто троль, як ти й казав. Ну що ж. Я сподівався був дізнатися про тебе
щось цікавіше. За дверима мешкає "`кокоргеккус`", також відомий як ховчик
звичайний.

// 18263
//“A boggart? What does that - no, I suppose I know what it does.”
// hedrok: англійською більш зрозуміло, але гадаю варто так залишити.
-- Ховчик? Що він... та ні, гадаю, я знаю, що він робить.

// 18264
//“A boggart,” Professor Quirrell said, and now his voice was again that of a
//Hogwarts Professor lecturing, “gravitates to dark enclosures that are rarely
//opened, such as a neglected cupboard in the attic. It seeks to be left alone,
//and it will manifest in whatever form it thinks will scare you away.”
-- Ховчик, -- сказав професор Квірел, і тепер він знову розмовляв так, ніби читав
лекцію як професор Гоґвортсу, -- шукає темних замкнутих місць, до яких зрідка
зазирають, наприклад закинуті комори та горища. Він хоче, щоб його лишили в
спокої, тож приймає ту форму, що відлякує тебе.

// 18265
//“Scare me away?” Harry said. “I __killed__ the troll.”
-- Відлякує? Та я __вбив__ троля.

// 18266
//“You leapt backward out of the room without thinking. A boggart seeks out the
//instinctive flinch, not the reasoned threat. Else it would have selected
//something more believable. In any case, the standard counter-Charm for a
//boggart is, of course, Fiendfyre.” Professor Quirrell gestured, and the
//blackened fire leapt off his shoulder and poured through the doorway.
-- Ви без жодної думки вистрибнули з кімнати. Ховчик старається викликати
інстинктивний відступ, а не створити враження справжньої загрози. Інакше він
вибрав би щось більш вірогідне. Хай там як, стандартні античари проти ховчика --
це, звісно, зложар.

Професор Квірел зробив жест, і чорний вогонь злетів з його плеча й пройшов крізь
двері.

// 18267
//From within the room there was a single squeak, and then nothing.
З кімнати почувся короткий скрик, а потім запанувала тиша.

// 18268
//They advanced into the boggart’s former room, Professor Quirrell going first
//this time. With the seeming mountain troll gone, the room was just another huge
//chamber lit by sconces of cold blue light.
Вони зайшли до колишньої кімнати ховчика. Цього разу професор Квірел ішов
першим. Без гірського троля кімната була просто черговим величезним приміщенням,
яке освітлювало холодне блакитне світло.

// 18269
//Professor Quirrell’s gaze seemed distant, thoughtful. He crossed the room
//without waiting for Harry, and swung open the door on the opposite wall of his
//own accord.
Погляд професора Квірела видавався відстороненим, задумливим. Він перетнув
кімнату, не чекаючи на Гаррі, і сам розчахнув двері в протилежній стіні.

// 18270
//Harry followed after, and not closely.
//! 56%
Гаррі йшов слідом, тримаючись подалі.

// 18271
//The next chamber contained a cauldron, a rack of bottled ingredients, chopping
//boards, stirring sticks, and the other apparatus of Potions. The light coming
//from the arched alcoves was white instead of blue, presumably because color
//vision was important to Potions-brewing. Professor Quirrell was already
//standing next to the brewing apparatus, scrutinizing a long parchment he had
//picked up. The door to the next chamber was guarded by a curtain of purple fire
//that would have looked a lot more threatening, if it hadn’t seemed pale and
//weak by comparison to the blackened flame hovering over Professor Quirrell’s
//shoulder__.__
У наступній кімнаті стояв казан, стелаж з інгредієнтами в банках, дошки для
нарізання, палиці для розмішування та інше приладдя для зіллєваріння. З-під арок
лилося біле світло, напевно через те, що сприйняття кольору було важливе для
зіль. Професор Квірел вже стояв поряд з приладдям та уважно читав довгий
пергамент, який він десь тут узяв. Двері до наступної кімнати заступала завіса з
пурпурового вогню, що мав би значно страхітливіший ефект, якби не почорніле
полумʼя над плечем професора Квірела.

// 18272
//Harry’s suspension of disbelief had already checked out on vacation at this
//point, so he didn’t say anything about how real-world security systems had the
//goal of __distinguishing__ authorized from unauthorized personnel, which
//meant issuing challenges that behaved __differently__ around people who
//were or weren’t supposed to be there. For example, a __good__ security
//challenge would be testing whether the entrant knew a lock combination that
//only authorized people had been told, and a __bad__ security challenge
//would be testing whether the entrant could brew a potion according to written
//instructions that had been helpfully included.
Призупинення недовіри Гаррі вже пішло у відпустку, тож він нічого не сказав про
те, що справжні системи безпеки мали на меті __розрізнити__ авторизований та
неавторизований персонал, тобто мали ставити виклики, що мали __різну__
складність для людей, що мали бути допущені, та людей, що не мали. Наприклад,
__хорошим__ викликом було перевірити, чи знала людина комбінацію від замка, яку
повідомили лише авторизованим співробітникам, а __поганим__ викликом було
перевірити, чи здатна людина зварити зілля згідно з написаною інструкцією, що
любʼязно була надана.

// 18273
//Professor Quirrell tossed the parchment toward Harry, and it fluttured to the
//ground between them. “What do you make of this?” said Professor Quirrell, who
//then stepped back so that Harry could come forward and pick up the parchment.
Професор Квірел кинув пергамент Гаррі, і той приземлився на підлогу між ними.

-- Що скажеш про це? -- спитав професор Квірел. Він відступив назад, щоб Гаррі
міг підійти та підняти пергамент.

// 18274
//“Nope,” Harry said after skimming the parchment. “Testing whether the entrant
//can solve a ridiculously straightforward logic puzzle about the order of the
//ingredients is still not a challenge that behaves differently for authorized
//and unauthorized personnel. It doesn’t matter if you use a more interesting
//logic puzzle about three idols or a line of people wearing colored hats, you’re
//still completely missing the point.”
-- А-а, -- вимовив Гаррі, коли переглянув пергамент. -- Перевірка, чи здатна
людина розвʼязати сміховинно очевидну логічну загадку про порядок інгредієнтів
-- це все одно не виклик, що дає різний результат для авторизованого та
неавторизованого персоналу. Нічого не зміниться, навіть якщо використати
цікавішу логічну загадку про трьох ідолів чи про шерегу людей в кольорових
капелюхах, все одно ти анічогісіньки не досягнеш.

// 18275
//“Look at the other side,” said Professor Quirrell.
-- Подивися на інший бік, -- сказав професор Квірел.

// 18276
//Harry turned over the two-foot parchment.
Гаррі перегорнув двофутовий пергамент.

// 18277
//On the other side, written in tiny letters, was the __longest__ list of
//brewing instructions Harry had ever seen. “What on Earth-”
З іншого боку дрібнесеньким почерком було написано __найдовший__ список
інструкцій зіллєваріння з усіх, що він бачив.

-- Що в біса...

// 18278
//“A __potion of effulgence,__ to quench the purple fire,” Professor
//Quirrell said. “It is made by adding the same ingredients, over and over again,
//in slightly different ways. Imagine some eager young group of first-years,
//passing all the other chambers, thinking they are just about to reach the magic
//mirror, and then encountering this task. This room is the handiwork of the
//Potions Master indeed.”
-- "`Зілля осяйності`", щоб вгамувати пурпуровий вогонь, -- відповів професор
Квірел. -- Воно створюється додаванням тих самих інгредієнтів знову й знову,
щоразу трохи в інший спосіб. Уявіть собі нетерплячу юну компанію першокласників,
що пройшли крізь усі інші кімнати й гадають, що вони от-от досягнуть магічного
дзеркала, а на них чекає це завдання. Ця кімната й справді витвір нашого майстра
зіллєваріння.

// 18279
//Harry glanced pointedly at the blackfire shape on Professor Quirrell’s
//shoulder. “Fire can’t beat fire?”
Гаррі нарочито поглянув на фігуру з чорного полумʼя над плечем професора
Квірела:

-- Вогонь не може перемогти вогонь?

// 18280
//“It can,” said Professor Quirrell. “I am not sure it should. Suppose this room
//is trapped?”
-- Може, -- відгукнувся професор. -- Я не певен, що має. Припустімо, в цій
кімнаті є пастка?

// 18281
//Harry did __not__ want to be stuck brewing this potion for laughs, or for
//whatever other reason Professor Quirrell was taking them through these chambers
//so slowly. The potions recipe had __thirty-five __separate occasions for
//adding bellflowers, fourteen times to add ‘a lock of bright hair’… “Maybe the
//potion gives off a lethal gas that is fatal to adult wizards but not children.
//Or any of a hundred other deadly tricks, if we’re suddenly being serious. Are
//we being serious?”
Гаррі __не хотів__ стирчати в цій кімнаті й готувати зілля заради сміху, чи хай
для чого там професор Квірел так повільно веде їх цими кімнатами. Рецепт зілля
мав __тридцять пʼять__ окремих інструкцій з додаванням дзвоників, чотирнадцять
додавань "`пасма яскравого волосся`"...

-- Можливо, зілля видає летальний газ, що є летальним для дорослих чарівників,
але не для дітей. Чи міг бути задіяний будь-який із сотні смертельних трюків,
якщо ми раптом стали серйозними. Ми стали серйозними?

// 18282
//“This room is the handiwork of Severus Snape,” Professor Quirrell said, once
//more looking thoughtful. “Snape is not a bystander in this game, not quite. He
//lacks Dumbledore’s intelligence, but possesses the killing intent that
//Dumbledore never had.”
-- Ця кімната -- витвір Северуса Снейпа, -- промовив професор Квірел, що раптом
став задумливим. -- Снейп -- не просто сторонній глядач у цій грі. Йому бракує
інтелекту Дамблдора, та в нього є намір вбити, якого в Дамблдора ніколи не було.

// 18283
//“Well, whatever’s going on here, it doesn’t actually keep out children,” Harry
//observed. “Lots of first-years made it through. And if you can somehow keep out
//everyone __except__ children, then that, from Dumbledore’s perspective,
//forces Lord Voldemort to possess a child to enter. I don’t see the point, given
//their goals.”
//! 70%
-- Ну, хай що тут коїться, воно не зупиняє дітей, -- зазначив Гаррі. -- Чимало
першокласників дійшли до кінця. А якщо ти якимось чином можеш спинити всіх,
__крім__ дітей, то, з точки зору Дамблдора, це примушує лорда Волдеморта
заволодіти дитиною, щоб пройти. Відповідно, не бачу в цьому сенсу, з точки зору
його цілі.

// 18284
//“Indeed,” Professor Quirrell said, rubbing the bridge of his nose. “But see,
//boy, this room lacks the triggers and tripsigns that are upon the others. There
//are no subtle wards to be defeated. It is as if I am __invited__ to bypass
//the Potion and simply enter - but Snape knows that Lord Voldemort will perceive
//this. If in fact there was a trap laid for anyone who did not brew the potion,
//then it would be wiser to lay wards, and give no sign that this room was
//different from the others.”
-- Саме так, -- сказав професор Квірел, потираючи перенісся. -- Та знаєш,
хлопче, в цій кімнаті немає тригерів чи пасток, що є в інших. Ані непомітних
оберегів, які треба здолати. Ніби мене __підбурюють__ начхати на зілля й просто
зайти -- але Снейп знає, що лорд Волдеморт достатньо проникливий, щоб це
зрозуміти. Якби це й справді була пастка для будь-кого, хто не зварить зілля, то
мудріше було б додати звичайні обереги, щоб не давати жодних ознак, що ця
кімната відрізняється від решти.

// 18285
//Harry listened, frowning in concentration. “So… the only point of leaving off
//the detection webs is to make you __not__ bulldoze this room.”
Гаррі слухав, насупившись від зосередження.

-- Тож... єдиною причиною, з якої варто було б не додавати чутливі сіті -- це
для того, щоб змусити вас __не__ долати цю кімнату силою.

// 18286
//“I expect Snape expects me to deduce that as well,” the Defense Professor said.
//“And past that point I cannot predict at what level he thinks I will play. I am
//patient, and I have given myself plenty of time for this endeavor. But Snape
//does not know me, he only knows Lord Voldemort. He has sometimes seen Lord
//Voldemort shriek in frustration, and act on impulses that appear
//counterproductive. Consider this matter from Snape’s perspective: it is the
//Potions Master of Hogwarts telling Lord Voldemort to be patient and follow
//instructions if he wants to enter, as though Lord Voldemort were a mere
//schoolboy. I would find it easy to comply, smiling the while, and take my
//vengeance later. But Snape does not know that Lord Voldemort finds it easy to
//think this way.” Professor Quirrell looked at Harry. “Boy, you saw me floating
//in the air by the Devil’s Snare, did you not?”
-- Я вважаю, що Снейп очікує, що я й це збагну, -- сказав професор із захисту.
-- А далі я вже не можу передбачити, на якому рівні він гадає я гратиму. Я
терплячий, і виділив собі чимало часу на цю пригоду. Але Снейп не знає мене, він
знає лише лорда Волдеморта. Він подеколи бачив, як лорд Волдеморт верещить від
люті, і діє за імпульсами, що видаються контрпродуктивними. Поглянь на це з
точки зору Снейпа: ніби майстер зіллєваріння Гоґвортсу каже лордові Волдеморту
бути простим шкільним хлопчиком. Мені-то легко підкоритися, посміхатися в
процесі й помститися потім. Але Снейп не знає, що лордові Волдеморту це
нескладно, -- професор Квірел поглянув на Гаррі. -- Хлопче, ти ж бачив, як я
пролетів повітрям над пасткою диявола, так?

// 18287
//Harry nodded. Then he noticed his confusion. “My Charms textbook says that it’s
//impossible for wizards to levitate themselves.”
Гаррі кивнув. Він ще тоді помітив своє спантеличення:

-- Мої підручники з чарів стверджують, що чарівники нездатні левітувати самих
себе.

// 18288
//“Yes,” said Professor Quirrell, “that is what it says in your Charms textbook.
//No wizard may levitate themselves, or any object supporting their own weight;
//it is like trying to lift yourself up by your own bootstraps. Yet Lord
//Voldemort alone can fly - how? Answer as quickly as you can.”
-- Так, -- підтвердив професор Квірел, -- саме так і пишуть у твоїх підручниках
з чарів. Жоден чарівник не здатен левітувати ані себе, ані будь-який обʼєкт, що
підтримує його власну вагу. Це буде ніби спроба витягнути себе за чуба. І втім
лише лорд Волдеморт здатен літати... як? Відповідай якомога скоріше.

// 18289
//If the question was answerable by a first-year student - “You had someone else
//cast broomstick enchantments on your underwear, then you Obliviated them.”
Якщо відповідь на це питання міг дати першокласник...

-- Хтось наклав чари мітли на ваше спіднє, а тоді ви забуттятнули його.

// 18290
//“Not quite,” said Professor Quirrell. “The broomstick enchantments require a
//long narrow shape, which must be solid. Cloth will not do.”
-- Не зовсім, -- сказав професор Квірел. -- Чари мітли потребують довгої вузької
форми, і обʼєкт має бути твердим. Одяг не підійде.

// 18291
//Harry’s eyebrows furrowed. “How long does the shape have to be? Can you attach
//some short broomstick rods to a fabric harness, and fly using those?”
Гаррі насупив брови.

-- Наскільки довгою має бути форма? Чи можна підʼєднати короткі палички-мітли до
тканини, і літати на цьому?

// 18292
//“Indeed, at first I strapped enchanted rods to my arms and legs, but that was
//only to teach myself a new mode of flight.” Professor Quirrell drew back the
//sleeve of his robes, revealing the bare arm. “As you can see, I have nothing up
//my sleeve right now.”
-- І справді, спочатку я прикріпив зачакловані палиці до рук та ніг, але лише
щоб навчитися нового режиму польоту, -- професор Квірел засукав рукав мантії й
показав голу руку. -- Як бачиш, зараз до мого рукаву нічого не прикріплено.

// 18293
//Harry absorbed this further constraint. “You had someone cast broomstick
//enchantments on your __bones?__”
Гаррі обробив це додаткове обмеження.

-- Хтось наклав чари мітли на ваші __кістки__?

// 18294
//Professor Quirrell sighed. “And that was one of Voldemort’s most feared feats,
//or so I am told. After all these years, and some amount of reluctant
//Legilimency, I still do not truly comprehend what is __wrong__ with
//ordinary people… But you are not one of them. It is time for you to begin
//contributing to this expedition. You have known Severus Snape more recently
//than I. Tell me your own analysis of this room.”
Професор Квірел зітхнув.

-- А як мені казали, це одне з найстрашніших досягнень Волдеморта. Після
стількох років та чималого використання виманології, я досі погано розумію, __що
не так__ зі звичайними людьми... Але ти не один з них. І прийшов час тобі робити
свій внесок у цю експедицію. Ти знав Северуса Снейпа з ближчого часу, ніж я.
Я хочу почути твій аналіз цієї кімнати.

// 18295
//Harry hesitated, trying to look thoughtful.
Гаррі завагався, він напускав на себе задумливість.

// 18296
//“I will mention,” said Professor Quirrell, as the blackened-fire-phoenix on his
//shoulder seemed to extend its head and glare at Harry, “that if you knowingly
//allow me to fail, I will call it betrayal. I remind you that the Stone is key
//to Miss Granger’s resurrection, and that I hold hostage the lives of hundreds
//of students.”
-- Зазначу, -- сказав професор Квірел, а чорно-вогняний фенікс на його плечі
ніби видовжив голову, щоб зиркнути на Гаррі, -- якщо ти свідомо дозволиш мені
зазнати невдачі, я визнаю це зрадою. Нагадую, що Камінь -- це ключ до
відродження міс Ґрейнджер, а також у мене в заручниках життя сотень учнів.

// 18297
//“I remember,” Harry said, and on the heels of this Harry’s wonderful inventive
//brain came up with a thought.
-- Я памʼятаю, -- сказав Гаррі, і майже тієї ж миті чудовий винахідливий мозок
Гаррі дещо вигадав.

// 18298
//Harry wasn’t sure if he should say it.
Гаррі не був певен, що про це варто казати.

// 18299
//The silence stretched.
//! 84%
Мовчанка затяглася.

// 18300
//“Have you thought of anything yet?” said Professor Quirrell. “Answer in
//Parseltongue.”
-- Щось уже спало на думку? -- спитав професор Квірел. -- Відповідай
парселмовою.

// 18301
//No, this was __not__ going to be easy, not against a smart opponent who
//could force you to tell the literal truth at any time. “Severus, at least the
//modern-day Severus, respects your intelligence a great deal,” Harry said
//instead. “I think… I think he might __expect__ Voldemort to believe that
//Severus wouldn’t believe that Voldemort could pass his test of patience, but
//Severus __would__ expect Voldemort to pass it.”
Ні, це буде __непросто__ -- боротися з розумним ворогом, що здатен примусити
тебе видати щиру правду в будь-яку мить.

-- Северус, принаймні сучасний Северус, вкрай поважає ваш інтелект, -- сказав
Гаррі натомість. -- Гадаю... гадаю він міг __очікувати__, що Волдеморт повірить,
що Северус не повірить, що Волдеморт здатен пройти цей тест на терпіння, але
Северус __очікував би__, що Волдеморт його пройде.

// 18302
//Professor Quirrell nodded. “That is a plausible theory. Do you believe it
//yourself? Answer in Parseltongue.”
Професор Квірел кивнув.

-- Пристойна теорія. Чи віриш у неї ти сам? Відповідай парселмовою.

// 18303
//__“Yess,__” Harry hissed. It might not be safe to withhold information,
//not even thoughts and ideas… “Therefore, the point of this room is to delay
//Lord Voldemort for an hour. And if I wanted to kill you, believing what
//Dumbledore believes, the obvious thing to try would be a Dementor’s Kiss. I
//mean, they think you’re a disembodied soul - are you, by the way?”
-- __Вірю й ссам__, -- прошипів Гаррі. Може бути небезпечним утримувати
інформацію, навіть думки та ідеї... -- Тому метою цієї кімнати є затримати лорда
Волдеморта на годину. А якби я хотів вас убити, вірячи в те, у що вірить
Дамблдор, очевидним рішенням було б спробувати Цілунок дементора. Тобто, вони
вважають вас безтілесною душею... до речі, це правда?

// 18304
//Professor Quirrell was still. “Dumbledore would not think of that method,” the
//Defense Professor said after a time. “But Severus might.” Professor Quirrell
//began to tap a finger against his cheek, his gaze distant. “You have power over
//Dementors, boy, can you tell me if there are any nearby?”
Професор Квірел завмер.

-- Дамблдорові не спав би на думку такий метод, -- по деякому часі сказав
професор із захисту. -- Але Северусові міг би.

Професор Квірел постукував пальцем по щоці, дивився він кудись у далечінь.

-- У тебе є влада над дементорами, хлопче, чи можеш ти сказати, чи є дементор
поряд?

// 18305
//Harry closed his eyes. If there were voids in the world, he could not feel
//them. “None that I can sense.”
Гаррі заплющив очі. Якщо поряд і були рани світу, він не міг їх відчути.

-- Якщо є, я не відчуваю його.

// 18306
//“Answer in Parseltongue.”
-- Відповідай парселмовою.

// 18307
//“__Do not ssensse life-eaterss.__”
-- __Не відчуваю приссутність життєжерів.__

// 18308
//“But you were being honest with me when you suggested the possibility? You
//intended no clever trickery?”
-- Але ти чесно вважаєш це можливим? Не мав на меті якихось хитрощів?

// 18309
//“__Wass honesst. Not trick.__”
-- __Був чессним. Жодних хитрошщів.__

// 18310
//“Perhaps there is some means by which Dementors might be concealed, being told
//to leap out and eat a possessing soul if they see one…” Professor Quirrell was
//still tapping his cheek. “It is not impossible that I would qualify. Or it can
//be told to eat anyone who passes through this room too quickly, or anyone who
//is not a child. Bearing in mind that I hold Hermione and hundreds of other
//students hostage over you, would you use your power over Dementors to defend
//me, if a Dementor unmasked itself? Answer in Parseltongue.”
-- Можливо, існує якийсь спосіб приховати дементора... І йому могли наказати
зʼїсти душу, що заволоділа чужим тілом, якщо вони таку побачать... -- професор
Квірел і далі стукав пальцем по щоці. -- Не виключено, що я підпадаю під цю
умову. Чи дементору могли наказати зʼїсти будь-кого, хто пройде кімнату надто
швидко, чи будь-кого, хто не є дитиною. Нагадую про Герміону та сотні інших
заручників-учнів. Чи використаєш ти свою владу над дементорами, щоб перемогти
мене, якщо зʼявиться дементор? Відповідай парселмовою.

// 18311
//“__Don’t know,__” Harry hissed.
-- __Я не знаю__, -- прошипів Гаррі.

// 18312
//“__Life-eaterss cannot desstroy me, I think,__” hissed Professor Quirrell.
//”__And I will ssimply abandon thiss body if they approach too closse.
//Sshall return sswiftly thiss time, and then there will be no sstopping me. Will
//torture your parentss for yearss, to punissh you for balking me. Hundredss of
//hosstage sstudentss die, including thosse you call friendss. Now I assk again.
//Will you usse power over life-eaterss to protect me, if life-eaterss come?__”
-- __Життєжери не здатні мене знишщити, гадаю__, -- прошипів професор Квірел. --
__І я проссто покину це тіло, якшщо вони підійдуть надто близько. Цього разу
повернусся шшвидко й нішщо мене не сспинить. Катуватиму твоїх батьків роками в
покарання за те, шщо ти перешшкоджав мені. Ссотні учнів-заручників помруть,
включно з тими, кого ти називаєшш друзями. Я питаю знову. Чи викорисстаєшш ти
ссвою владу над життєжерами, шщоб захистити мене, якшщо вони зʼявляться?__

// 18313
//“__Yess,__” Harry whispered. The sadness and horror that Harry had pushed
//down flared up again, and his dark side had no stored patterns for handling the
//emotions. __Why, Professor Quirrell, why are you like this…__
-- __Так__, -- прошепотів-прошипів Гаррі.

Сум та жах, що й так тиснули на нього, знову запалали, а в його темної сторони
не було жодних методів стримувати емоції. __Чому, професоре Квірел, чому ви
стали таким...__

// 18314
//Professor Quirrell smiled. “That reminds me. Have you betrayed me yet?”
Професор Квірел посміхнувся.

-- Це мені нагадало. Ти мене ще не зрадив?

// 18315
//“__Have not betrayed you yet.__”
-- __Шще не зрадив васс.__

// 18316
//Professor Quirrell went over to the Potions equipment, and began chopping a
//root one-handed, the knife moving almost invisibly fast and with no apparent
//effort. The Fiendfyre phoenix drifted over to the opposite corner of the room
//and waited there. “All matters considered in their uncertainty, it seems wiser
//to expend the time to pass this room as a first-year would,” said the Defense
//Professor. “We may as well talk while we are waiting. You had questions, boy? I
//said that I would answer them, so ask.”
Професор Квірел підійшов до приладдя зіллєваріння й почав нарізати корінь однією
рукою. Ніж рухався з майже невидимою швидкістю без видимих зусиль. Фенікс зі
зложару відлетів до протилежного кута кімнати й чекав там.

-- Враховуючи всі невизначені фактори, видається мудрішим витратити час та
пройти цю кімнату, як пройшли б першокласники, -- сказав професор із захисту. --
Можемо порозмовляти, доки чекаємо. У тебе були питання, хлопче? Я казав, що
відповім на них, тож питай.

***

// 18317
//__Ch. 108 (long) will post on __**February 20th, 2015**
//__at__ **1 pm Pacific Time** __(9pm UTC).__

// 18318
//__Those of you who have outstanding disputes regarding the Defense
//Professor’s secrets should bet now, or forever hold your peace.__
__Примітка автора: ті з вас, у кого є невирішені суперечки щодо таємниць
професора із захисту, мають зробити свою ставку зараз, чи назавжди
заспокоїтися.__
